{
  "itemKey": "01bback",
  "itemName": "Protectorate Background",
  "iconFile": "01bback.png",
  "price": 0,
  "rarity": "Common",
  "maxStack": 0,
  "foodValue": 0.0,
  "rottingMultiplier": 0.0,
  "printable": false,
  "colonyTags": [],
  "race": "human",
  "description": "A set piece not designed to be used as an object."
}