{
  "itemKey": "16gbpasty",
  "itemName": "Rusty Pasty",
  "iconFile": "16gbpasty.png",
  "price": 450,
  "rarity": "Uncommon",
  "category": "preparedFood",
  "maxStack": 1,
  "foodValue": 55.0,
  "rottingMultiplier": 1.0,
  "printable": true,
  "description": "A pasty big enough to hold all your favourite metallic tasting vegetables."
}