{
  "itemKey": "3dprinter",
  "itemName": "Pixel Printer",
  "iconFile": "3dprinter.png",
  "price": 2000,
  "rarity": "Legendary",
  "category": "crafting",
  "maxStack": 0,
  "foodValue": 0.0,
  "rottingMultiplier": 0.0,
  "printable": false,
  "colonyTags": [
    "crafting"
  ],
  "race": "generic",
  "description": "This machine can reorganize pixels into almost any shape.",
  "apexDescription": "A pixel printer... So few people have access to these.",
  "avianDescription": "Pixel printing... The technology that changed the universe.",
  "floranDescription": "Pretty pixelsss print pretty thingss for Floran.",
  "glitchDescription": "In love. Such technology is art.",
  "humanDescription": "Pixel printing... Near god-like power.",
  "hylotlDescription": "Pixel printing, the power of the pixel at my fingertips... The \u0027god particle\u0027.",
  "novakidDescription": "Pixel printing is pretty fancy."
}