{
  "itemKey": "adventurerobothead",
  "itemName": "Adventurer\u0027s Mask",
  "iconFile": "adventurerobothead.png",
  "price": 0,
  "rarity": "Rare",
  "category": "headwear",
  "maxStack": 1,
  "foodValue": 0.0,
  "rottingMultiplier": 0.0,
  "printable": true,
  "description": "This prototype mask is inspired by the Glitch.-NOT USED-"
}