{
  "itemKey": "agrobataf",
  "itemName": "Agrobat Figurine",
  "iconFile": "agrobataf.png",
  "price": 5000,
  "rarity": "Legendary",
  "category": "actionFigure",
  "maxStack": 0,
  "foodValue": 0.0,
  "rottingMultiplier": 0.0,
  "printable": false,
  "colonyTags": [
    "pretty"
  ],
  "description": "The label reads, \"Due to its sensitive eyes it prefers dark settings, like caves.\""
}