{
  "itemKey": "alienchest",
  "itemName": "Alien Chest",
  "iconFile": "alienchest.png",
  "price": 70,
  "rarity": "Common",
  "category": "storage",
  "maxStack": 0,
  "foodValue": 0.0,
  "rottingMultiplier": 0.0,
  "printable": false,
  "colonyTags": [
    "alien",
    "storage",
    "odd"
  ],
  "race": "generic",
  "description": "An alien chest.",
  "apexDescription": "I prefer my chests to be made out of metal.",
  "avianDescription": "An alien chest. It seems rather warm to the touch.",
  "floranDescription": "Purple chessst full of treats for Floran?",
  "glitchDescription": "Appreciative. What a vibrant colour.",
  "humanDescription": "What\u0027s this chest made from?",
  "hylotlDescription": "A chest made from some material that I don\u0027t recognise. What could it be?",
  "novakidDescription": "A purple coloured chest."
}