{
  "itemKey": "alienrock",
  "itemName": "Alien Rock",
  "iconFile": "alienrock.png",
  "price": 0,
  "rarity": "Common",
  "category": "block",
  "maxStack": 0,
  "foodValue": 0.0,
  "rottingMultiplier": 0.0,
  "printable": true,
  "description": "This strange rock comes from an alien world."
}