{
  "itemKey": "alienbed",
  "itemName": "Alien Bed",
  "iconFile": "alienbed.png",
  "price": 160,
  "rarity": "Common",
  "category": "furniture",
  "maxStack": 0,
  "foodValue": 0.0,
  "rottingMultiplier": 0.0,
  "printable": false,
  "colonyTags": [
    "alien",
    "odd"
  ],
  "race": "generic",
  "description": "An alien bed. It seems to be alive.",
  "apexDescription": "I miss my normal bed at home.",
  "avianDescription": "An alien bed. Are those leaves?",
  "floranDescription": "Plant bed!",
  "glitchDescription": "Suspicious. This bed emits some sort of... Body heat?",
  "humanDescription": "It\u0027s warm and spongy to the touch.",
  "hylotlDescription": "A peculiar design for a bed.",
  "novakidDescription": "It\u0027s a funny designed bed, that\u0027s for sure."
}