{
  "itemKey": "alienglowplant1",
  "itemName": "Glowing Alien Plant",
  "iconFile": "alienglowplant1.png",
  "price": 0,
  "rarity": "Common",
  "category": "light",
  "maxStack": 0,
  "foodValue": 0.0,
  "rottingMultiplier": 0.0,
  "printable": false,
  "colonyTags": [
    "alien"
  ],
  "race": "generic",
  "description": "A glowing alien plant."
}