{
  "itemKey": "alienchair",
  "itemName": "Alien Chair",
  "iconFile": "alienchair.png",
  "price": 75,
  "rarity": "Common",
  "category": "furniture",
  "maxStack": 0,
  "foodValue": 0.0,
  "rottingMultiplier": 0.0,
  "printable": false,
  "colonyTags": [
    "alien",
    "odd"
  ],
  "race": "generic",
  "description": "An alien chair. It seems alive.",
  "apexDescription": "I\u0027d prefer something less organic.",
  "avianDescription": "An unordinary chair.",
  "floranDescription": "Floran likesss plant chair. Plant chair isss friend!",
  "glitchDescription": "Observant. The chair is made from organic alien material.",
  "humanDescription": "Is that an alien chair? I don\u0027t want to put my butt on it.",
  "hylotlDescription": "A chair made from alien plant.",
  "novakidDescription": "Is this a chair made of alien plant?"
}