{
  "itemKey": "aliendoor",
  "itemName": "Alien Door",
  "iconFile": "aliendoor.png",
  "price": 105,
  "rarity": "Common",
  "category": "door",
  "maxStack": 0,
  "foodValue": 0.0,
  "rottingMultiplier": 0.0,
  "printable": false,
  "colonyTags": [
    "alien",
    "door",
    "odd"
  ],
  "race": "generic",
  "description": "An alien plant door.",
  "apexDescription": "I wonder how this was constructed?",
  "avianDescription": "It feels like the door is looking at me.",
  "floranDescription": "Floran like plant door.",
  "glitchDescription": "Curious. Is this door alive?",
  "humanDescription": "Who thought a door like this was a good idea?",
  "hylotlDescription": "This door has a presence.",
  "novakidDescription": "A very strange looking door indeed..."
}