{
  "itemKey": "alpacavillagerlegs",
  "itemName": "Alien Alpaca Real Legs",
  "iconFile": "alpacavillagerlegs.png",
  "price": 0,
  "rarity": "Rare",
  "category": "legwear",
  "maxStack": 1,
  "foodValue": 0.0,
  "rottingMultiplier": 0.0,
  "printable": true,
  "description": "Real Alpaca legs! Why do you have these?"
}