{
  "itemKey": "alpacaliferune",
  "itemName": "Life Rune",
  "iconFile": "alpacaliferune.png",
  "price": 20,
  "rarity": "Common",
  "category": "decorative",
  "maxStack": 0,
  "foodValue": 0.0,
  "rottingMultiplier": 0.0,
  "printable": true,
  "colonyTags": [
    "pretty"
  ],
  "race": "generic",
  "description": "An ancient rune that is the symbol of life.",
  "apexDescription": "It\u0027s an old rune for life itself.",
  "avianDescription": "This rune is thought to represent the essence of life.",
  "floranDescription": "An old symbol, it meansss life.",
  "glitchDescription": "Optimistic. An old rune that represents the virtue of life.",
  "humanDescription": "This is an old rune that means life, apparently.",
  "hylotlDescription": "An ancient marking to represent all life in a single symbol.",
  "novakidDescription": "A rune to symbolise all life, a tall order for one little rune."
}