{
  "itemKey": "alpacachest",
  "itemName": "Alien Alpaca Sweater",
  "iconFile": "alpacachest.png",
  "price": 2500,
  "rarity": "Rare",
  "category": "chestwear",
  "maxStack": 1,
  "foodValue": 0.0,
  "rottingMultiplier": 0.0,
  "printable": true,
  "description": "If you\u0027re going to travel the universe, don\u0027t forget to bring a warm sweater."
}