{
  "itemKey": "anatomyapexhead",
  "itemName": "Apex Anatomy Mask",
  "iconFile": "anatomyapexhead.png",
  "price": 2500,
  "rarity": "Rare",
  "category": "headwear",
  "maxStack": 1,
  "foodValue": 0.0,
  "rottingMultiplier": 0.0,
  "printable": true,
  "description": "It\u0027s educational! A mask of the apex, muscular anatomy."
}