{
  "itemKey": "anchor",
  "itemName": "Anchor",
  "iconFile": "anchor.png",
  "price": 80,
  "rarity": "Common",
  "category": "decorative",
  "maxStack": 0,
  "foodValue": 0.0,
  "rottingMultiplier": 0.0,
  "printable": true,
  "colonyTags": [
    "avian",
    "avianairship",
    "explorer"
  ],
  "race": "avian",
  "description": "A heavy metal anchor. Yarr.",
  "apexDescription": "A heavy piece of iron, an anchor perhaps.",
  "avianDescription": "An anchor from an Avian airship. Ironically, many of the grounded live their lives on airships amongst the clouds.",
  "floranDescription": "Iron hook, very heavy.",
  "glitchDescription": "Curious. The Glitch make use of anchors like these on their great sailing ships. Why is this one here?",
  "humanDescription": "A massive anchor.",
  "hylotlDescription": "Ah, an anchor, I have heard tales of these smashing through Hylotl structures.",
  "novakidDescription": "That\u0027s one heavy lookin\u0027 hunk of metal."
}