{
  "itemKey": "ancientpot5",
  "itemName": "Tall Ancient Pot",
  "iconFile": "ancientpot5.png",
  "price": 0,
  "rarity": "Legendary",
  "category": "breakable",
  "maxStack": 0,
  "foodValue": 0.0,
  "rottingMultiplier": 0.0,
  "printable": false,
  "colonyTags": [
    "ancient"
  ],
  "race": "ancient",
  "description": "This ancient pot is in remarkable shape considering how old it is.",
  "apexDescription": "Whatever is inside this ancient pot has been long forgotten.",
  "avianDescription": "I don\u0027t think this pot is ceremonial in nature. I wonder what could be inside.",
  "floranDescription": "Ancient potss need ssmashing.",
  "glitchDescription": "Amazed. This ancient pot has managed to survive the ravages of time.",
  "humanDescription": "This pot looks ancient! Maybe there\u0027s something still inside it.",
  "hylotlDescription": "I wonder what ancient treasures could be inside this old pot.",
  "novakidDescription": "Almost a shame to bust up a pot so old..."
}