{
  "itemKey": "ancientbrick",
  "itemName": "Ancient Brick",
  "iconFile": "ancientbrick.png",
  "price": 0,
  "rarity": "Common",
  "category": "block",
  "maxStack": 0,
  "foodValue": 0.0,
  "rottingMultiplier": 0.0,
  "printable": true,
  "description": "This carved brick is immeasurably old."
}