{
  "itemKey": "ancientmural6",
  "itemName": "Ancient Mural",
  "iconFile": "ancientmural6.png",
  "price": 0,
  "rarity": "Legendary",
  "category": "decorative",
  "maxStack": 0,
  "foodValue": 0.0,
  "rottingMultiplier": 0.0,
  "printable": false,
  "colonyTags": [
    "ancient"
  ],
  "race": "ancient",
  "description": "A huge shattered mural.",
  "apexDescription": "The glowing glyphs on this mural give off a cold light. I wonder how old it is?",
  "avianDescription": "I have a strange feeling that I\u0027m the first person to see this in a long time.",
  "floranDescription": "Floran hasss no time for big words.",
  "glitchDescription": "Discontent. This fragmented plaque has impossibly ancient inscriptions upon it.",
  "humanDescription": "There\u0027s something exciting about ancient glowing writing. I wonder what it says?",
  "hylotlDescription": "I wonder if this plaque was placed here so that I would find it? I shiver at the thought.",
  "novakidDescription": "Have I seen this before? Naw, I must be imaginin\u0027 things."
}