{
  "itemKey": "ancientpressureplate",
  "itemName": "Ancient Pressure Plate",
  "iconFile": "ancientpressureplate.png",
  "price": 0,
  "rarity": "Legendary",
  "category": "wire",
  "maxStack": 0,
  "foodValue": 0.0,
  "rottingMultiplier": 0.0,
  "printable": false,
  "colonyTags": [
    "ancient",
    "wired"
  ],
  "race": "ancient",
  "description": "Use this pressure plate wisely.",
  "apexDescription": "I wonder what mechanical wonders this pressure plate could connect to.",
  "avianDescription": "Pressure tiles like this are common in Avian tombs.",
  "floranDescription": "Careful. Sssmallest step could trigger this plate.",
  "glitchDescription": "Interested. This tile could be used to trigger any number of things.",
  "humanDescription": "Stepping on this old tile could trigger a trap!",
  "hylotlDescription": "I\u0027ve seen tiles like this used in ancient traps.",
  "novakidDescription": "This tile looks like it could be rigged up to somethin\u0027."
}