{
  "itemKey": "ancientprop",
  "itemName": "TODO - Ancient Prop",
  "iconFile": "ancientprop.png",
  "price": 0,
  "rarity": "Legendary",
  "category": "decorative",
  "maxStack": 0,
  "foodValue": 0.0,
  "rottingMultiplier": 0.0,
  "printable": false,
  "colonyTags": [
    "ancient",
    "pretty"
  ],
  "race": "ancient",
  "description": "A temporary prop.",
  "apexDescription": "A temporary prop.",
  "avianDescription": "A temporary prop.",
  "floranDescription": "A temporary prop.",
  "glitchDescription": "A temporary prop.",
  "humanDescription": "A temporary prop.",
  "hylotlDescription": "A temporary prop."
}