{
  "itemKey": "ancientlight",
  "itemName": "Ancient Wall Light",
  "iconFile": "ancientlight.png",
  "price": 0,
  "rarity": "Common",
  "category": "light",
  "maxStack": 0,
  "foodValue": 0.0,
  "rottingMultiplier": 0.0,
  "printable": false,
  "colonyTags": [
    "ancient",
    "light"
  ],
  "race": "ancient",
  "description": "A wall light.",
  "apexDescription": "What has been supplying this light\u0027s power for so many years?",
  "avianDescription": "I\u0027d expect a wall lamp this large to give off more light.",
  "floranDescription": "Large ugly old light.",
  "glitchDescription": "Disinterested. A large and unsightly light.",
  "humanDescription": "This light has probably been on for millenia.",
  "hylotlDescription": "There is nothing remarkable about this light.",
  "novakidDescription": "This light gives off a warm glow."
}