{
  "itemKey": "ancientcrystaltrap",
  "itemName": "Ancient Crystal Trap",
  "iconFile": "ancientcrystaltrap.png",
  "price": 0,
  "rarity": "Legendary",
  "category": "trap",
  "maxStack": 0,
  "foodValue": 0.0,
  "rottingMultiplier": 0.0,
  "printable": false,
  "colonyTags": [
    "ancient",
    "evil"
  ],
  "race": "ancient",
  "description": "A crystal trap designed to deter invaders.",
  "apexDescription": "This crystal forms a deadly light beam.",
  "avianDescription": "I wouldn\u0027t want to get caught in its beam.",
  "floranDescription": "Crystal beam hurtsss Floran.",
  "glitchDescription": "Exasperated. A crystal that projects deadly beams of light! Now I have seen everything.",
  "humanDescription": "That beam looks like it would hurt.",
  "hylotlDescription": "If I memorise the pattern of the crystal\u0027s beam I can act accordingly.",
  "novakidDescription": "Crazy crystal shootin\u0027 light right at me!"
}