{
  "itemKey": "ancientstriplight7",
  "itemName": "Ancient Strip Light",
  "iconFile": "ancientstriplight7.png",
  "price": 0,
  "rarity": "Legendary",
  "category": "light",
  "maxStack": 0,
  "foodValue": 0.0,
  "rottingMultiplier": 0.0,
  "printable": false,
  "colonyTags": [
    "ancient",
    "light"
  ],
  "race": "ancient",
  "description": "A mysterious light.",
  "apexDescription": "These lights don\u0027t appear to be powered by electricity.",
  "avianDescription": "These lights give off an ethereal glow.",
  "floranDescription": "Ssstrange blue light...",
  "glitchDescription": "Curious. I can\u0027t see a power source for these ancient lights.",
  "humanDescription": "These lights belong either in ancient ruins, or a nightclub.",
  "hylotlDescription": "I wonder what powers these ancient lights?",
  "novakidDescription": "What keeps this blue light glowin\u0027?"
}