{
  "itemKey": "ancientdoor",
  "itemName": "Ancient Door",
  "iconFile": "ancientdoor.png",
  "price": 0,
  "rarity": "Legendary",
  "category": "door",
  "maxStack": 0,
  "foodValue": 0.0,
  "rottingMultiplier": 0.0,
  "printable": false,
  "colonyTags": [
    "ancient",
    "door"
  ],
  "race": "ancient",
  "description": "An ancient-looking door.",
  "apexDescription": "A door made of an ancient stone.",
  "avianDescription": "A sturdy door of ancient origin.",
  "floranDescription": "Looksss like an ancient door.",
  "glitchDescription": "Guarded. It would not be surprising if this ancient door failed to open.",
  "humanDescription": "I bet these runes say \u0027open\u0027 and \u0027close\u0027.",
  "hylotlDescription": "This door is a relic of a time long past.",
  "novakidDescription": "This \u0027ol door is a relic."
}