{
  "itemKey": "ancientchest",
  "itemName": "Ancient Chest",
  "iconFile": "ancientchest.png",
  "price": 0,
  "rarity": "Legendary",
  "category": "storage",
  "maxStack": 0,
  "foodValue": 0.0,
  "rottingMultiplier": 0.0,
  "printable": false,
  "colonyTags": [
    "ancient",
    "storage"
  ],
  "race": "ancient",
  "description": "An ancient chest of unknown origin.",
  "apexDescription": "An extremely old chest. It could contain anything.",
  "avianDescription": "This chest looks to be very old indeed.",
  "floranDescription": "Floran curiousss... what could be in ssstrange box?",
  "glitchDescription": "Cautious. The structure of this chest is impenetrable to my sensors.",
  "humanDescription": "That is one old looking chest.",
  "hylotlDescription": "This chest has an unfamiliar design, I am unable to determine its maker.",
  "novakidDescription": "It\u0027s a wonder this chest is still standin\u0027 after all this time."
}