{
  "itemKey": "anglureaf",
  "itemName": "Anglure Figurine",
  "iconFile": "anglureaf.png",
  "price": 5000,
  "rarity": "Legendary",
  "category": "actionFigure",
  "maxStack": 0,
  "foodValue": 0.0,
  "rottingMultiplier": 0.0,
  "printable": false,
  "colonyTags": [
    "pretty"
  ],
  "description": "The label reads, \"At night, all you can see of the anglure is its light.\""
}