{
  "itemKey": "apexcoolshelf1",
  "itemName": "Cool Empty Shelf",
  "iconFile": "apexcoolshelf1.png",
  "price": 105,
  "rarity": "Common",
  "category": "decorative",
  "maxStack": 0,
  "foodValue": 0.0,
  "rottingMultiplier": 0.0,
  "printable": true,
  "colonyTags": [
    "apex",
    "apexresearchlab",
    "storage"
  ],
  "race": "apex",
  "description": "There\u0027s nothing of interest on this shelf.",
  "apexDescription": "An empty shelf.",
  "avianDescription": "A place to stack objects.",
  "floranDescription": "Metal shelf iss cold.",
  "glitchDescription": "Disappointed. Nothing here.",
  "humanDescription": "An empty metal shelf.",
  "hylotlDescription": "This shelf looks lonely.",
  "novakidDescription": "Ain\u0027t nothing here to see."
}