{
  "itemKey": "apextier1head",
  "itemName": "Defector\u0027s Mask",
  "iconFile": "apextier1head.png",
  "price": 480,
  "rarity": "Common",
  "category": "headarmour",
  "maxStack": 1,
  "foodValue": 0.0,
  "rottingMultiplier": 0.0,
  "printable": true,
  "description": "An iron mask that somewhat disguises the wearer\u0027s identity."
}