{
  "itemKey": "apexmocksign",
  "itemName": "Disobey Sign",
  "iconFile": "apexmocksign.png",
  "price": 70,
  "rarity": "Common",
  "category": "decorative",
  "maxStack": 0,
  "foodValue": 0.0,
  "rottingMultiplier": 0.0,
  "printable": true,
  "colonyTags": [
    "apex",
    "apexvillage",
    "odd"
  ],
  "race": "apex",
  "description": "A defaced poster of Big Ape.",
  "apexDescription": "Looks like someone isn\u0027t fond of Big Ape.",
  "avianDescription": "A defaced poster of Big Ape. Good work.",
  "floranDescription": "Floran find monkey funny!",
  "glitchDescription": "Amused. Someone has defaced this Big Ape poster.",
  "humanDescription": "Looks like someone isn\u0027t afraid of the Miniknog.",
  "hylotlDescription": "Even during times of oppression, the Apex take time out to deface posters.",
  "novakidDescription": "Defacin\u0027 a Big Ape poster is a daring move. I bet someone paid the price."
}