{
  "itemKey": "apexcooltable",
  "itemName": "Cool Table",
  "iconFile": "apexcooltable.png",
  "price": 105,
  "rarity": "Common",
  "category": "furniture",
  "maxStack": 0,
  "foodValue": 0.0,
  "rottingMultiplier": 0.0,
  "printable": true,
  "colonyTags": [
    "apex",
    "apexresearchlab",
    "commerce"
  ],
  "race": "apex",
  "description": "That sure is a cool table.",
  "apexDescription": "A basic laboratory table.",
  "avianDescription": "An alchemist\u0027s mixing station.",
  "floranDescription": "A table for experimentsss.",
  "glitchDescription": "Sarcastic. A very interesting find.",
  "humanDescription": "Looks like a lab table.",
  "hylotlDescription": "A table built for scientific use.",
  "novakidDescription": "A metallic table."
}