{
  "itemKey": "apextier4pants",
  "itemName": "Revolutionary\u0027s Trousers",
  "iconFile": "apextier4pants.png",
  "price": 1600,
  "rarity": "Uncommon",
  "category": "legarmour",
  "maxStack": 1,
  "foodValue": 0.0,
  "rottingMultiplier": 0.0,
  "printable": true,
  "description": "Durasteel-lined trousers, accompanied by heavy-duty boots. Sleek and practical - vive la revolution!"
}