{
  "itemKey": "apexbrainjar",
  "itemName": "Brain in a Jar",
  "iconFile": "apexbrainjar.png",
  "price": 50,
  "rarity": "Common",
  "category": "decorative",
  "maxStack": 0,
  "foodValue": 0.0,
  "rottingMultiplier": 0.0,
  "printable": true,
  "colonyTags": [
    "apex",
    "apexresearchlab",
    "science",
    "odd"
  ],
  "race": "apex",
  "description": "A brain in a jar, daydreaming.",
  "apexDescription": "This is an Apex brain...",
  "avianDescription": "This brain is so large.",
  "floranDescription": "Sssucculent pickled brain.",
  "glitchDescription": "Jealous. A real brain..",
  "humanDescription": "Is that a... brain?",
  "hylotlDescription": "Foolishness, to believe the mind can be confined to a jar.",
  "novakidDescription": "A brain in a jar? I ain\u0027t comfortable with that."
}