{
  "itemKey": "apexcooldesk",
  "itemName": "Cool Desk",
  "iconFile": "apexcooldesk.png",
  "price": 120,
  "rarity": "Common",
  "category": "furniture",
  "maxStack": 0,
  "foodValue": 0.0,
  "rottingMultiplier": 0.0,
  "printable": true,
  "colonyTags": [
    "apex",
    "apexresearchlab",
    "storage",
    "commerce"
  ],
  "race": "apex",
  "description": "This desk is sleek, looks solid.",
  "apexDescription": "I wonder who worked here...",
  "avianDescription": "A desk of metal - clinical in appearance.",
  "floranDescription": "Dessk iss cool to touch.",
  "glitchDescription": "Indifference. A desk.",
  "humanDescription": "A professional-looking desk.",
  "hylotlDescription": "A thin metal desk.",
  "novakidDescription": "A shiny lookin\u0027 desk made outta metal."
}