{
  "itemKey": "apexcounter1",
  "itemName": "Standard Issue Cabinet",
  "iconFile": "apexcounter1.png",
  "price": 110,
  "rarity": "Common",
  "category": "storage",
  "maxStack": 0,
  "foodValue": 0.0,
  "rottingMultiplier": 0.0,
  "printable": true,
  "colonyTags": [
    "apex",
    "apexvillage",
    "storage"
  ],
  "race": "apex",
  "description": "A pair of standard issue kitchen cabinets.",
  "apexDescription": "Old-fashioned but functional.",
  "avianDescription": "A good place to store food.",
  "floranDescription": "Ssstorage for food. Mmmmmm.",
  "glitchDescription": "Eager. The possibility of food excites even the Glitch.",
  "humanDescription": "Looks like a kitchen counter.",
  "hylotlDescription": "What dishes might dwell within, I wonder?",
  "novakidDescription": "Just a good ol\u0027 kitchen counter."
}