{
  "itemKey": "apexpainting4",
  "itemName": "Standard Issue Painting",
  "iconFile": "apexpainting4.png",
  "price": 50,
  "rarity": "Common",
  "category": "decorative",
  "maxStack": 0,
  "foodValue": 0.0,
  "rottingMultiplier": 0.0,
  "printable": true,
  "colonyTags": [
    "apex",
    "apexvillage",
    "pretty"
  ],
  "race": "apex",
  "description": "Don\u0027t underestimate an Apex\u0027s love for bananas.",
  "apexDescription": "Some are so fond of the banana that they immortalise it in art.",
  "avianDescription": "A yellow fruit.",
  "floranDescription": "Floran hate ssquishy yellow food.",
  "glitchDescription": "Observant. It appears to be a fruit.",
  "humanDescription": "A banana... okay.",
  "hylotlDescription": "Someone must care greatly for their yellow fruit.",
  "novakidDescription": "Some kinda pop art?"
}