{
  "itemKey": "apexhdtv",
  "itemName": "Big Ape HDTV",
  "iconFile": "apexhdtv.png",
  "price": 300,
  "rarity": "Common",
  "category": "decorative",
  "maxStack": 0,
  "foodValue": 0.0,
  "rottingMultiplier": 0.0,
  "printable": true,
  "colonyTags": [
    "apex",
    "apexresearchlab",
    "electronic"
  ],
  "race": "apex",
  "description": "I think Big Ape is watching...",
  "apexDescription": "Is this Big Ape? I\u0027ve never met someone that\u0027s actually seen him...",
  "avianDescription": "That is a large monkey.",
  "floranDescription": "It\u0027sss a large tv.",
  "glitchDescription": "Cautious. Can he see us?",
  "humanDescription": "Is that the infamous Big Ape I keep hearing about?",
  "hylotlDescription": "Is this the brute responsible for the Apex regime?",
  "novakidDescription": "A big ol\u0027 monitor. Displaying nothin\u0027 but a big ol\u0027 Ape."
}