{
  "itemKey": "apexmedsign",
  "itemName": "Medical Bay Sign",
  "iconFile": "apexmedsign.png",
  "price": 50,
  "rarity": "Common",
  "category": "decorative",
  "maxStack": 0,
  "foodValue": 0.0,
  "rottingMultiplier": 0.0,
  "printable": true,
  "colonyTags": [
    "apex",
    "apexresearchlab"
  ],
  "race": "apex",
  "description": "The sign indicates something medicine-related in the vicinity.",
  "apexDescription": "The Apex have some of the best medical tech in the entire galaxy but also the lowest life expectancy.",
  "avianDescription": "Don\u0027t all races also have healing priests?",
  "floranDescription": "Isss it okay to eat dying tasties?",
  "glitchDescription": "Curious. An opportunity to learn about organic physiology.",
  "humanDescription": "Looks like a hospital sign.",
  "hylotlDescription": "Perhaps a place of healing is close.",
  "novakidDescription": "Medical equipment is kept here."
}