{
  "itemKey": "apextv",
  "itemName": "Big Ape TV",
  "iconFile": "apextv.png",
  "price": 120,
  "rarity": "Common",
  "category": "decorative",
  "maxStack": 0,
  "foodValue": 0.0,
  "rottingMultiplier": 0.0,
  "printable": true,
  "colonyTags": [
    "apex",
    "apexresearchlab",
    "electronic"
  ],
  "race": "apex",
  "description": "There\u0027s nothing on. Every channel just displays a picture of Big Ape.",
  "apexDescription": "Big Ape has never appeared on Big Ape TV.",
  "avianDescription": "There appears to be nothing to interact with on this device.",
  "floranDescription": "Uselesss machine.",
  "glitchDescription": "Observant. The device is receiving thousands of different broadcasts, but they all appear to be the same.",
  "humanDescription": "Did its eyes just move?",
  "hylotlDescription": "The only images of Big Ape appear to be artificial.",
  "novakidDescription": "A creature is staring at me from the screen."
}