{
  "itemKey": "apexshipdoor",
  "itemName": "Apex Ship Door",
  "iconFile": "apexshipdoor.png",
  "price": 125,
  "rarity": "Common",
  "category": "door",
  "maxStack": 0,
  "foodValue": 0.0,
  "rottingMultiplier": 0.0,
  "printable": true,
  "colonyTags": [
    "apex",
    "door"
  ],
  "race": "apex",
  "description": "A door suitable for a spaceship.",
  "apexDescription": "Doors like this are common on ships.",
  "avianDescription": "A spaceship door.",
  "floranDescription": "Ssspaceship door.",
  "glitchDescription": "Informed. A standard ship door.",
  "humanDescription": "A spaceship door.",
  "hylotlDescription": "A basic ship door.",
  "novakidDescription": "A door, the type you\u0027d find on a ship."
}