{
  "itemKey": "apexspecialistpants",
  "itemName": "Specialist Trousers",
  "iconFile": "apexspecialistpants.png",
  "price": 35,
  "rarity": "Common",
  "category": "legwear",
  "maxStack": 1,
  "foodValue": 0.0,
  "rottingMultiplier": 0.0,
  "printable": true,
  "description": "Standard issue Apex specialist trousers."
}