{
  "itemKey": "apextier6apants",
  "itemName": "Infiltrator\u0027s Greaves",
  "iconFile": "apextier6apants.png",
  "price": 2560,
  "rarity": "Legendary",
  "category": "legarmour",
  "maxStack": 1,
  "foodValue": 0.0,
  "rottingMultiplier": 0.0,
  "printable": true,
  "description": "A set of leg armour with solarium-reinforced greaves that little can pierce."
}