{
  "itemKey": "apextier5mhead",
  "itemName": "Spy\u0027s Hood",
  "iconFile": "apextier5mhead.png",
  "price": 2880,
  "rarity": "Rare",
  "category": "headarmour",
  "maxStack": 1,
  "foodValue": 0.0,
  "rottingMultiplier": 0.0,
  "printable": true,
  "description": "Headwear that veils the wearer\u0027s face. The goggles tint the world scarlet."
}