{
  "itemKey": "apextier2head",
  "itemName": "Rebel\u0027s Hood",
  "iconFile": "apextier2head.png",
  "price": 1440,
  "rarity": "Common",
  "category": "headarmour",
  "maxStack": 1,
  "foodValue": 0.0,
  "rottingMultiplier": 0.0,
  "printable": true,
  "description": "This hood and mask gives the wearer a rebellious appearance."
}