{
  "itemKey": "apexbloodbank",
  "itemName": "Bloodbank",
  "iconFile": "apexbloodbank.png",
  "price": 90,
  "rarity": "Common",
  "category": "decorative",
  "maxStack": 0,
  "foodValue": 0.0,
  "rottingMultiplier": 0.0,
  "printable": true,
  "colonyTags": [
    "apex",
    "apexresearchlab",
    "science"
  ],
  "race": "apex",
  "description": "Vials full of various blood types. I hope they didn\u0027t take out ALL their blood.",
  "apexDescription": "A blood bank. Many Apex would never have been seen again after providing its contents.",
  "avianDescription": "The Stargazers believe blood contains magic.",
  "floranDescription": "A vending machine!",
  "glitchDescription": "Curious. For what purpose is this blood used?",
  "humanDescription": "Some of these vials are marked. They\u0027re all marked \u0027failure\u0027.",
  "hylotlDescription": "The Hylotl believe blood should stay inside the body.",
  "novakidDescription": "I can\u0027t say I\u0027ve ever seen this much blood before."
}