{
  "itemKey": "apexslidingdoor1",
  "itemName": "Light Sliding Door",
  "iconFile": "apexslidingdoor1.png",
  "price": 95,
  "rarity": "Common",
  "category": "door",
  "maxStack": 0,
  "foodValue": 0.0,
  "rottingMultiplier": 0.0,
  "printable": true,
  "colonyTags": [
    "apex",
    "apexvillage",
    "door"
  ],
  "race": "apex",
  "description": "A lightweight sliding door, advertised as being slimmer, faster, and more expensive.",
  "apexDescription": "These doors were built to hide secrets.",
  "avianDescription": "Such novel architecture.",
  "floranDescription": "Door hisss like sserpent.",
  "glitchDescription": "Playful. The sliding noise sends a spark through my circuits.",
  "humanDescription": "These sliding doors make a satisfying noise.",
  "hylotlDescription": "This door seems to have no lock or handle.",
  "novakidDescription": "An impressive doorway. These sure don\u0027t come cheap."
}