{
  "itemKey": "apextier6mpants",
  "itemName": "Usurper\u0027s Trousers",
  "iconFile": "apextier6mpants.png",
  "price": 2560,
  "rarity": "Legendary",
  "category": "legarmour",
  "maxStack": 1,
  "foodValue": 0.0,
  "rottingMultiplier": 0.0,
  "printable": true,
  "description": "Don\u0027t be fooled by their sleek looks, these trousers are uncommonly durable."
}