{
  "itemKey": "apexcoolshelf2",
  "itemName": "Cool Chemical Shelf",
  "iconFile": "apexcoolshelf2.png",
  "price": 120,
  "rarity": "Common",
  "category": "decorative",
  "maxStack": 0,
  "foodValue": 0.0,
  "rottingMultiplier": 0.0,
  "printable": true,
  "colonyTags": [
    "apex",
    "apexresearchlab",
    "storage",
    "science"
  ],
  "race": "apex",
  "description": "It seems irresponsible to leave a bunch of unlabelled chemicals unattended.",
  "apexDescription": "A shelf full of experimental concoctions.",
  "avianDescription": "An alchemist\u0027s potions.",
  "floranDescription": "Dangerouss ssticky liquid.",
  "glitchDescription": "Curious. What would happen if I drank one?",
  "humanDescription": "I don\u0027t think anything on this shelf is safe to drink.",
  "hylotlDescription": "Many of these liquids could kill in seconds.",
  "novakidDescription": "I have a feelin\u0027 those are not for drinkin\u0027."
}