{
  "itemKey": "apexdonotenter",
  "itemName": "Do Not Enter Sign",
  "iconFile": "apexdonotenter.png",
  "price": 60,
  "rarity": "Common",
  "category": "decorative",
  "maxStack": 0,
  "foodValue": 0.0,
  "rottingMultiplier": 0.0,
  "printable": true,
  "colonyTags": [
    "apex",
    "apexvillage",
    "evil"
  ],
  "race": "apex",
  "description": "Don\u0027t do it!",
  "apexDescription": "These signs are a common sight back home.",
  "avianDescription": "Under whose authority is this sign written?",
  "floranDescription": "Floran enter where Floran want to enter. Sssilly sssign.",
  "glitchDescription": "Rebellious. I no longer take orders.",
  "humanDescription": "Thanks for the suggestion!",
  "hylotlDescription": "Time for caution, I believe.",
  "novakidDescription": "I guess I won\u0027t enter. Or will I...?"
}