{
  "itemKey": "apexnameplate",
  "itemName": "Fancy Plaque",
  "iconFile": "apexnameplate.png",
  "price": 40,
  "rarity": "Common",
  "category": "decorative",
  "maxStack": 0,
  "foodValue": 0.0,
  "rottingMultiplier": 0.0,
  "printable": true,
  "colonyTags": [
    "valuable",
    "pretty"
  ],
  "race": "apex",
  "description": "A fancy plaque with an inscription on it.",
  "apexDescription": "An inscribed metal plaque.",
  "avianDescription": "A plaque with an inscription engraved on it.",
  "floranDescription": "A little metal plate with boring writing on it.",
  "glitchDescription": "Intrigued. A small metal plaque with an inscription on it.",
  "humanDescription": "A plaque with an inscription written on it.",
  "hylotlDescription": "A plaque with an inscription inscribed upon it.",
  "novakidDescription": "A metal plate with some writing on it."
}