{
  "itemKey": "apexcurtain",
  "itemName": "Standard Issue Curtain",
  "iconFile": "apexcurtain.png",
  "price": 70,
  "rarity": "Common",
  "category": "decorative",
  "maxStack": 0,
  "foodValue": 0.0,
  "rottingMultiplier": 0.0,
  "printable": true,
  "colonyTags": [
    "apex",
    "apexvillage"
  ],
  "race": "apex",
  "description": "A thin set of short curtains.",
  "apexDescription": "These curtains don\u0027t close. Privacy was not a priority.",
  "avianDescription": "Thin sheets of fabric. They\u0027re too small to cover any window.",
  "floranDescription": "Sssilly Apex make curtain too sssmall to cover window.",
  "glitchDescription": "Confused. Curtains too small for purpose.",
  "humanDescription": "These curtains aren\u0027t very wide. You couldn\u0027t cover a window with them.",
  "hylotlDescription": "This is a fabric of dull colours and rough feel.",
  "novakidDescription": "Some curtains. They seem too short to cover the window."
}