{
  "itemKey": "apexartifactaltar",
  "itemName": "Apex Artifact Altar",
  "iconFile": "apexartifactaltar.png",
  "price": 3000,
  "rarity": "Common",
  "category": "artifact",
  "maxStack": 0,
  "foodValue": 0.0,
  "rottingMultiplier": 0.0,
  "printable": false,
  "colonyTags": [
    "misc"
  ],
  "race": "apex",
  "description": "It looks like it was made to hold something important."
}