{
  "itemKey": "apexspeaker",
  "itemName": "Announcement Intercom",
  "iconFile": "apexspeaker.png",
  "price": 50,
  "rarity": "Common",
  "category": "decorative",
  "maxStack": 0,
  "foodValue": 0.0,
  "rottingMultiplier": 0.0,
  "printable": true,
  "colonyTags": [
    "apex",
    "apexvillage"
  ],
  "race": "apex",
  "description": "Intercoms are often used to broadcast messages...or receive them.",
  "apexDescription": "Intercoms such as these are common place under the Miniknog.",
  "avianDescription": "A dull, low-pitched sound hums from this device.",
  "floranDescription": "Hello...? Floran isss sure someone is listening...",
  "glitchDescription": "Nervous. It is receiving a silent signal from somewhere.",
  "humanDescription": "An intercom system. I wonder if anyone will answer if I speak into it.",
  "hylotlDescription": "The intercom seems to have a camera built into it.",
  "novakidDescription": "A device for broadcasting orders, not music. Shame."
}