{
  "itemKey": "apexaquarium2",
  "itemName": "Empty Wooden Aquarium",
  "iconFile": "apexaquarium2.png",
  "price": 60,
  "rarity": "Common",
  "category": "decorative",
  "maxStack": 0,
  "foodValue": 0.0,
  "rottingMultiplier": 0.0,
  "printable": true,
  "colonyTags": [
    "apex",
    "apexvillage",
    "pretty"
  ],
  "race": "apex",
  "description": "An empty aquarium. How lonely.",
  "apexDescription": "An Apex may only replace his fish once every 3 years.",
  "avianDescription": "This fish has flown the nest.",
  "floranDescription": "Sssomeone got here firsst.",
  "glitchDescription": "Neutral. An empty tank.",
  "humanDescription": "I wonder what happened to the fish...",
  "hylotlDescription": "Memories of home wash over me.",
  "novakidDescription": "It\u0027s for keepin fish. But there ain\u0027t no fish in it."
}