{
  "itemKey": "apexwallpainting1",
  "itemName": "Modern Painting",
  "iconFile": "apexwallpainting1.png",
  "price": 80,
  "rarity": "Common",
  "category": "decorative",
  "maxStack": 0,
  "foodValue": 0.0,
  "rottingMultiplier": 0.0,
  "printable": true,
  "colonyTags": [
    "apex",
    "apexvillage",
    "pretty"
  ],
  "race": "apex",
  "description": "What does it MEAN?",
  "apexDescription": "This went out of style many years ago.",
  "avianDescription": "Such interesting decoration.",
  "floranDescription": "Sssuch shhapes confuse Floran.",
  "glitchDescription": "Appreciative. Accurate geometric art.",
  "humanDescription": "My god, this art is old fashioned.",
  "hylotlDescription": "They say art feeds the soul, but some foods are better than others.",
  "novakidDescription": "Sunset coloured shapes on a canvas."
}