{
  "itemKey": "apexshiplockerTier0",
  "itemName": "Shiplocker",
  "iconFile": "apexshiplockerTier0.png",
  "price": 0,
  "rarity": "Common",
  "category": "decorative",
  "maxStack": 0,
  "foodValue": 0.0,
  "rottingMultiplier": 0.0,
  "printable": false,
  "colonyTags": [
    "apex",
    "storage"
  ],
  "race": "apex",
  "description": "A locker. Store some stuff, why don\u0027t you?",
  "apexDescription": "The ship\u0027s storage system. It\u0027s not currently functional.",
  "avianDescription": "A device that holds many items for safe keeping. It\u0027s broken at the moment.",
  "floranDescription": "Ssstorage. It\u0027sss not working.",
  "glitchDescription": "Distressed. This ship\u0027s storage system is malfunctioning.",
  "humanDescription": "A storage locker. It doesn\u0027t seem to be working.",
  "hylotlDescription": "An elegant storage solution. It\u0027s not currently powered.",
  "novakidDescription": "A locker. Ain\u0027t much use \u0027til it\u0027s fixed."
}