{
  "itemKey": "apexpod2",
  "itemName": "Empty Life Support Pod",
  "iconFile": "apexpod2.png",
  "price": 165,
  "rarity": "Common",
  "category": "light",
  "maxStack": 0,
  "foodValue": 0.0,
  "rottingMultiplier": 0.0,
  "printable": true,
  "colonyTags": [
    "apex",
    "apexresearchlab",
    "science",
    "evil",
    "light"
  ],
  "race": "apex",
  "description": "The pod is empty.",
  "apexDescription": "Thankfully this pod is empty. Is this how the Miniknog attempt to return us to our natural state?",
  "avianDescription": "This is dark science...",
  "floranDescription": "Sssuch machines are unnatural.",
  "glitchDescription": "Attentive. Machine appears to attempt to alter Apex DNA.",
  "humanDescription": "This doesn\u0027t look good. I can\u0027t help but expect something to jump out at me.",
  "hylotlDescription": "This machine attempts to alter DNA in a way that\u0027s not remotely sustainable.",
  "novakidDescription": "I ain\u0027t going near that."
}