{
  "itemKey": "arcadegameclosed",
  "itemName": "Closed Mazebound64",
  "iconFile": "arcadegameclosed.png",
  "price": 0,
  "rarity": "Common",
  "category": "other",
  "maxStack": 0,
  "foodValue": 0.0,
  "rottingMultiplier": 0.0,
  "printable": false,
  "colonyTags": [
    "outpost",
    "pretty"
  ],
  "description": "This would be a neat venue for a stall.",
  "apexDescription": "I am not a fan of Mazebound64. I\u0027ve heard horror stories about Miniknog testing... Mazes give me the creeps.",
  "avianDescription": "Mazebound64 was developed by an Avian team. There aren\u0027t many Avian video games... Perhaps I should make some.",
  "floranDescription": "Floran thinksss Mazebound64 is big bore. Not even meats at the end.",
  "glitchDescription": "Determined. I will escape from this hellish labyrinth and defeat Mazebound64 once and for all! 8/10.",
  "humanDescription": "Mazebound64 is reminiscent of some of the very first video games from Earth. It\u0027s very charming.",
  "hylotlDescription": "Navigating dimly lit corridors, just steps away from freedom... Mazebound64 is beautiful in its simplicity.",
  "novakidDescription": "Mazebound64? Mazes are a big ol\u0027 waste of time."
}