{
  "itemKey": "ashjar3",
  "itemName": "Familiar Jar",
  "iconFile": "ashjar3.png",
  "price": 50,
  "rarity": "Common",
  "category": "breakable",
  "maxStack": 0,
  "foodValue": 0.0,
  "rottingMultiplier": 0.0,
  "printable": true,
  "colonyTags": [
    "avian",
    "aviantemple",
    "pretty"
  ],
  "race": "avian",
  "description": "A familiar-shaped jar. It looks angry and smashable.",
  "apexDescription": "This jar looks very familiar.",
  "avianDescription": "I\u0027ve never seen a jar like this before, perhaps the remains of someone with a sense of humour.",
  "floranDescription": "I wonder how thisss creature tastess.",
  "glitchDescription": "Interested. I have never seen such a creature before.",
  "humanDescription": "Hey that looks like a...",
  "hylotlDescription": "Strange creature.",
  "novakidDescription": "What kinda critter is this supposed to look like?"
}