{
  "itemKey": "astrocabinet",
  "itemName": "Astro Cabinet",
  "iconFile": "astrocabinet.png",
  "price": 110,
  "rarity": "Common",
  "category": "storage",
  "maxStack": 0,
  "foodValue": 0.0,
  "rottingMultiplier": 0.0,
  "printable": true,
  "colonyTags": [
    "astro",
    "storage"
  ],
  "race": "generic",
  "description": "A modern metal cabinet with floor mounting brackets.",
  "apexDescription": "There must be a reason these lockers are shaped this way.",
  "avianDescription": "This cabinet is a little fancy for my tastes, but I like it.",
  "floranDescription": "Cabinetss can hold all sorts of thingsss.",
  "glitchDescription": "Impressed. This small cabinet has a generous storage capacity.",
  "humanDescription": "This locker reminds me of something. Can\u0027t put my finger on it.",
  "hylotlDescription": "I\u0027m a fan of the way this cabinet is designed.",
  "novakidDescription": "A locker, good enough for stashin\u0027 whatever y\u0027need."
}