{
  "itemKey": "astrotable",
  "itemName": "Astro Table",
  "iconFile": "astrotable.png",
  "price": 85,
  "rarity": "Common",
  "category": "furniture",
  "maxStack": 0,
  "foodValue": 0.0,
  "rottingMultiplier": 0.0,
  "printable": true,
  "colonyTags": [
    "astro",
    "commerce"
  ],
  "race": "generic",
  "description": "A solid, floor mounted working surface.",
  "apexDescription": "An industrial looking table.",
  "avianDescription": "This table has a stripe painted on it.",
  "floranDescription": "Jusst a metal table.",
  "glitchDescription": "Indifferent. This table is unremarkable.",
  "humanDescription": "This table is fixed to the floor, otherwise I think it might tip over.",
  "hylotlDescription": "A metal table which has been mounted to the floor.",
  "novakidDescription": "A little table made from metal."
}