{
  "itemKey": "astrodoor",
  "itemName": "Astro Door",
  "iconFile": "astrodoor.png",
  "price": 125,
  "rarity": "Common",
  "category": "door",
  "maxStack": 0,
  "foodValue": 0.0,
  "rottingMultiplier": 0.0,
  "printable": true,
  "colonyTags": [
    "astro",
    "door"
  ],
  "race": "generic",
  "description": "This door forms an airtight seal when closed.",
  "apexDescription": "Doors like these are designed to seal sections of ships or stations.",
  "avianDescription": "This door is designed to survive the harshness of space.",
  "floranDescription": "Space door can ssslide open and closed.",
  "glitchDescription": "Interested. This door design was once popular in ship and station construction.",
  "humanDescription": "This modern door can create an airtight seal to contain atmosphere.",
  "hylotlDescription": "This modern door type is sleek and responsive.",
  "novakidDescription": "This fancy lookin\u0027 door looks like it\u0027d stand up t\u0027about anything."
}