{
  "itemKey": "astromonitor",
  "itemName": "Astro Monitor",
  "iconFile": "astromonitor.png",
  "price": 95,
  "rarity": "Common",
  "category": "decorative",
  "maxStack": 0,
  "foodValue": 0.0,
  "rottingMultiplier": 0.0,
  "printable": true,
  "colonyTags": [
    "astro",
    "electronic"
  ],
  "race": "generic",
  "description": "A compact electronic display monitor.",
  "apexDescription": "This monitor seems designed to display important data.",
  "avianDescription": "I\u0027m not sure I understand what all the buttons on this monitor control.",
  "floranDescription": "Ssspace screen is making strange words.",
  "glitchDescription": "Interested. The information on this display could be important.",
  "humanDescription": "This monitor is sort of an old design, but still kicking.",
  "hylotlDescription": "I like it, a simple and functional monitor.",
  "novakidDescription": "This display can likely show \u0027bout anything y\u0027need to know."
}