{
  "itemKey": "astrowallpanel",
  "itemName": "Astro Wall Panel",
  "iconFile": "astrowallpanel.png",
  "price": 70,
  "rarity": "Common",
  "category": "decorative",
  "maxStack": 0,
  "foodValue": 0.0,
  "rottingMultiplier": 0.0,
  "printable": true,
  "colonyTags": [
    "astro",
    "misc"
  ],
  "race": "generic",
  "description": "A panel designed for inside space environments.",
  "apexDescription": "This wall panel is made from some sort of polymer.",
  "avianDescription": "I\u0027m not sure if panels like this serve a function.",
  "floranDescription": "Sssome kind of plastic panel.",
  "glitchDescription": "Confused. The function of this panel is not understood.",
  "humanDescription": "A space panel made from some plastics.",
  "hylotlDescription": "Panels designed like this were once common inside ships.",
  "novakidDescription": "Some kinda plastic space panel."
}