{
  "itemKey": "astroserver",
  "itemName": "Astro Server",
  "iconFile": "astroserver.png",
  "price": 70,
  "rarity": "Common",
  "category": "decorative",
  "maxStack": 0,
  "foodValue": 0.0,
  "rottingMultiplier": 0.0,
  "printable": true,
  "colonyTags": [
    "astro"
  ],
  "race": "generic",
  "description": "A large computer server rack, with brackets for floor mounting.",
  "apexDescription": "This server rack looks loaded with computer equipment.",
  "avianDescription": "A sleek looking server rack.",
  "floranDescription": "Fancy looking sserver cabinet full of computersss.",
  "glitchDescription": "Amused. Most of the technology inside this server can now be contained inside a portable device.",
  "humanDescription": "This server looks like it\u0027s setup for something important.",
  "hylotlDescription": "It appears this server is liquid cooled, that\u0027s smart.",
  "novakidDescription": "Big \u0027ol computer. \u0027Bout the size of an outhouse."
}