{
  "itemKey": "automatoseed",
  "itemName": "Automato Seed",
  "iconFile": "automatoseed.png",
  "price": 20,
  "rarity": "Common",
  "category": "seed",
  "maxStack": 0,
  "foodValue": 0.0,
  "rottingMultiplier": 0.0,
  "printable": false,
  "colonyTags": [
    "nature"
  ],
  "description": "Automatoes! Be sure to spit out the screws.",
  "apexDescription": "Automatoes... pretty standard, if you don\u0027t break your teeth on the screws.",
  "avianDescription": "Automatoes. The seeds are pretty tasty by themselves.",
  "floranDescription": "Fleshy and juicy, with crunchy bitsss. Like humansss.",
  "glitchDescription": "Disapproving. Others remove the screws. The Glitch feel they enhance the flavour.",
  "humanDescription": "A tomato filled with screws. Tasty yet hazardous.",
  "hylotlDescription": "A common Glitch peasant food. Not to my taste.",
  "novakidDescription": "Automatoes have a tangy, metalic flavour."
}