{
  "itemKey": "avianbanner3",
  "itemName": "Avian Patterned Banner",
  "iconFile": "avianbanner3.png",
  "price": 60,
  "rarity": "Common",
  "category": "decorative",
  "maxStack": 0,
  "foodValue": 0.0,
  "rottingMultiplier": 0.0,
  "printable": true,
  "colonyTags": [
    "avian",
    "avianvillage",
    "pretty"
  ],
  "race": "avian",
  "description": "An Avian banner made of gorgeous silk.",
  "apexDescription": "A patterned Avian banner. The patterns are crude but the fabric is vibrant.",
  "avianDescription": "These patterned banners are made by the least skilled of the grounded, but when hung in numbers they become a great sea of colour.",
  "floranDescription": "Bright colourss and fun patternss.",
  "glitchDescription": "Joyful. Wonderful colours.",
  "humanDescription": "Such bright colours. These look fun to make.",
  "hylotlDescription": "Though the quality is poor, such joy has gone into the creation of this banner. It warms my hearts to look upon it.",
  "novakidDescription": "Some mighty fine weavin\u0027 in this banner."
}