{
  "itemKey": "avianworkershirt",
  "itemName": "Worker Shirt",
  "iconFile": "avianworkershirt.png",
  "price": 75,
  "rarity": "Common",
  "category": "chestwear",
  "maxStack": 1,
  "foodValue": 0.0,
  "rottingMultiplier": 0.0,
  "printable": true,
  "description": "A shirt made from a comfortable, breathable fabric. Perfect for working outside all day!"
}