{
  "itemKey": "aviantier6achest",
  "itemName": "Macaw Shirt",
  "iconFile": "aviantier6achest.png",
  "price": 6400,
  "rarity": "Legendary",
  "category": "chestarmour",
  "maxStack": 1,
  "foodValue": 0.0,
  "rottingMultiplier": 0.0,
  "printable": true,
  "description": "This no-frills shirt is interwoven with pure solarium thread. A deft mix of strength and style."
}