{
  "itemKey": "aviantier5shead",
  "itemName": "Phoenix Helm",
  "iconFile": "aviantier5shead.png",
  "price": 2880,
  "rarity": "Rare",
  "category": "headarmour",
  "maxStack": 1,
  "foodValue": 0.0,
  "rottingMultiplier": 0.0,
  "printable": true,
  "description": "A shining battle helm made from bright, pure violium."
}