{
  "itemKey": "avianbench1",
  "itemName": "Rustic Bench",
  "iconFile": "avianbench1.png",
  "price": 125,
  "rarity": "Common",
  "category": "furniture",
  "maxStack": 0,
  "foodValue": 0.0,
  "rottingMultiplier": 0.0,
  "printable": true,
  "colonyTags": [
    "avian",
    "avianvillage"
  ],
  "race": "avian",
  "description": "A beautiful rustic bench.",
  "apexDescription": "This bench suggests an appreciation of the natural over the grand.",
  "avianDescription": "A beautiful little bench. The grounded take great joy in building their furniture themselves.",
  "floranDescription": "Bench ssmell of good wood, well grown.",
  "glitchDescription": "Charmed. A hand-made bench.",
  "humanDescription": "This looks hand-crafted. Very charming.",
  "hylotlDescription": "A charming bench, though its creator lacks skill.",
  "novakidDescription": "A cute lil\u0027 bench for restin\u0027 a while."
}