{
  "itemKey": "avianpressureplate",
  "itemName": "Crystal Pressure Plate",
  "iconFile": "avianpressureplate.png",
  "price": 90,
  "rarity": "Common",
  "category": "wire",
  "maxStack": 0,
  "foodValue": 0.0,
  "rottingMultiplier": 0.0,
  "printable": true,
  "colonyTags": [
    "avian",
    "aviantomb",
    "wired"
  ],
  "race": "avian",
  "description": "Use this pressure plate wisely.",
  "apexDescription": "Some kind of crystal powered pressure plate.",
  "avianDescription": "A crystal pressure switch.  What would happen if I stand on it?",
  "floranDescription": "Shiny crystal button. Should Floran jump on?",
  "glitchDescription": "Confused. I don\u0027t think this was built by the Glitch.",
  "humanDescription": "A giant pressure pad.",
  "hylotlDescription": "What does this activate?",
  "novakidDescription": "This crystal looks like it could be rigged to somethin\u0027."
}