{
  "itemKey": "aviantier4pants",
  "itemName": "Owl Skirt",
  "iconFile": "aviantier4pants.png",
  "price": 1600,
  "rarity": "Uncommon",
  "category": "legarmour",
  "maxStack": 1,
  "foodValue": 0.0,
  "rottingMultiplier": 0.0,
  "printable": true,
  "description": "This durasteel-lined skirt is snug in all the right places."
}