{
  "itemKey": "avioscalefossil3",
  "itemName": "Avioscale Legs",
  "iconFile": "avioscalefossil3.png",
  "price": 0,
  "rarity": "Uncommon",
  "category": "mediumFossil",
  "maxStack": 0,
  "foodValue": 0.0,
  "rottingMultiplier": 0.0,
  "printable": true,
  "race": "generic",
  "description": "A fossilised pair of Avioscale legs."
}