{
  "itemKey": "bananacreampie",
  "itemName": "Banana Cream Pie",
  "iconFile": "bananacreampie.png",
  "price": 365,
  "rarity": "Uncommon",
  "category": "preparedFood",
  "maxStack": 1,
  "foodValue": 50.0,
  "rottingMultiplier": 1.0,
  "printable": true,
  "description": "Better for eating, or for throwing in people\u0027s faces?"
}