{
  "itemKey": "bananasplit",
  "itemName": "Banana Split",
  "iconFile": "bananasplit.png",
  "price": 845,
  "rarity": "Rare",
  "category": "preparedFood",
  "maxStack": 1,
  "foodValue": 95.0,
  "rottingMultiplier": 1.0,
  "printable": true,
  "description": "The secret ingredient in this Apex favourite is pineapple!"
}