{
  "itemKey": "bandage",
  "itemName": "Bandage",
  "iconFile": "bandage.png",
  "price": 25,
  "rarity": "Common",
  "category": "medicine",
  "maxStack": 0,
  "foodValue": 0.0,
  "rottingMultiplier": 0.0,
  "printable": true,
  "description": "A bandage for healing minor wounds. Restores 50 health over 1 second."
}