{
  "itemKey": "bathroomhanddryer",
  "itemName": "Bathroom Hand Dryer",
  "iconFile": "bathroomhanddryer.png",
  "price": 50,
  "rarity": "Common",
  "category": "light",
  "maxStack": 0,
  "foodValue": 0.0,
  "rottingMultiplier": 0.0,
  "printable": true,
  "colonyTags": [
    "outpost"
  ],
  "race": "generic",
  "description": "A handy hand dryer. Hands off.",
  "apexDescription": "A hand dryer. I wonder if it works on dense Apex hair.",
  "avianDescription": "This is sure to ruffle some feathers.",
  "floranDescription": "Floran dry hands.",
  "glitchDescription": "Pleased. A hand dryer - useful for preventing rust.",
  "humanDescription": "It\u0027s a bit basic.",
  "hylotlDescription": "The Hylotl do not need to dry their hands.",
  "novakidDescription": "A device for dryin\u0027 yer wet hands."
}