{
  "itemKey": "batongaf",
  "itemName": "Batong Figurine",
  "iconFile": "batongaf.png",
  "price": 5000,
  "rarity": "Legendary",
  "category": "actionFigure",
  "maxStack": 0,
  "foodValue": 0.0,
  "rottingMultiplier": 0.0,
  "printable": false,
  "colonyTags": [
    "pretty"
  ],
  "description": "The label reads, \"By tasting the particles in the air it can sense what\u0027s ahead of it.\""
}