{
  "itemKey": "battlestandard",
  "itemName": "Battle Standard",
  "iconFile": "battlestandard.png",
  "price": 70,
  "rarity": "Common",
  "category": "decorative",
  "maxStack": 0,
  "foodValue": 0.0,
  "rottingMultiplier": 0.0,
  "printable": true,
  "colonyTags": [
    "glitch",
    "glitchcastle",
    "pretty"
  ],
  "race": "glitch",
  "description": "A chequered flag bearing an emblem.",
  "apexDescription": "I wonder how many wars this standard has seen.",
  "avianDescription": "A colourful flag.",
  "floranDescription": "Floran likess colourful flag. It lookss fancy.",
  "glitchDescription": "Informed. A Glitch battle standard. These are placed on the field during a battle.",
  "humanDescription": "A battlefield flag. They are rarely used in modern times.",
  "hylotlDescription": "A flag that looks like it can be carried and planted as a marker.",
  "novakidDescription": "This flag probably means somethin\u0027 to someone."
}