{
  "itemKey": "beamaxe",
  "itemName": "Matter Manipulator",
  "iconFile": "beamaxe.png",
  "price": 0,
  "rarity": "Essential",
  "category": "Tool",
  "maxStack": 1,
  "foodValue": 0.0,
  "rottingMultiplier": 0.0,
  "printable": true,
  "description": "Manipulates anything that matters. ^green;Quick select with [R] key."
}