{
  "itemKey": "bench",
  "itemName": "Bench",
  "iconFile": "bench.png",
  "price": 105,
  "rarity": "Common",
  "category": "furniture",
  "maxStack": 0,
  "foodValue": 0.0,
  "rottingMultiplier": 0.0,
  "printable": true,
  "colonyTags": [
    "outpost"
  ],
  "race": "generic",
  "description": "A basic bench.",
  "apexDescription": "A plain bench.",
  "avianDescription": "A bench.",
  "floranDescription": "Ssseat.",
  "glitchDescription": "Neutral. A bench.",
  "humanDescription": "A bench.",
  "hylotlDescription": "A simple bench.",
  "novakidDescription": "A simple place for restin\u0027 tired legs."
}