{
  "itemKey": "bettyhead",
  "itemName": "Disguise Mask",
  "iconFile": "bettyhead.png",
  "price": 5000,
  "rarity": "Legendary",
  "category": "headwear",
  "maxStack": 1,
  "foodValue": 0.0,
  "rottingMultiplier": 0.0,
  "printable": true,
  "description": "A mask, to keep the wearer\u0027s identity hidden."
}