{
  "itemKey": "bigboosterflamehuman",
  "itemName": "Booster Flame",
  "iconFile": "bigboosterflamehuman.png",
  "price": 0,
  "rarity": "Common",
  "category": "light",
  "maxStack": 0,
  "foodValue": 0.0,
  "rottingMultiplier": 0.0,
  "printable": true,
  "colonyTags": [],
  "race": "generic",
  "description": "I wonder how quickly that would cook a burger.",
  "apexDescription": "A booster. These have been known to malfunction and explode.",
  "avianDescription": "A booster, the wings of a ship.",
  "floranDescription": "Ssscary fire.",
  "glitchDescription": "Analyse. Temperature too high to measure.",
  "humanDescription": "This thing eats through fuel.",
  "hylotlDescription": "Propulsion."
}