{
  "itemKey": "bioshroom1",
  "itemName": "Glow Mushrooms",
  "iconFile": "bioshroom1.png",
  "price": 0,
  "rarity": "Common",
  "category": "light",
  "maxStack": 0,
  "foodValue": 0.0,
  "rottingMultiplier": 0.0,
  "printable": false,
  "colonyTags": [
    "bioluminescence"
  ],
  "race": "generic",
  "description": "A clump of little glowing mushrooms",
  "apexDescription": "Pretty little glowing mushrooms.",
  "avianDescription": "These glowing mushrooms are adorable!",
  "floranDescription": "These help Floran sssee in the dark.",
  "glitchDescription": "Pleased. These glowing mushrooms provide much welcome natural light.",
  "humanDescription": "These mushrooms glow radioactive green. I probably shouldn\u0027t attempt to eat them.",
  "hylotlDescription": "The faint glow of these little mushrooms is a welcome sight underground.",
  "novakidDescription": "Howdy, little glowin\u0027 fellas."
}