{
  "itemKey": "birdjar1",
  "itemName": "Fancy Temple Jar",
  "iconFile": "birdjar1.png",
  "price": 55,
  "rarity": "Common",
  "category": "breakable",
  "maxStack": 0,
  "foodValue": 0.0,
  "rottingMultiplier": 0.0,
  "printable": true,
  "colonyTags": [
    "avian",
    "aviantemple",
    "pretty"
  ],
  "race": "avian",
  "description": "This jar has seen better days. It looks smashable...",
  "apexDescription": "The carvings are worn here. The pot looks ready to smash.",
  "avianDescription": "This jar would have been decorated with images of Kluex. It may contain items made as an offering.",
  "floranDescription": "Jar all worn out, ready to be sssmashed.",
  "glitchDescription": "Observant. The material is brittle and easy to break.",
  "humanDescription": "This thing looks like it might fall apart at the slightest touch. I wonder if there\u0027s anything inside.",
  "hylotlDescription": "The markings on this jar are no longer discernible. It may contain something of use, however.",
  "novakidDescription": "This fragile jar looks perfect for shootin\u0027 at."
}