{
  "itemKey": "birdaltar2",
  "itemName": "Avian Prayer Altar",
  "iconFile": "birdaltar2.png",
  "price": 80,
  "rarity": "Common",
  "category": "decorative",
  "maxStack": 0,
  "foodValue": 0.0,
  "rottingMultiplier": 0.0,
  "printable": true,
  "colonyTags": [
    "avian",
    "aviantemple"
  ],
  "race": "avian",
  "description": "The altar is covered in carvings of a winged god.",
  "apexDescription": "An altar. It\u0027s covered in intricate carvings of an Avian with wings.",
  "avianDescription": "This altar is covered in carvings of Kluex. The Stargazers use it to commune with Kluex and bid him accept the dead into the aether. Offerings are often made here.",
  "floranDescription": "Ssstone bird man carved on ssstone table.",
  "glitchDescription": "Confused. This altar appears to have some religious purpose which eludes me.",
  "humanDescription": "An altar covered in Avian carvings. Perhaps this is their god?",
  "hylotlDescription": "Such piety is not the way forwards.",
  "novakidDescription": "Looks like some ol\u0027 altar. It\u0027s got carvin\u0027 all over it."
}