{
  "itemKey": "birdjar2",
  "itemName": "Ugly Temple Jar",
  "iconFile": "birdjar2.png",
  "price": 40,
  "rarity": "Common",
  "category": "breakable",
  "maxStack": 0,
  "foodValue": 0.0,
  "rottingMultiplier": 0.0,
  "printable": true,
  "colonyTags": [
    "avian",
    "aviantemple",
    "pretty"
  ],
  "race": "avian",
  "description": "What an ugly jar.",
  "apexDescription": "An unattractive jar. Little care has gone into this.",
  "avianDescription": "This jar would have been produced by initiates. It\u0027s quite ugly.",
  "floranDescription": "Ugly jar. Floran will sssmash!",
  "glitchDescription": "Intrigued. Smashing this jar may reveal what\u0027s inside.",
  "humanDescription": "Let\u0027s break this one open. It\u0027s very unattractive.",
  "hylotlDescription": "There is no value here. Let\u0027s break it open.",
  "novakidDescription": "I could use this jar for some target practice."
}