{
  "itemKey": "birdthrone",
  "itemName": "Avian Throne",
  "iconFile": "birdthrone.png",
  "price": 75,
  "rarity": "Common",
  "category": "furniture",
  "maxStack": 0,
  "foodValue": 0.0,
  "rottingMultiplier": 0.0,
  "printable": true,
  "colonyTags": [
    "avian",
    "aviantemple"
  ],
  "race": "avian",
  "description": "A masterfully crafted throne, fit for Kluex himself.",
  "apexDescription": "A throne covered in carvings. It\u0027s quite a sight.",
  "avianDescription": "A stargazer\u0027s throne. Each stargazer would be assigned a temple to protect.",
  "floranDescription": "Birdman throne make good Floran trophy.",
  "glitchDescription": "Agreeable. Glitch lords also sit upon thrones.",
  "humanDescription": "A stone throne. That rhymes.",
  "hylotlDescription": "This throne looks uncomfortable. It also looks barely used, perhaps just a show of power.",
  "novakidDescription": "This chair is made of stone, seems mighty uncomfortable."
}