{
  "itemKey": "bladedwingsback",
  "itemName": "Bladed Wings",
  "iconFile": "bladedwingsback.png",
  "price": 2500,
  "rarity": "Rare",
  "category": "backwear",
  "maxStack": 1,
  "foodValue": 0.0,
  "rottingMultiplier": 0.0,
  "printable": true,
  "description": "Imposing wings, made from sharp blades shaped like feathers."
}