{
  "itemKey": "bloodypuss",
  "itemName": "Bloody Puss",
  "iconFile": "bloodypuss.png",
  "price": 190,
  "rarity": "Common",
  "category": "drink",
  "maxStack": 1,
  "foodValue": 25.0,
  "rottingMultiplier": 1.0,
  "printable": true,
  "description": "A thick, shake-like drink of meat and pussplum."
}