{
  "itemKey": "blueback",
  "itemName": "Blueback",
  "iconFile": "blueback.png",
  "price": 50,
  "rarity": "Common",
  "category": "bug",
  "maxStack": 0,
  "foodValue": 0.0,
  "rottingMultiplier": 0.0,
  "printable": false,
  "colonyTags": [
    "nature"
  ],
  "race": "generic",
  "description": "This blue bug has sharp little teeth."
}