{
  "itemKey": "bobotaf",
  "itemName": "Bobot Figurine",
  "iconFile": "bobotaf.png",
  "price": 5000,
  "rarity": "Legendary",
  "category": "actionFigure",
  "maxStack": 0,
  "foodValue": 0.0,
  "rottingMultiplier": 0.0,
  "printable": false,
  "colonyTags": [
    "pretty"
  ],
  "description": "The label reads, \"Nobody knows where it came from or who made it.\""
}