{
  "itemKey": "bomb",
  "itemName": "Bomb",
  "iconFile": "bomb.png",
  "price": 50,
  "rarity": "Common",
  "category": "throwableItem",
  "maxStack": 0,
  "foodValue": 0.0,
  "rottingMultiplier": 0.0,
  "printable": true,
  "description": "A great way to blow stuff up. Be careful where you throw them!"
}