{
  "itemKey": "bonedoor",
  "itemName": "Bone Door",
  "iconFile": "bonedoor.png",
  "price": 75,
  "rarity": "Common",
  "category": "door",
  "maxStack": 0,
  "foodValue": 0.0,
  "rottingMultiplier": 0.0,
  "printable": false,
  "colonyTags": [
    "bone",
    "evil",
    "door"
  ],
  "race": "generic",
  "description": "A door made of bone. Where does it lead? Hell? Or the bathroom?",
  "apexDescription": "A foreboding door made of bone. I\u0027m scared to go through.",
  "avianDescription": "Surely, beyond a door like this must lie something worthy of respect.",
  "floranDescription": "Floran feel kinssship with door. Kick open.",
  "glitchDescription": "Comical. I guess the death of this creature really... opened doors.",
  "humanDescription": "It\u0027s cold to the touch. A chill creeps down my spine. Somewhere in the distance, a dog barks. Wait, that was just an Apex singing.",
  "hylotlDescription": "A vile door of death. Such horror. Remarkably smooth hinges, though.",
  "novakidDescription": "Death\u0027s door."
}