{
  "itemKey": "bone",
  "itemName": "Bone",
  "iconFile": "bone.png",
  "price": 1,
  "rarity": "Common",
  "category": "craftingMaterial",
  "maxStack": 0,
  "foodValue": 0.0,
  "rottingMultiplier": 0.0,
  "printable": true,
  "description": "It\u0027s a bone."
}