{
  "itemKey": "bonusarmorlegs",
  "itemName": "Mysterious Greaves",
  "iconFile": "bonusarmorlegs.png",
  "price": 2560,
  "rarity": "Rare",
  "category": "legwear",
  "maxStack": 1,
  "foodValue": 0.0,
  "rottingMultiplier": 0.0,
  "printable": true,
  "description": "These greaves are made from a mysterious material."
}