{
  "itemKey": "bonusarmorhead",
  "itemName": "Mysterious Helmet",
  "iconFile": "bonusarmorhead.png",
  "price": 3840,
  "rarity": "Rare",
  "category": "headwear",
  "maxStack": 1,
  "foodValue": 0.0,
  "rottingMultiplier": 0.0,
  "printable": true,
  "description": "This helmet seems to be forged from a mysterious material."
}