{
  "itemKey": "bonusarmorchest",
  "itemName": "Mysterious Chestpiece",
  "iconFile": "bonusarmorchest.png",
  "price": 6400,
  "rarity": "Rare",
  "category": "chestwear",
  "maxStack": 1,
  "foodValue": 0.0,
  "rottingMultiplier": 0.0,
  "printable": true,
  "description": "An armour chestpiece made from a mysterious material."
}