{
  "itemKey": "bookpiles",
  "itemName": "Pile of Books",
  "iconFile": "bookpiles.png",
  "price": 0,
  "rarity": "Common",
  "category": "block",
  "maxStack": 0,
  "foodValue": 0.0,
  "rottingMultiplier": 0.0,
  "printable": true,
  "description": "A pile of dusty old books, they\u0027re full of tales of dragons and knights."
}