{
  "itemKey": "bossrightspawner",
  "itemName": "Boss Right Spawner",
  "iconFile": "bossrightspawner.png",
  "price": 250,
  "rarity": "Legendary",
  "category": "decorative",
  "maxStack": 0,
  "foodValue": 0.0,
  "rottingMultiplier": 0.0,
  "printable": false,
  "colonyTags": [],
  "race": "tentacle",
  "description": "Ruin spawner."
}