{
  "itemKey": "bottledwater",
  "itemName": "Bottled Water",
  "iconFile": "bottledwater.png",
  "price": 20,
  "rarity": "Common",
  "category": "drink",
  "maxStack": 1,
  "foodValue": 0.0,
  "rottingMultiplier": 0.0,
  "printable": true,
  "description": "Fresh, clean water. Soothing and rejuvenating."
}