{
  "itemKey": "bouldertrap",
  "itemName": "Temple Boulder Trap",
  "iconFile": "bouldertrap.png",
  "price": 200,
  "rarity": "Common",
  "category": "trap",
  "maxStack": 0,
  "foodValue": 0.0,
  "rottingMultiplier": 0.0,
  "printable": false,
  "colonyTags": [
    "avian",
    "aviantemple",
    "evil"
  ],
  "race": "avian",
  "description": "A trap that drops heavy boulders on unsuspecting intruders.",
  "apexDescription": "If I time my movements correctly I can avoid the falling boulders.",
  "avianDescription": "Better time my moves right, I don\u0027t want a boulder to land on me.",
  "floranDescription": "Heavy rockss fall from this hole.",
  "glitchDescription": "Disappointed. Who would make a trap to drop boulders with such convenient timing?",
  "humanDescription": "Boulders come out of that little hole.",
  "hylotlDescription": "A boulder trap is easy to avoid with well timed movements.",
  "novakidDescription": "Rollin\u0027 boulders!"
}