{
  "itemKey": "boxingglove",
  "itemName": "Boxing Glove",
  "iconFile": "boxingglove.png",
  "price": 250,
  "rarity": "Rare",
  "category": "fistWeapon",
  "maxStack": 1,
  "foodValue": 0.0,
  "rottingMultiplier": 0.0,
  "printable": true,
  "description": "Now you can be a contender."
}