{
  "itemKey": "boxmanhathead",
  "itemName": "The Boxman\u0027s Bodacity",
  "iconFile": "boxmanhathead.png",
  "price": 5000,
  "rarity": "Legendary",
  "category": "headwear",
  "maxStack": 1,
  "foodValue": 0.0,
  "rottingMultiplier": 0.0,
  "printable": true,
  "description": "The most bodacious boxman there ever was."
}