{
  "itemKey": "brainsblock",
  "itemName": "Brains",
  "iconFile": "brainsblock.png",
  "price": 0,
  "rarity": "Common",
  "category": "block",
  "maxStack": 0,
  "foodValue": 0.0,
  "rottingMultiplier": 0.0,
  "printable": true,
  "description": "Pulsating brain matter.. I wonder if it\u0027s thinking."
}