{
  "itemKey": "brokennovakidfuelhatch",
  "itemName": "Broken FTL Fuel Hatch",
  "iconFile": "brokennovakidfuelhatch.png",
  "price": 0,
  "rarity": "Common",
  "maxStack": 0,
  "foodValue": 0.0,
  "rottingMultiplier": 0.0,
  "printable": false,
  "colonyTags": [
    "novakid"
  ],
  "race": "novakid",
  "description": "A broken FTL fuel hatch. This won\u0027t do!",
  "apexDescription": "Converts fuel into freedom.",
  "avianDescription": "Let\u0027s load it up and take to the stars!",
  "floranDescription": "Let\u0027ss get going!",
  "glitchDescription": "Excited. Once filled, we may visit another planet.",
  "humanDescription": "A fuel hatch. I can fill this up and explore.",
  "hylotlDescription": "Fuel is the lifeblood of exploration.",
  "novakidDescription": "FTL fuel goes in here! When it\u0027s fixed..."
}