{
  "itemKey": "brokentank",
  "itemName": "Broken Tank",
  "iconFile": "brokentank.png",
  "price": 70,
  "rarity": "Common",
  "category": "decorative",
  "maxStack": 0,
  "foodValue": 0.0,
  "rottingMultiplier": 0.0,
  "printable": true,
  "colonyTags": [],
  "race": "generic",
  "description": "A broken tank.",
  "apexDescription": "A broken military tank.",
  "avianDescription": "A strange vehicle, it appears to be broken.",
  "floranDescription": "Sssome metal box.",
  "glitchDescription": "Alarmed. A broken tank.",
  "humanDescription": "A tank, it\u0027s broken.",
  "hylotlDescription": "A military vehicle of some sort. I don\u0027t believe it is operational.",
  "novakidDescription": "Some sorta vehicle. It ain\u0027t going anywhere any time soon!"
}