{
  "itemKey": "browndye",
  "itemName": "Brown Dye",
  "iconFile": "browndye.png",
  "price": 25,
  "rarity": "Common",
  "category": "clothingDye",
  "maxStack": 0,
  "foodValue": 0.0,
  "rottingMultiplier": 0.0,
  "printable": true,
  "description": "This coloured dye can be applied to a piece of armour or clothing with a right-click."
}