{
  "itemKey": "buccaneerlegs",
  "itemName": "Buccaneer Pantaloons",
  "iconFile": "buccaneerlegs.png",
  "price": 2500,
  "rarity": "Rare",
  "category": "legwear",
  "maxStack": 1,
  "foodValue": 0.0,
  "rottingMultiplier": 0.0,
  "printable": true,
  "description": "Pirate pantaloons, with holes for legs (peg or otherwise)."
}