{
  "itemKey": "buglike4",
  "itemName": "Hive Bush",
  "iconFile": "buglike4.png",
  "price": 0,
  "rarity": "Common",
  "category": "breakable",
  "maxStack": 0,
  "foodValue": 0.0,
  "rottingMultiplier": 0.0,
  "printable": false,
  "colonyTags": [
    "hive"
  ],
  "race": "generic",
  "description": "-todo-"
}