{
  "itemKey": "bunkerceilinglight1",
  "itemName": "Metal Ceiling Lamp",
  "iconFile": "bunkerceilinglight1.png",
  "price": 90,
  "rarity": "Common",
  "category": "light",
  "maxStack": 0,
  "foodValue": 0.0,
  "rottingMultiplier": 0.0,
  "printable": true,
  "colonyTags": [
    "human",
    "humanbunker",
    "light"
  ],
  "race": "human",
  "description": "A metallic ceiling lamp.",
  "apexDescription": "A metallic ceiling light.",
  "avianDescription": "A ceiling light.",
  "floranDescription": "Hanging lamp.",
  "glitchDescription": "Bored. A light fixture.",
  "humanDescription": "A device you attach to your head, and... wait, no, it\u0027s just a light.",
  "hylotlDescription": "An uninteresting ceiling light.",
  "novakidDescription": "A plain lookin\u0027 ceilin\u0027 light."
}