{
  "itemKey": "bunkerconsole3",
  "itemName": "Small Console",
  "iconFile": "bunkerconsole3.png",
  "price": 60,
  "rarity": "Common",
  "category": "wire",
  "maxStack": 0,
  "foodValue": 0.0,
  "rottingMultiplier": 0.0,
  "printable": true,
  "colonyTags": [
    "human",
    "humanbunker",
    "electronic"
  ],
  "race": "human",
  "description": "It looks like a screen full of personnel memos.",
  "apexDescription": "There\u0027s a message on the screen. \"Dear Marjory. Please remember to put the cat out. Love David\" Interesting.",
  "avianDescription": "There\u0027s a message on the screen. \"The results of yesterday\u0027s toxicity tests were inconclusive. Please schedule more. Doctor Kleiner\" Okay.",
  "floranDescription": "Hmm... A highlighted message on the ssscreen. \"Buy eggs after work\".",
  "glitchDescription": "Nosy. There\u0027s a message on the screen. \"Let me explain to you why you are wrong...\" The rest of the post descends into unintelligible ranting.",
  "humanDescription": "Judging from this email account, someone\u0027s fallen victim to the well-known \u0027reply-all\u0027 faux pas. Poor guy.",
  "hylotlDescription": "Judging from these posts, humans simply bash their faces against the keyboard when arguing via computer.",
  "novakidDescription": "A personal computer station. I ain\u0027t the snoopin\u0027 kind."
}