{
  "itemKey": "bunkercabinet1",
  "itemName": "Metal Cabinet",
  "iconFile": "bunkercabinet1.png",
  "price": 85,
  "rarity": "Common",
  "category": "storage",
  "maxStack": 0,
  "foodValue": 0.0,
  "rottingMultiplier": 0.0,
  "printable": true,
  "colonyTags": [
    "human",
    "humanbunker",
    "storage"
  ],
  "race": "human",
  "description": "It looks like it\u0027s full of hazardous materials.",
  "apexDescription": "A metal cabinet. A strange smell emanates from within.",
  "avianDescription": "The contents seem dangerous. Toxic or explosive, maybe.",
  "floranDescription": "Dangerousss metal box? Can\u0027t be more dangerousss than Floran!",
  "glitchDescription": "Amused. Despite the warning sign, this crate actually contains a collection of odd socks.",
  "humanDescription": "A vile smell seeps out from under the lid. Reminds me of my teenage years.",
  "hylotlDescription": "A hazardous container. Apparently humans often disposed of such things in their oceans.",
  "novakidDescription": "A container with warnin\u0027 stripes. I ain\u0027t openin\u0027 it."
}