{
  "itemKey": "bunkerdisplay3",
  "itemName": "Map Display",
  "iconFile": "bunkerdisplay3.png",
  "price": 120,
  "rarity": "Common",
  "category": "decorative",
  "maxStack": 0,
  "foodValue": 0.0,
  "rottingMultiplier": 0.0,
  "printable": true,
  "colonyTags": [
    "human",
    "humanbunker",
    "electronic"
  ],
  "race": "human",
  "description": "It\u0027s a map displaying a round central room branching out into several corridors.",
  "apexDescription": "Looks like some kind of digital map.",
  "avianDescription": "Perhaps a layout of this area?",
  "floranDescription": "Squiggly linesss make no sssense to Floran.",
  "glitchDescription": "Observant. This appears to depict the layout of the area we\u0027re in.",
  "humanDescription": "A basic map display.",
  "hylotlDescription": "Corridors and rooms are laid out on this map.",
  "novakidDescription": "Pretty sure this is a map."
}