{
  "itemKey": "bunkerconsole1",
  "itemName": "Command Console",
  "iconFile": "bunkerconsole1.png",
  "price": 80,
  "rarity": "Common",
  "category": "decorative",
  "maxStack": 0,
  "foodValue": 0.0,
  "rottingMultiplier": 0.0,
  "printable": true,
  "colonyTags": [
    "human",
    "humanbunker",
    "electronic"
  ],
  "race": "human",
  "description": "It\u0027s full of really tempting levers but I should probably leave it alone.",
  "apexDescription": "A command console. Not sure what it does.",
  "avianDescription": "This looks dangerous to fiddle with.",
  "floranDescription": "Machine with many buttonsss and levers! Tempting, but Floran better not fiddle with thisss...",
  "glitchDescription": "Observant. The more levers a console as, the more dangerous it is to fiddle with.",
  "humanDescription": "I think this opens the pod bay doors. Or blows something up. It does something, anyway.",
  "hylotlDescription": "Must... not... pull... levers...",
  "novakidDescription": "Who knows what these buttons and levers do. I ain\u0027t findin\u0027 out the hard way, that\u0027s for sure."
}