{
  "itemKey": "burnspray",
  "itemName": "Burn Resistance Spray",
  "iconFile": "burnspray.png",
  "price": 100,
  "rarity": "Uncommon",
  "category": "medicine",
  "maxStack": 0,
  "foodValue": 0.0,
  "rottingMultiplier": 0.0,
  "printable": true,
  "description": "Protect your body from burns."
}