{
  "itemKey": "bushprop3",
  "itemName": "Bush Prop 3",
  "iconFile": "bushprop3.png",
  "price": 60,
  "rarity": "Common",
  "category": "decorative",
  "maxStack": 0,
  "foodValue": 0.0,
  "rottingMultiplier": 0.0,
  "printable": true,
  "colonyTags": [],
  "race": "hylotl",
  "description": "A bush from an ocean planet."
}