{
  "itemKey": "buzzyhead",
  "itemName": "Buzzy Hat",
  "iconFile": "buzzyhead.png",
  "price": 2500,
  "rarity": "Rare",
  "category": "headwear",
  "maxStack": 1,
  "foodValue": 0.0,
  "rottingMultiplier": 0.0,
  "printable": true,
  "description": "A cute insect hat with little antennae! How adorable."
}