{
  "itemKey": "cactusjuice",
  "itemName": "Cactus Juice",
  "iconFile": "cactusjuice.png",
  "price": 20,
  "rarity": "Common",
  "category": "drink",
  "maxStack": 1,
  "foodValue": 10.0,
  "rottingMultiplier": 1.0,
  "printable": true,
  "description": "Cool as a cactus."
}