{
  "itemKey": "campfire",
  "itemName": "Campfire",
  "iconFile": "campfire.png",
  "price": 30,
  "rarity": "Uncommon",
  "category": "crafting",
  "maxStack": 0,
  "foodValue": 0.0,
  "rottingMultiplier": 0.0,
  "printable": false,
  "colonyTags": [
    "cooking",
    "light"
  ],
  "race": "generic",
  "description": "Embers dance away from the campfire, warming the air. The heat can be used for cooking.",
  "apexDescription": "A healthy campfire. I could cook some food using it.",
  "avianDescription": "A campfire. It\u0027s useful for very basic cooking.",
  "floranDescription": "Floran hate flames, but likesss to cook. Cooking leadss to eating.",
  "glitchDescription": "Informed. Heating meat with fire is a basic form of cooking.",
  "humanDescription": "I\u0027ve always enjoyed watching the flames of a campfire dance.",
  "hylotlDescription": "A campfire, I enjoy the simplicity of flame-cooked food.",
  "novakidDescription": "A toasty campfire for cookin\u0027. What more d\u0027ya need?"
}