{
  "itemKey": "canvas",
  "itemName": "Canvas",
  "iconFile": "canvas.png",
  "price": 150,
  "rarity": "Uncommon",
  "category": "craftingMaterial",
  "maxStack": 0,
  "foodValue": 0.0,
  "rottingMultiplier": 0.0,
  "printable": true,
  "description": "A square of high-quality canvas."
}