{
  "itemKey": "capsulespace",
  "itemName": "Surface-Mounted Capsule",
  "iconFile": "capsulespace.png",
  "price": 75,
  "rarity": "Common",
  "category": "breakable",
  "maxStack": 0,
  "foodValue": 0.0,
  "rottingMultiplier": 0.0,
  "printable": true,
  "colonyTags": [
    "misc"
  ],
  "race": "generic",
  "description": "A large breakable capsule. Wonder what\u0027s inside.",
  "apexDescription": "A capsule. These often contain supplies.",
  "avianDescription": "A capsule. Something is inside, I wonder what it is...",
  "floranDescription": "Sssmash it open! Get the goodiess insside!",
  "glitchDescription": "Destructive. It is difficult to resist the urge to break this capsule.",
  "humanDescription": "I think there\u0027s something in there. I can probably break it open.",
  "hylotlDescription": "Sometimes force can yield rewards.",
  "novakidDescription": "This capsule\u0027d be perfect for target practice."
}