{
  "itemKey": "captainshead",
  "itemName": "Captain\u0027s Cap",
  "iconFile": "captainshead.png",
  "price": 5000,
  "rarity": "Legendary",
  "category": "headwear",
  "maxStack": 1,
  "foodValue": 0.0,
  "rottingMultiplier": 0.0,
  "printable": true,
  "description": "Who is the captain?  It must be whoever is wearing this!"
}