{
  "itemKey": "capturepod",
  "itemName": "Capture Pod",
  "iconFile": "capturepod.png",
  "price": 750,
  "rarity": "Common",
  "category": "throwableItem",
  "maxStack": 0,
  "foodValue": 0.0,
  "rottingMultiplier": 0.0,
  "printable": true,
  "description": "Throw it at a monster to forcefully capture it and bring it to a new home."
}