{
  "itemKey": "carrotbread",
  "itemName": "Carrot Bread",
  "iconFile": "carrotbread.png",
  "price": 125,
  "rarity": "Common",
  "category": "preparedFood",
  "maxStack": 1,
  "foodValue": 20.0,
  "rottingMultiplier": 1.0,
  "printable": true,
  "description": "A loaf of carrot bread. Let\u0027s be honest, it\u0027s just bread-shaped cake."
}