{
  "itemKey": "castlewalls1",
  "itemName": "Heavy Stone Brick",
  "iconFile": "castlewalls1.png",
  "price": 0,
  "rarity": "Common",
  "category": "block",
  "maxStack": 0,
  "foodValue": 0.0,
  "rottingMultiplier": 0.0,
  "printable": true,
  "description": "Strong stone slabs, perfect for building a castle."
}