{
  "itemKey": "castlehiddentrapdoor",
  "itemName": "Hidden Brick Trapdoor",
  "iconFile": "castlehiddentrapdoor.png",
  "price": 140,
  "rarity": "Common",
  "category": "door",
  "maxStack": 0,
  "foodValue": 0.0,
  "rottingMultiplier": 0.0,
  "printable": true,
  "colonyTags": [
    "glitch",
    "glitchcastle",
    "door"
  ],
  "race": "glitch",
  "description": "Something isn\u0027t quite right with these bricks.",
  "apexDescription": "Some of these bricks are misplaced.",
  "avianDescription": "These bricks don\u0027t look real.",
  "floranDescription": "Brickss ssmell different to other brickss.",
  "glitchDescription": "Curious. Something is hidden here.",
  "humanDescription": "These bricks have an unnatural shine.",
  "hylotlDescription": "Something about the way these bricks are crafted is odd."
}