{
  "itemKey": "causticstaghead",
  "itemName": "Caustic Stag Helmet",
  "iconFile": "causticstaghead.png",
  "price": 2500,
  "rarity": "Rare",
  "category": "headwear",
  "maxStack": 1,
  "foodValue": 0.0,
  "rottingMultiplier": 0.0,
  "printable": true,
  "description": "Fear the mighty bug!"
}