{
  "itemKey": "cavechair",
  "itemName": "Rock Chair",
  "iconFile": "cavechair.png",
  "price": 40,
  "rarity": "Common",
  "category": "furniture",
  "maxStack": 0,
  "foodValue": 0.0,
  "rottingMultiplier": 0.0,
  "printable": false,
  "colonyTags": [
    "stonecave"
  ],
  "race": "generic",
  "description": "A rock chair.",
  "apexDescription": "It doesn\u0027t look comfortable to sit on.",
  "avianDescription": "It looks like it was taken straight from nature.",
  "floranDescription": "Floran would at leassst put some moss on top.",
  "glitchDescription": "Contemplative. Where is the line between a rock and a chair?",
  "humanDescription": "My butt hurts just from looking at it.",
  "hylotlDescription": "A simple chair made from rock.",
  "novakidDescription": "I think it\u0027s for sitting on."
}