{
  "itemKey": "cavechest",
  "itemName": "Rock Chest",
  "iconFile": "cavechest.png",
  "price": 40,
  "rarity": "Common",
  "category": "storage",
  "maxStack": 0,
  "foodValue": 0.0,
  "rottingMultiplier": 0.0,
  "printable": false,
  "colonyTags": [
    "stonecave",
    "storage"
  ],
  "race": "generic",
  "description": "A chest made of rock.",
  "apexDescription": "A chest made from regular rock.",
  "avianDescription": "It looks simple, but it can contain riches.",
  "floranDescription": "It seems like a good place for keeping ssstuff.",
  "glitchDescription": "Impressed. It\u0027s a cleverly camouflaged chest.",
  "humanDescription": "I almost mistook it for a regular rock.",
  "hylotlDescription": "It\u0027s a simply designed chest, but it does its job well.",
  "novakidDescription": "The lid is heavy."
}