{
  "itemKey": "ceilingstalactite2",
  "itemName": "Rock Stalactite",
  "iconFile": "ceilingstalactite2.png",
  "price": 0,
  "rarity": "Common",
  "category": "trap",
  "maxStack": 0,
  "foodValue": 0.0,
  "rottingMultiplier": 0.0,
  "printable": false,
  "colonyTags": [
    "stonecave"
  ],
  "race": "generic",
  "description": "This is an old rock stalactite.",
  "apexDescription": "A sharp spike, made of rock.",
  "avianDescription": "This rock looks like a spear.",
  "floranDescription": "Ssstalactite.",
  "glitchDescription": "Cautious. Stalactite can fall and penetrate Glitch shell.",
  "humanDescription": "I can\u0027t remember if this is a stalactite or a stalagmite.",
  "hylotlDescription": "A beautiful and polished stalactite.",
  "novakidDescription": "A stalactite. I hope it\u0027s securely attached."
}