{
  "itemKey": "ceilingslime1",
  "itemName": "Dripping Slime",
  "iconFile": "ceilingslime1.png",
  "price": 60,
  "rarity": "Common",
  "category": "breakable",
  "maxStack": 0,
  "foodValue": 0.0,
  "rottingMultiplier": 0.0,
  "printable": false,
  "colonyTags": [
    "slime"
  ],
  "race": "generic",
  "description": "A glob of dripping slime.",
  "apexDescription": "A slime deposit. It appears to be dripping.",
  "avianDescription": "A disgusting slime ball.",
  "floranDescription": "Floran wants to avoid touching ssslime.",
  "glitchDescription": "Disgusted. A viscous slime deposit.",
  "humanDescription": "Slime is so gross.",
  "hylotlDescription": "Slime isn\u0027t so bad when your skin is already slimy.",
  "novakidDescription": "Oozing slime."
}