{
  "itemKey": "cellmateria",
  "itemName": "Cell Materia",
  "iconFile": "cellmateria.png",
  "price": 0,
  "rarity": "Common",
  "category": "craftingMaterial",
  "maxStack": 0,
  "foodValue": 0.0,
  "rottingMultiplier": 0.0,
  "printable": true,
  "description": "Cell Materia, I hear you can use this to craft things."
}