{
  "itemKey": "cellmatter",
  "itemName": "Cell Matter",
  "iconFile": "cellmatter.png",
  "price": 0,
  "rarity": "Common",
  "category": "craftingMaterial",
  "maxStack": 0,
  "foodValue": 0.0,
  "rottingMultiplier": 0.0,
  "printable": true,
  "description": "Cell Matter - it can be used to craft unspeakable things."
}