{
  "itemKey": "celltable",
  "itemName": "Cell Table",
  "iconFile": "celltable.png",
  "price": 85,
  "rarity": "Common",
  "category": "furniture",
  "maxStack": 0,
  "foodValue": 0.0,
  "rottingMultiplier": 0.0,
  "printable": false,
  "colonyTags": [
    "cell",
    "odd"
  ],
  "race": "generic",
  "description": "A clean, brightly coloured table.",
  "apexDescription": "A bit too colourful for the Miniknog, which I suppose works in its favour.",
  "avianDescription": "Bright would be an understatement.",
  "floranDescription": "Shiny, ssmooth and soulless.",
  "glitchDescription": "Repulsed. I could never eat on something as gaudy as this.",
  "humanDescription": "Looks like something from a kid\u0027s playset.",
  "hylotlDescription": "This table is very... Flamboyant.",
  "novakidDescription": "This is a darn shiny table."
}