{
  "itemKey": "chalktally",
  "itemName": "Tally Marks",
  "iconFile": "chalktally.png",
  "price": 0,
  "rarity": "Common",
  "category": "decorative",
  "maxStack": 0,
  "foodValue": 0.0,
  "rottingMultiplier": 0.0,
  "printable": false,
  "colonyTags": [
    "human",
    "humanprison"
  ],
  "race": "human",
  "description": "Someone couldn\u0027t count to 25.",
  "apexDescription": "Similar markings are often found on the walls of Miniknog cells.",
  "avianDescription": "Someone was counting something, but what?",
  "floranDescription": "Floran uses these markssss to count killsss.",
  "glitchDescription": "Curious. This signifies twenty five occurrences of... something. We shall never know what.",
  "humanDescription": "A series of tally marks, or some drawings of picket fences? Impossible to tell, really.",
  "hylotlDescription": "A simple, yet effective method of counting.",
  "novakidDescription": "A guy I once knew used to count kills this way."
}