{
  "itemKey": "cheeseburger",
  "itemName": "Cheeseburger",
  "iconFile": "cheeseburger.png",
  "price": 475,
  "rarity": "Rare",
  "category": "preparedFood",
  "maxStack": 1,
  "foodValue": 95.0,
  "rottingMultiplier": 1.0,
  "printable": true,
  "description": "A juicy hamburger, topped with cheese."
}