{
  "itemKey": "chessking",
  "itemName": "White Stone King",
  "iconFile": "chessking.png",
  "price": 55,
  "rarity": "Common",
  "category": "decorative",
  "maxStack": 0,
  "foodValue": 0.0,
  "rottingMultiplier": 0.0,
  "printable": true,
  "colonyTags": [
    "glitch",
    "glitchcastle",
    "pretty"
  ],
  "race": "glitch",
  "description": "A white king from an oversized chess set.",
  "apexDescription": "A chess piece. The Miniknog does not permit games of chess.",
  "avianDescription": "Some kind of decorative statue, perhaps?",
  "floranDescription": "Ssstrange statue. What iss it?",
  "glitchDescription": "Sentimental. Glitch nobility learn to play chess from an early age. They play on large, outdoor boards. ",
  "humanDescription": "A huge chess piece.",
  "hylotlDescription": "It looks like a large game piece. The Hylotl enjoy many boardgames.",
  "novakidDescription": "Whatever game this is looks mighty dull."
}