{
  "itemKey": "chocolate",
  "itemName": "Chocolate",
  "iconFile": "chocolate.png",
  "price": 120,
  "rarity": "Common",
  "category": "food",
  "maxStack": 1,
  "foodValue": 15.0,
  "rottingMultiplier": 5.0,
  "printable": true,
  "description": "Just objectively the best thing ever."
}