{
  "itemKey": "clarinet",
  "itemName": "Clarinet",
  "iconFile": "clarinet.png",
  "price": 3000,
  "rarity": "Common",
  "category": "musicalInstrument",
  "maxStack": 1,
  "foodValue": 0.0,
  "rottingMultiplier": 0.0,
  "printable": true,
  "description": "A clarinet. Try not to squeak."
}