{
  "itemKey": "classicglass",
  "itemName": "Crystal Glass",
  "iconFile": "classicglass.png",
  "price": 30,
  "rarity": "Common",
  "category": "decorative",
  "maxStack": 0,
  "foodValue": 0.0,
  "rottingMultiplier": 0.0,
  "printable": true,
  "colonyTags": [
    "apex",
    "apexmansion",
    "cooking"
  ],
  "race": "apex",
  "description": "A soft scent of fruit juice lingers.",
  "apexDescription": "A glass for juice. Such juices were banned in the prohibition.",
  "avianDescription": "The Avian do not have a method for shaping crystal in this way.",
  "floranDescription": "Dissgusting sscent of fruit insside.",
  "glitchDescription": "Analytical. The glass appears to have contained a fruit juice.",
  "humanDescription": "The smell reminds me of tropical fruit juices.",
  "hylotlDescription": "Crystal requires deft fingers to shape thusly.",
  "novakidDescription": "A fancy lookin\u0027 glass for fancy drinks I\u0027d guess."
}