{
  "itemKey": "classiclight",
  "itemName": "Classic Light",
  "iconFile": "classiclight.png",
  "price": 70,
  "rarity": "Common",
  "category": "light",
  "maxStack": 0,
  "foodValue": 0.0,
  "rottingMultiplier": 0.0,
  "printable": true,
  "colonyTags": [
    "apex",
    "apexmansion",
    "pretty",
    "light"
  ],
  "race": "apex",
  "description": "A pretty iron wall sconce.",
  "apexDescription": "The glow of this lamp is warm and comforting.",
  "avianDescription": "The ironwork surpasses that of Avian spearsmiths.",
  "floranDescription": "No fire burnsss within.",
  "glitchDescription": "Confusion. Design and purpose do not match. Lamp supplies oxygen for a flame, however, device is entirely electric.",
  "humanDescription": "An electric lamp. It looks built for a flame.",
  "hylotlDescription": "The lamp appears to be designed to house a flame but is entirely electric.",
  "novakidDescription": "This lamp looks kinda like it belongs in a saloon."
}