{
  "itemKey": "classicfountain",
  "itemName": "Water Fountain",
  "iconFile": "classicfountain.png",
  "price": 150,
  "rarity": "Common",
  "category": "decorative",
  "maxStack": 0,
  "foodValue": 0.0,
  "rottingMultiplier": 0.0,
  "printable": true,
  "colonyTags": [
    "apex",
    "apexmansion",
    "pretty",
    "valuable"
  ],
  "race": "apex",
  "description": "An ornate fountain - much of the water appears to be wasted.",
  "apexDescription": "The water from this fountain tastes... cleaner than the water pumped into Apex homes.",
  "avianDescription": "Bless my feathers, at last, a bath!",
  "floranDescription": "Floran love water, water iss giver of growth and life.",
  "glitchDescription": "Curious. Scans show this water is entirely pure.",
  "humanDescription": "Where does all the water come from? It doesn\u0027t look recollected.",
  "hylotlDescription": "The water here is not collected or reused, such waste is monstrous.",
  "novakidDescription": "Nice place to stop for a spell and have a drink."
}