{
  "itemKey": "classicbannertattered",
  "itemName": "Tattered Classic Banner",
  "iconFile": "classicbannertattered.png",
  "price": 40,
  "rarity": "Common",
  "category": "decorative",
  "maxStack": 0,
  "foodValue": 0.0,
  "rottingMultiplier": 0.0,
  "printable": false,
  "colonyTags": [
    "hylotl",
    "pretty"
  ],
  "race": "apex",
  "description": "This used to be the classiest curtain. Now it\u0027s a bit tattered.",
  "apexDescription": "What happened to this nice curtain?",
  "avianDescription": "Did someone ruin this curtain?",
  "floranDescription": "Old, broken curtain. Not so sssoft anymore.",
  "glitchDescription": "Disasppointed. This used to be a nice curtain, I\u0027m sure.",
  "humanDescription": "Some aggressive wear and tear.",
  "hylotlDescription": "This old curtain has seen better days.",
  "novakidDescription": "Shame. This curtain has seen better days."
}