{
  "itemKey": "classicplate",
  "itemName": "Classic Plate",
  "iconFile": "classicplate.png",
  "price": 30,
  "rarity": "Common",
  "category": "decorative",
  "maxStack": 0,
  "foodValue": 0.0,
  "rottingMultiplier": 0.0,
  "printable": true,
  "colonyTags": [
    "apex",
    "apexmansion",
    "cooking"
  ],
  "race": "apex",
  "description": "A fine china plate.",
  "apexDescription": "A fine china plate. The Apex are usually given plates made of plastic.",
  "avianDescription": "Avians traditionally eat only from bowls.",
  "floranDescription": "Floran try to eat food freshh from kill.",
  "glitchDescription": "Mischievous. The sound of a thrown plate is most satisfying.",
  "humanDescription": "Pretty fancy kitchenware.",
  "hylotlDescription": "The Hylotl are also masters of fine china.",
  "novakidDescription": "This pretty plate\u0027s so clean I can see my reflection."
}