{
  "itemKey": "classicdiningtable",
  "itemName": "Classic Dining Table",
  "iconFile": "classicdiningtable.png",
  "price": 180,
  "rarity": "Common",
  "category": "furniture",
  "maxStack": 0,
  "foodValue": 0.0,
  "rottingMultiplier": 0.0,
  "printable": true,
  "colonyTags": [
    "apex",
    "apexmansion",
    "commerce"
  ],
  "race": "apex",
  "description": "For when you want to make a table-based statement.",
  "apexDescription": "An extravagant table by day to day Apex standards.",
  "avianDescription": "I have never seen a table so large. The Avians tend to dine alone.",
  "floranDescription": "Feassst! A table big enough for many foodss.",
  "glitchDescription": "Nostalgic. The Glitch would host great feasts at tables such as these. There would be singing and dancing, and a motley fool filling the host with humour.",
  "humanDescription": "What a dining table. It looks brand new, barely used.",
  "hylotlDescription": "Hylotl believe a table should be full before a meal begins. Perhaps here it would never start.",
  "novakidDescription": "This table is huge! The shape\u0027d make it hard for playin\u0027 cards though."
}