{
  "itemKey": "classiccandlestick",
  "itemName": "Classic Candlestick",
  "iconFile": "classiccandlestick.png",
  "price": 85,
  "rarity": "Common",
  "category": "light",
  "maxStack": 0,
  "foodValue": 0.0,
  "rottingMultiplier": 0.0,
  "printable": true,
  "colonyTags": [
    "apex",
    "apexmansion",
    "light",
    "pretty",
    "valuable"
  ],
  "race": "apex",
  "description": "A golden candlestick with three prongs. The wax never seems to melt.",
  "apexDescription": "The base appears to be solid gold, but the flames are electronic.",
  "avianDescription": "The wax does not melt and the flames do not burn.",
  "floranDescription": "Floran fearss fire. But thisss fire doess not burn.",
  "glitchDescription": "Reflective. If the flames are simply flickering lightbulbs, does that make the candle any less real?",
  "humanDescription": "I think the candles are just flickering bulbs.",
  "hylotlDescription": "A fusion of technology and craftsmanship.",
  "novakidDescription": "This is a fancy lookin\u0027 candle, but the flames ain\u0027t even real."
}