{
  "itemKey": "classicbanner3",
  "itemName": "Classic Banner Bottom",
  "iconFile": "classicbanner3.png",
  "price": 80,
  "rarity": "Common",
  "category": "decorative",
  "maxStack": 0,
  "foodValue": 0.0,
  "rottingMultiplier": 0.0,
  "printable": false,
  "colonyTags": [
    "hylotl",
    "pretty"
  ],
  "race": "apex",
  "description": "The classiest curtain.",
  "apexDescription": "Rich, heavy curtains.",
  "avianDescription": "Soft to the touch.",
  "floranDescription": "Hylotl make curtainsss from heavy velvet, Floran make curtain from ssskin.",
  "glitchDescription": "Appreciative. Few objects are as pleasurable to caress.",
  "humanDescription": "These curtains belong in a mansion.",
  "hylotlDescription": "These curtains almost stick to Hylotl skin.",
  "novakidDescription": "Very fancy."
}