{
  "itemKey": "claypot1",
  "itemName": "Small Clay Pot",
  "iconFile": "claypot1.png",
  "price": 50,
  "rarity": "Common",
  "category": "breakable",
  "maxStack": 0,
  "foodValue": 0.0,
  "rottingMultiplier": 0.0,
  "printable": true,
  "colonyTags": [
    "pretty"
  ],
  "race": "generic",
  "description": "A decorative clay pot. Wonder what\u0027s inside?",
  "apexDescription": "A small clay pot. Should I smash it?",
  "avianDescription": "A clay pot. It might have something useful in it!",
  "floranDescription": "Thiss clay pot can be ssmasshed!",
  "glitchDescription": "Interested. Breaking this fragile pot will reveal the contents inside.",
  "humanDescription": "I think there\u0027s something in there. I can probably break it open.",
  "hylotlDescription": "This clay pot was carefully crafted, but the contents cannot be explored without breaking it.",
  "novakidDescription": "I\u0027d bet I could smash this \u0027ol pot with one shot."
}