{
  "itemKey": "clublampsmall",
  "itemName": "Club Lamp",
  "iconFile": "clublampsmall.png",
  "price": 75,
  "rarity": "Common",
  "category": "decorative",
  "maxStack": 0,
  "foodValue": 0.0,
  "rottingMultiplier": 0.0,
  "printable": true,
  "colonyTags": [
    "hylotl",
    "hylotloceancity",
    "light"
  ],
  "race": "hylotl",
  "description": "The lamp emits a low, ambient blue light.",
  "apexDescription": "Just need a fog machine to really give this place a nightclub vibe.",
  "avianDescription": "I wonder what sort of crystal could give off a blue light?",
  "floranDescription": "A blue light.",
  "glitchDescription": "Uninterested. It\u0027s a blue light.",
  "humanDescription": "Ambient lights to set the mood. Which mood? Not sure.",
  "hylotlDescription": "Just an ambient blue light.",
  "novakidDescription": "A blue light. Sets the mood."
}