{
  "itemKey": "coconutblock",
  "itemName": "Coconut Block",
  "iconFile": "coconutblock.png",
  "price": 0,
  "rarity": "Common",
  "category": "block",
  "maxStack": 0,
  "foodValue": 0.0,
  "rottingMultiplier": 0.0,
  "printable": true,
  "description": "Bricks made from coconut and mortar."
}