{
  "itemKey": "coffeebeans",
  "itemName": "Coffee Beans",
  "iconFile": "coffeebeans.png",
  "price": 90,
  "rarity": "Common",
  "category": "food",
  "maxStack": 1,
  "foodValue": 3.75,
  "rottingMultiplier": 5.0,
  "printable": true,
  "description": "Bitter coffee beans."
}