{
  "itemKey": "coldprotectionback",
  "itemName": "Heating EPP Upgrade",
  "iconFile": "coldprotectionback.png",
  "price": 1000,
  "rarity": "Rare",
  "category": "enviroProtectionPack",
  "maxStack": 1,
  "foodValue": 0.0,
  "rottingMultiplier": 0.0,
  "printable": true,
  "description": "This upgrade adds heat generation to your EPP\u0027s capabilities. Useful on ^red;dangerously cold^reset; planets."
}