{
  "itemKey": "colourfulbush3",
  "itemName": "Colourful Bush",
  "iconFile": "colourfulbush3.png",
  "price": 0,
  "rarity": "Common",
  "category": "breakable",
  "maxStack": 0,
  "foodValue": 0.0,
  "rottingMultiplier": 0.0,
  "printable": false,
  "colonyTags": [
    "colourful"
  ],
  "race": "generic",
  "description": "A divine, colourful bush.",
  "apexDescription": "Such foliage fails to impress me.",
  "avianDescription": "What an attractive bush.",
  "floranDescription": "Isss this plant or Floran? Floran prod to check.",
  "glitchDescription": "Inspired. A truly beautiful bush.",
  "humanDescription": "This would look nice in a pot.",
  "hylotlDescription": "Nature is the purest artist.",
  "novakidDescription": "I think this bush has got a pretty high opinion of itself."
}