{
  "itemKey": "comedyscript",
  "itemName": "Comedy Script",
  "iconFile": "comedyscript.png",
  "price": 0,
  "rarity": "Common",
  "category": "quest",
  "maxStack": 0,
  "foodValue": 0.0,
  "rottingMultiplier": 0.0,
  "printable": true,
  "description": "A creased, stained piece of paper with terrible jokes written on it."
}