{
  "itemKey": "commonsmallshield",
  "itemName": "Small Shield",
  "price": 600,
  "rarity": "Common",
  "category": "shield",
  "maxStack": 1,
  "foodValue": 0.0,
  "rottingMultiplier": 0.0,
  "printable": true,
  "description": "There\u0027s a little something special between us."
}