{
  "itemKey": "commonshotgun",
  "itemName": "Common Shotgun",
  "price": 900,
  "rarity": "Common",
  "category": "shotgun",
  "maxStack": 1,
  "foodValue": 0.0,
  "rottingMultiplier": 0.0,
  "printable": true,
  "description": "Fires a spread that\u0027s lethal at close range."
}