{
  "itemKey": "compositerail",
  "itemName": "Composite Rail",
  "iconFile": "compositerail.png",
  "price": 0,
  "rarity": "Common",
  "category": "rail",
  "maxStack": 0,
  "foodValue": 0.0,
  "rottingMultiplier": 0.0,
  "printable": true,
  "description": "A strong reinforced rail."
}