{
  "itemKey": "compositerailplatform",
  "itemName": "Composite Rail Platform",
  "iconFile": "compositerailplatform.png",
  "price": 475,
  "rarity": "rare",
  "category": "railPlatform",
  "maxStack": 10,
  "foodValue": 0.0,
  "rottingMultiplier": 0.0,
  "printable": true,
  "description": "Place a self-propelled platform that follows rails."
}