{
  "itemKey": "conceptlegs",
  "itemName": "Casual Shorts",
  "iconFile": "conceptlegs.png",
  "price": 0,
  "rarity": "Common",
  "category": "legwear",
  "maxStack": 1,
  "foodValue": 0.0,
  "rottingMultiplier": 0.0,
  "printable": true,
  "description": "They\u0027re longer than your average shorts."
}