{
  "itemKey": "consoletribal3",
  "itemName": "Carved Flame Console",
  "iconFile": "consoletribal3.png",
  "price": 95,
  "rarity": "Common",
  "category": "wire",
  "maxStack": 0,
  "foodValue": 0.0,
  "rottingMultiplier": 0.0,
  "printable": true,
  "colonyTags": [
    "avian",
    "aviantemple",
    "wired",
    "electronic"
  ],
  "race": "avian",
  "description": "An access panel with a flame carved into its base.",
  "apexDescription": "The crystals inside this console seem important, but I don\u0027t understand the technology.",
  "avianDescription": "This console is able to interact with other devices using crystal vibrations.",
  "floranDescription": "Birdman console has flamess on it. Floran hatess fire.",
  "glitchDescription": "Fascinated. The crystals powering this console are able to interface with other devices.",
  "humanDescription": "This access panel has symbols I don\u0027t understand.",
  "hylotlDescription": "The lights from this console are hypnotic and beautiful.",
  "novakidDescription": "I\u0027m itchin\u0027 to push some of these fancy buttons."
}