{
  "itemKey": "cookedfish",
  "itemName": "Cooked Fish",
  "iconFile": "cookedfish.png",
  "price": 25,
  "rarity": "Common",
  "category": "food",
  "maxStack": 1,
  "foodValue": 20.0,
  "rottingMultiplier": 0.5,
  "printable": true,
  "description": "A tasty fillet of cooked fish."
}