{
  "itemKey": "cookedtentacle",
  "itemName": "Cooked Tentacle",
  "iconFile": "cookedtentacle.png",
  "price": 40,
  "rarity": "Common",
  "category": "food",
  "maxStack": 1,
  "foodValue": 30.0,
  "rottingMultiplier": 0.5,
  "printable": true,
  "description": "Chewy... But in a nice way."
}