{
  "itemKey": "coolfezhead",
  "itemName": "Cool Fez",
  "iconFile": "coolfezhead.png",
  "price": 2500,
  "rarity": "Rare",
  "category": "headwear",
  "maxStack": 1,
  "foodValue": 0.0,
  "rottingMultiplier": 0.0,
  "printable": true,
  "description": "Fezzes are...  neat!"
}