{
  "itemKey": "copperrocksmall",
  "itemName": "Small Copper Rock",
  "iconFile": "copperrocksmall.png",
  "price": 0,
  "rarity": "Common",
  "category": "breakable",
  "maxStack": 0,
  "foodValue": 0.0,
  "rottingMultiplier": 0.0,
  "printable": false,
  "colonyTags": [],
  "race": "generic",
  "description": "A cracked rock full of copper.",
  "apexDescription": "There appears to be copper within this fragile rock.",
  "avianDescription": "If I break this rock I should be able to gather the copper ore within it.",
  "floranDescription": "Glittery rock. Sssmash it!",
  "glitchDescription": "Observant. This rock contains copper, and is covered in cracks.",
  "humanDescription": "A rock full of copper! Maybe I can break it.",
  "hylotlDescription": "A swift blow to this rock would free the copper within.",
  "novakidDescription": "A rock rich with copper. I should break it."
}