{
  "itemKey": "coppersupport",
  "itemName": "Copper Support",
  "iconFile": "coppersupport.png",
  "price": 15,
  "rarity": "Common",
  "category": "decorative",
  "maxStack": 0,
  "foodValue": 0.0,
  "rottingMultiplier": 0.0,
  "printable": false,
  "colonyTags": [
    "copper"
  ],
  "race": "generic",
  "description": "A copper structural support beam.",
  "apexDescription": "A copper support beam.",
  "avianDescription": "A metal structural support.",
  "floranDescription": "Sssupport beam made from copper.",
  "glitchDescription": "Observant. This copper beam is not actually supporting any structural weight.",
  "humanDescription": "It\u0027s a copper support beam.",
  "hylotlDescription": "A solidly constructed copper support.",
  "novakidDescription": "A big ol\u0027 copper beam."
}