{
  "itemKey": "cottonwool",
  "itemName": "Cotton Wool",
  "iconFile": "cottonwool.png",
  "price": 40,
  "rarity": "Common",
  "category": "craftingMaterial",
  "maxStack": 0,
  "foodValue": 0.0,
  "rottingMultiplier": 0.0,
  "printable": true,
  "description": "A roll of processed cotton."
}