{
  "itemKey": "countdowntimer",
  "itemName": "Countdown Timer",
  "iconFile": "countdowntimer.png",
  "price": 10,
  "rarity": "Common",
  "category": "wire",
  "maxStack": 0,
  "foodValue": 0.0,
  "rottingMultiplier": 0.0,
  "printable": false,
  "colonyTags": [
    "wired"
  ],
  "race": "human",
  "description": "A timer that stays active for a set duration.",
  "floranDescription": "A timer that sstays active for a ssset duration.",
  "glitchDescription": "Impressed. A timer that stays active for a set duration."
}