{
  "itemKey": "craftingmedical",
  "itemName": "Apothecary",
  "iconFile": "craftingmedical.png",
  "price": 75,
  "rarity": "Uncommon",
  "category": "crafting",
  "maxStack": 0,
  "foodValue": 0.0,
  "rottingMultiplier": 0.0,
  "printable": false,
  "colonyTags": [
    "crafting"
  ],
  "race": "generic",
  "description": "The apothecary is used to produce healing items and medicine.",
  "apexDescription": "A table with a bunch of medical tools.",
  "avianDescription": "A chance to utilise one\u0027s medical ability.",
  "floranDescription": "Floran ussse table. Patch ssself up.",
  "glitchDescription": "Inspired. Medical module activated.",
  "humanDescription": "I can use materials I\u0027ve found here to create new healing items.",
  "hylotlDescription": "This gives me the ability to heal and rejuvenate after incurring damage.",
  "novakidDescription": "This table looks good for treatin\u0027 wounds."
}