{
  "itemKey": "crayongreenback",
  "itemName": "Green Crayon",
  "iconFile": "crayongreenback.png",
  "price": 2500,
  "rarity": "Rare",
  "category": "backwear",
  "maxStack": 1,
  "foodValue": 0.0,
  "rottingMultiplier": 0.0,
  "printable": true,
  "description": "A green crayon. Equip to bring some colour to your outfit."
}