{
  "itemKey": "crystalplantseed",
  "itemName": "Crystal Plant Seed",
  "iconFile": "crystalplantseed.png",
  "price": 0,
  "rarity": "Common",
  "category": "seed",
  "maxStack": 0,
  "foodValue": 0.0,
  "rottingMultiplier": 0.0,
  "printable": false,
  "colonyTags": [
    "nature"
  ],
  "description": "A Crystal plant. Truns out money does grow on trees.",
  "apexDescription": "Grow your own crystals. Handy.",
  "avianDescription": "A plant that grows crystals. It\u0027s magic!",
  "floranDescription": "Floran puzzled by shiny plant.",
  "glitchDescription": "Concerned. Farming these in abundance could damage the economy.",
  "humanDescription": "When I was little, I always wanted a money tree. This is the next best thing.",
  "hylotlDescription": "A plant which sprouts glorious glowing crystals.",
  "novakidDescription": "A famrable crystal! Now we\u0027re talkin\u0027!"
}