{
  "itemKey": "crystalcavebush1",
  "itemName": "Crystalline Bush",
  "iconFile": "crystalcavebush1.png",
  "price": 0,
  "rarity": "Common",
  "category": "breakable",
  "maxStack": 0,
  "foodValue": 0.0,
  "rottingMultiplier": 0.0,
  "printable": false,
  "colonyTags": [
    "crystalline"
  ],
  "race": "apex",
  "description": "A crystalline deposit. Shiny.",
  "apexDescription": "Crystals are quite beautiful.",
  "avianDescription": "A bunch of shiny crystals.",
  "floranDescription": "Shiny, pointy rocksss.",
  "glitchDescription": "Impatient. Crystals are unpleasant when underfoot.",
  "humanDescription": "Ooh, pretty.",
  "hylotlDescription": "This crystal reminds me of frozen coral.",
  "novakidDescription": "A sparklin\u0027 crystal."
}