{
  "itemKey": "crystalblock",
  "itemName": "Crystal Block",
  "iconFile": "crystalblock.png",
  "price": 0,
  "rarity": "Common",
  "category": "block",
  "maxStack": 0,
  "foodValue": 0.0,
  "rottingMultiplier": 0.0,
  "printable": true,
  "description": "A shimmering block of made from crystals."
}