{
  "itemKey": "cupidsback",
  "itemName": "Cupid\u0027s Wings",
  "iconFile": "cupidsback.png",
  "price": 50,
  "rarity": "Common",
  "category": "backwear",
  "maxStack": 1,
  "foodValue": 0.0,
  "rottingMultiplier": 0.0,
  "printable": true,
  "description": "Cupid\u0027s wings might not be strong enough to carry your weight."
}