{
  "itemKey": "cyclopsyetichest",
  "itemName": "Cyclops Yeti Shirt",
  "iconFile": "cyclopsyetichest.png",
  "price": 2500,
  "rarity": "Rare",
  "category": "chestwear",
  "maxStack": 1,
  "foodValue": 0.0,
  "rottingMultiplier": 0.0,
  "printable": true,
  "description": "A chestpiece made from a cyclops yeti."
}