{
  "itemKey": "damagecollar2",
  "itemName": "Damage II Collar",
  "iconFile": "damagecollar2.png",
  "price": 5000,
  "rarity": "Rare",
  "category": "petCollar",
  "maxStack": 0,
  "foodValue": 0.0,
  "rottingMultiplier": 0.0,
  "printable": true,
  "description": "A collar that boosts your pet\u0027s damage output."
}