{
  "itemKey": "damageaugment1",
  "itemName": "Damage I Augment",
  "iconFile": "damageaugment1.png",
  "price": 5000,
  "rarity": "Uncommon",
  "category": "eppAugment",
  "maxStack": 0,
  "foodValue": 0.0,
  "rottingMultiplier": 0.0,
  "printable": true,
  "description": "An EPP module that slightly boosts your damage output."
}