{
  "itemKey": "damageaugment2",
  "itemName": "Damage II Augment",
  "iconFile": "damageaugment2.png",
  "price": 10000,
  "rarity": "Rare",
  "category": "eppAugment",
  "maxStack": 0,
  "foodValue": 0.0,
  "rottingMultiplier": 0.0,
  "printable": true,
  "description": "An EPP module that boosts your damage output."
}