{
  "itemKey": "dangerbarrelback",
  "itemName": "Unstable Barrel",
  "iconFile": "dangerbarrelback.png",
  "price": 2500,
  "rarity": "Rare",
  "category": "backwear",
  "maxStack": 1,
  "foodValue": 0.0,
  "rottingMultiplier": 0.0,
  "printable": true,
  "description": "A dangerous barrel. Try not to have a wardrobe malfunction."
}