{
  "itemKey": "darkdisguiselegs",
  "itemName": "Dark Disguise Trousers",
  "iconFile": "darkdisguiselegs.png",
  "price": 2500,
  "rarity": "Rare",
  "category": "legwear",
  "maxStack": 1,
  "foodValue": 0.0,
  "rottingMultiplier": 0.0,
  "printable": true,
  "description": "These trousers are brimming with dark energy."
}