{
  "itemKey": "darksmoothstonematerial",
  "itemName": "Dark Smooth Stone",
  "iconFile": "darksmoothstonematerial.png",
  "price": 0,
  "rarity": "Common",
  "category": "block",
  "maxStack": 0,
  "foodValue": 0.0,
  "rottingMultiplier": 0.0,
  "printable": true,
  "description": "A dark, smooth stone block."
}