{
  "itemKey": "deadbeatbruisernerdhead",
  "itemName": "Deadbeat Bruiser Glasses",
  "iconFile": "deadbeatbruisernerdhead.png",
  "price": 0,
  "rarity": "Rare",
  "category": "headwear",
  "maxStack": 1,
  "foodValue": 0.0,
  "rottingMultiplier": 0.0,
  "printable": true,
  "description": "Protective glasses accent this plated mask."
}