{
  "itemKey": "deadbeatbruisermaskhead",
  "itemName": "Deadbeat Bruiser Mask",
  "iconFile": "deadbeatbruisermaskhead.png",
  "price": 0,
  "rarity": "Rare",
  "category": "headwear",
  "maxStack": 1,
  "foodValue": 0.0,
  "rottingMultiplier": 0.0,
  "printable": true,
  "description": "A plated mask which offers no actual protection."
}