{
  "itemKey": "deathwarning",
  "itemName": "Old Warning Sign",
  "iconFile": "deathwarning.png",
  "price": 50,
  "rarity": "Common",
  "category": "decorative",
  "maxStack": 0,
  "foodValue": 0.0,
  "rottingMultiplier": 0.0,
  "printable": true,
  "colonyTags": [
    "floran",
    "floranhuntinggrounds"
  ],
  "race": "generic",
  "description": "An old sign to warn of deathly danger.",
  "apexDescription": "This sign makes me think I should be careful.",
  "avianDescription": "A menacing sign. What could it be a warning for?",
  "floranDescription": "The sssign means fun!",
  "glitchDescription": "Observant. This appears to be a warning.",
  "humanDescription": "How forboding!",
  "hylotlDescription": "This skull does not appear to have three eye sockets. Perhaps Hylotl are not at risk to the danger.",
  "novakidDescription": "A skull sign of some sort."
}