{
  "itemKey": "deckchair",
  "itemName": "Deck Chair",
  "iconFile": "deckchair.png",
  "price": 85,
  "rarity": "Common",
  "category": "furniture",
  "maxStack": 0,
  "foodValue": 0.0,
  "rottingMultiplier": 0.0,
  "printable": false,
  "colonyTags": [
    "oasis"
  ],
  "race": "generic",
  "description": "A folding chair made for lounging. Looks relaxing.",
  "apexDescription": "This simple chair looks made for lounging in.",
  "avianDescription": "This chair looks made for relaxing in.",
  "floranDescription": "Floran wantss to lean back and relax.",
  "glitchDescription": "Refreshed. This chair looks like it would melt my worries way.",
  "humanDescription": "This chair looks perfect for leaning back and taking a relaxing break.",
  "hylotlDescription": "I\u0027d imagine this chair makes anyone who sits in it feel peaceful.",
  "novakidDescription": "This chair looks perfect for kickin\u0027 up my boots for a bit."
}