{
  "itemKey": "decoratedtree",
  "itemName": "Decorated Tree",
  "iconFile": "decoratedtree.png",
  "price": 1500,
  "rarity": "Uncommon",
  "category": "light",
  "maxStack": 0,
  "foodValue": 0.0,
  "rottingMultiplier": 0.0,
  "printable": false,
  "colonyTags": [
    "christmas",
    "pretty",
    "light"
  ],
  "race": "generic",
  "description": "A synthetic tree decorated with strings of lights and festive ornaments.",
  "apexDescription": "The sight of this tree makes me feel all warm and fuzzy inside.",
  "avianDescription": "I\u0027ve got the strangest urge to burst out into song!",
  "floranDescription": "Sssparkly tree.",
  "glitchDescription": "Happy. This tree makes me want to sing festive songs.",
  "humanDescription": "This tree brings back a lot of memories of home...",
  "hylotlDescription": "I have to admit, this festive tree has a warming effect on my cold, amphibious heart.",
  "novakidDescription": "Well, these decorations sure makes a plain ol\u0027 tree look special."
}