{
  "itemKey": "deepdiverhead",
  "itemName": "Deep Diver Helmet",
  "iconFile": "deepdiverhead.png",
  "price": 2500,
  "rarity": "Rare",
  "category": "headwear",
  "maxStack": 1,
  "foodValue": 0.0,
  "rottingMultiplier": 0.0,
  "printable": true,
  "description": "A rusted, old diving helmet. It\u0027s not very easy to see with one of these on!"
}