{
  "itemKey": "delay",
  "itemName": "Delay Gate",
  "iconFile": "delay.png",
  "price": 10,
  "rarity": "Common",
  "category": "wire",
  "maxStack": 0,
  "foodValue": 0.0,
  "rottingMultiplier": 0.0,
  "printable": false,
  "colonyTags": [
    "wired"
  ],
  "race": "generic",
  "description": "A circuit that relays signals after a set delay.",
  "floranDescription": "A circuit that relays signalsss after a sset delay.",
  "glitchDescription": "Neutral. A circuit that relays signals after a set delay."
}