{
  "itemKey": "diamondrocksmall",
  "itemName": "Small Diamond Rock",
  "iconFile": "diamondrocksmall.png",
  "price": 0,
  "rarity": "Common",
  "category": "breakable",
  "maxStack": 0,
  "foodValue": 0.0,
  "rottingMultiplier": 0.0,
  "printable": false,
  "colonyTags": [],
  "race": "generic",
  "description": "A cracked rock full of diamond.",
  "apexDescription": "There appears to be diamond within this fragile rock.",
  "avianDescription": "If I break this rock I should be able to gather the diamond ore within it.",
  "floranDescription": "Glittery rock. Sssmash it!",
  "glitchDescription": "Observant. This rock contains diamond, and is covered in cracks.",
  "humanDescription": "A rock full of diamond! Maybe I can break it.",
  "hylotlDescription": "A swift blow to this rock would free the diamond within.",
  "novakidDescription": "A rock rich with diamond. I should break it."
}