{
  "itemKey": "diamonddrill",
  "itemName": "Diamond Drill",
  "iconFile": "diamonddrill.png",
  "price": 450,
  "rarity": "Rare",
  "category": "Tool",
  "maxStack": 1,
  "foodValue": 0.0,
  "rottingMultiplier": 0.0,
  "printable": true,
  "description": "Drills fast but breaks quickly. A temporary alternative to the matter manipulator."
}