{
  "itemKey": "dinosaurhead",
  "itemName": "Dinosaur Hat",
  "iconFile": "dinosaurhead.png",
  "price": 5000,
  "rarity": "Legendary",
  "category": "headwear",
  "maxStack": 1,
  "foodValue": 0.0,
  "rottingMultiplier": 0.0,
  "printable": true,
  "description": "A hat so retro, it\u0027s prehistoric."
}