{
  "itemKey": "diodia",
  "itemName": "Diodia",
  "iconFile": "diodia.png",
  "price": 180,
  "rarity": "Common",
  "category": "food",
  "maxStack": 1,
  "foodValue": 7.5,
  "rottingMultiplier": 1.0,
  "printable": true,
  "description": "Diodia, tastes like copper."
}