{
  "itemKey": "dirtyfossil6",
  "itemName": "Fossil",
  "iconFile": "dirtyfossil6.png",
  "price": 0,
  "rarity": "Common",
  "category": "breakable",
  "maxStack": 0,
  "foodValue": 0.0,
  "rottingMultiplier": 0.0,
  "printable": false,
  "race": "generic",
  "description": "Some kind of fossil, all covered in mud and rock. It\u0027s going to need careful cleaning to get it out in one peice"
}