{
  "itemKey": "doomchair",
  "itemName": "Doom Chair",
  "iconFile": "doomchair.png",
  "price": 115,
  "rarity": "Common",
  "category": "furniture",
  "maxStack": 0,
  "foodValue": 0.0,
  "rottingMultiplier": 0.0,
  "printable": false,
  "colonyTags": [
    "evil",
    "doom"
  ],
  "race": "generic",
  "description": "A comfortable doom chair.",
  "apexDescription": "An immensely comfortable chair, even if it is a bit eerie-looking.",
  "avianDescription": "A wonderful place to sit, if you can ignore the spikes.",
  "floranDescription": "Floran ssit on chair, stroke sspikes and think about hunting.",
  "glitchDescription": "Relaxed. This chair is exceptionally comfortable for the Glitch.",
  "humanDescription": "A disarmingly soft chair. Reminds me of being at home, with added spikes.",
  "hylotlDescription": "Pretty much the luxury Hylotl are used to, if not the design sensibilities.",
  "novakidDescription": "This chair sure is comfy for somethin\u0027 so spiky."
}