{
  "itemKey": "drillconsole",
  "itemName": "Mining Drill Console",
  "iconFile": "drillconsole.png",
  "price": 200,
  "rarity": "Common",
  "category": "decorative",
  "maxStack": 0,
  "foodValue": 0.0,
  "rottingMultiplier": 0.0,
  "printable": false,
  "colonyTags": [
    "human",
    "lunarbase",
    "wired",
    "mechanical"
  ],
  "race": "generic",
  "description": "A drill-mounted console.",
  "apexDescription": "A console with a drill attached.",
  "avianDescription": "A console with it\u0027s own drill built in.",
  "floranDescription": "Consssole with drill.",
  "glitchDescription": "Intrigued. A console connected directly to a mining drill.",
  "humanDescription": "A drill, likely operated by the console attached.",
  "hylotlDescription": "A mining console with harvesting functions.",
  "novakidDescription": "Minin\u0027 console."
}