{
  "itemKey": "drip2",
  "itemName": "Acid Drop Source",
  "iconFile": "drip2.png",
  "price": 0,
  "rarity": "Common",
  "category": "decorative",
  "maxStack": 0,
  "foodValue": 0.0,
  "rottingMultiplier": 0.0,
  "printable": false,
  "colonyTags": [],
  "race": "human",
  "description": "Acid is dripping from this place."
}