{
  "itemKey": "dripslime1",
  "itemName": "Dripping Slime",
  "iconFile": "dripslime1.png",
  "price": 0,
  "rarity": "Common",
  "category": "decorative",
  "maxStack": 0,
  "foodValue": 0.0,
  "rottingMultiplier": 0.0,
  "printable": false,
  "colonyTags": [],
  "race": "human",
  "description": "Slime is dripping from this place.",
  "apexDescription": "Where is this slime coming from?",
  "avianDescription": "I\u0027d rather not get slime on my feathers.",
  "floranDescription": "Floran is not a fan of ssslime.",
  "glitchDescription": "Disgusted. There appears to be dripping slime.",
  "humanDescription": "Better not walk under this dripping slime.",
  "hylotlDescription": "A constant dripping of slime.",
  "novakidDescription": "Slime seems to get everywhere if you let it."
}