{
  "itemKey": "durasteelshortsword",
  "itemName": "Durasteel Shortsword",
  "iconFile": "durasteelshortsword.png",
  "price": 480,
  "rarity": "Uncommon",
  "category": "shortsword",
  "maxStack": 1,
  "foodValue": 0.0,
  "rottingMultiplier": 0.0,
  "printable": true,
  "description": "This shortsword is forged from solid durasteel."
}