{
  "itemKey": "durasteelbroadsword",
  "itemName": "Durasteel Broadsword",
  "iconFile": "durasteelbroadsword.png",
  "price": 960,
  "rarity": "Uncommon",
  "category": "broadsword",
  "maxStack": 1,
  "foodValue": 0.0,
  "rottingMultiplier": 0.0,
  "printable": true,
  "description": "A blade forged from solid durasteel. Few metals are stronger."
}