{
  "itemKey": "durasteelelevatorshort",
  "itemName": "Short Durasteel Elevator",
  "iconFile": "durasteelelevatorshort.png",
  "price": 200,
  "rarity": "Common",
  "category": "wire",
  "maxStack": 0,
  "foodValue": 0.0,
  "rottingMultiplier": 0.0,
  "printable": false,
  "colonyTags": [
    "wired"
  ],
  "race": "generic",
  "description": "This durasteel elevator will get the job done.",
  "apexDescription": "A sturdy elevator.",
  "avianDescription": "The easiest way to get around a multilevel facility.",
  "floranDescription": "Elevator goesss up and down.",
  "glitchDescription": "Bored. An uninspiring elevator.",
  "humanDescription": "An elevator for getting up and down levels.",
  "hylotlDescription": "A sleek durasteel elevator.",
  "novakidDescription": "Some kinda elevator, useful!"
}