{
  "itemKey": "dustychair",
  "itemName": "Dusty Chair",
  "iconFile": "dustychair.png",
  "price": 60,
  "rarity": "Common",
  "category": "furniture",
  "maxStack": 0,
  "foodValue": 0.0,
  "rottingMultiplier": 0.0,
  "printable": false,
  "colonyTags": [
    "fenerox"
  ],
  "race": "generic",
  "description": "An old, worn and dusty chair.",
  "apexDescription": "Old and worn, but probably works efficiently enough.",
  "avianDescription": "A chair with grass stuffed cushioning. I could get used to this!",
  "floranDescription": "Floran thinksss chair battle damaged.",
  "glitchDescription": "Confused. Is this furniture meant to look this dishevelled?",
  "humanDescription": "This looks a bit broken. I\u0027m not sure I should sit on it...",
  "hylotlDescription": "This chair looks like it\u0027s been through a lot.",
  "novakidDescription": "Dust ain\u0027t all that bad."
}