{
  "itemKey": "eggshoot",
  "itemName": "Eggshoot",
  "iconFile": "eggshoot.png",
  "price": 120,
  "rarity": "Common",
  "category": "food",
  "maxStack": 1,
  "foodValue": 5.0,
  "rottingMultiplier": 1.0,
  "printable": true,
  "description": "Eggshoot, soft-boiled in texture. Break it open to find a yolk."
}