{
  "itemKey": "egyptianchair",
  "itemName": "Egyptian Chair",
  "iconFile": "egyptianchair.png",
  "price": 125,
  "rarity": "Common",
  "category": "furniture",
  "maxStack": 0,
  "foodValue": 0.0,
  "rottingMultiplier": 0.0,
  "printable": false,
  "colonyTags": [
    "egyptian"
  ],
  "race": "generic",
  "description": "A golden chair decorated with symbols.",
  "apexDescription": "There are some strange symbols engraved on this chair.",
  "avianDescription": "This chair looks very impressive.",
  "floranDescription": "Metal chair could use some sssoft skinsss.",
  "glitchDescription": "Interested. This chair slightly resembles a throne in a Glitch castle.",
  "humanDescription": "Seems like this chair wouldn\u0027t be very comfortable.",
  "hylotlDescription": "This chair seems almost too nice to sit on.",
  "novakidDescription": "A fella\u0027d feel real important sittin\u0027 on this chair."
}