{
  "itemKey": "electrobaton",
  "itemName": "Electro Baton",
  "iconFile": "electrobaton.png",
  "price": 640,
  "rarity": "Legendary",
  "category": "shortsword",
  "maxStack": 1,
  "foodValue": 0.0,
  "rottingMultiplier": 0.0,
  "printable": true,
  "description": "Originally developed for Miniknog riot police. It\u0027s shockingly effective."
}