{
  "itemKey": "electroniumhat",
  "itemName": "Electronium Hat",
  "iconFile": "electroniumhat.png",
  "price": 5000,
  "rarity": "Legendary",
  "category": "headwear",
  "maxStack": 1,
  "foodValue": 0.0,
  "rottingMultiplier": 0.0,
  "printable": true,
  "description": "I feel smarter just wearing this thing!"
}