{
  "itemKey": "electricdoor",
  "itemName": "Electrical Barrier",
  "iconFile": "electricdoor.png",
  "price": 125,
  "rarity": "Common",
  "category": "door",
  "maxStack": 0,
  "foodValue": 0.0,
  "rottingMultiplier": 0.0,
  "printable": true,
  "colonyTags": [
    "door",
    "electronic"
  ],
  "race": "generic",
  "description": "It\u0027s some sort of electrical barrier. Looks dangerous...",
  "apexDescription": "This current forms a shield to keep things from passing through.",
  "avianDescription": "A door fashioned from electricity? Remarkable.",
  "floranDescription": "Door sssizzless, Floran don\u0027t like electric doorss.",
  "glitchDescription": "Unconcerned. The current here is completely grounded, there is no danger.",
  "humanDescription": "It\u0027s a gate made from electricity. Who makes a door like this?",
  "hylotlDescription": "The Hylotl are very cautious with electrical currents.",
  "novakidDescription": "A big rowdy spark of electric energy."
}