{
  "itemKey": "electricbombcollar",
  "itemName": "Electric Bomb Collar",
  "iconFile": "electricbombcollar.png",
  "price": 2500,
  "rarity": "Uncommon",
  "category": "petCollar",
  "maxStack": 0,
  "foodValue": 0.0,
  "rottingMultiplier": 0.0,
  "printable": true,
  "description": "A collar that causes your pet to explode when they\u0027re defeated."
}