{
  "itemKey": "embercoral2",
  "itemName": "Ember Coral",
  "iconFile": "embercoral2.png",
  "price": 0,
  "rarity": "Common",
  "category": "breakable",
  "maxStack": 0,
  "foodValue": 0.0,
  "rottingMultiplier": 0.0,
  "printable": false,
  "colonyTags": [
    "coral"
  ],
  "race": "apex",
  "description": "A crispy coral shrub.",
  "apexDescription": "Coral with a golden glow.",
  "avianDescription": "A bight and lovely piece of coral.",
  "floranDescription": "Crissspy.",
  "glitchDescription": "Greedy. A golden coral shrub.",
  "humanDescription": "I wonder if this coral is hot to be glowing like that.",
  "hylotlDescription": "One of many beautiful coral species.",
  "novakidDescription": "There\u0027s gold in them there oceans."
}