{
  "itemKey": "escaperadar",
  "itemName": "Escape Radar Dish",
  "iconFile": "escaperadar.png",
  "price": 120,
  "rarity": "Common",
  "category": "decorative",
  "maxStack": 0,
  "foodValue": 0.0,
  "rottingMultiplier": 0.0,
  "printable": false,
  "colonyTags": [
    "outpost",
    "electronic",
    "mechanical"
  ],
  "race": "generic",
  "description": "A radar dish. Not to be confused with a salad dish.",
  "apexDescription": "A great radar dish.",
  "avianDescription": "Nice dish.",
  "floranDescription": "Floran like to sssmash dishes!",
  "glitchDescription": "Curious. A radar dish.",
  "humanDescription": "That\u0027s a sweet dish.",
  "hylotlDescription": "A rather imposing radar dish.",
  "novakidDescription": "I\u0027ve seen bigger dishes."
}