{
  "itemKey": "executivedoor",
  "itemName": "Executive Door",
  "iconFile": "executivedoor.png",
  "price": 170,
  "rarity": "Common",
  "category": "door",
  "maxStack": 0,
  "foodValue": 0.0,
  "rottingMultiplier": 0.0,
  "printable": false,
  "colonyTags": [
    "door",
    "executive"
  ],
  "race": "generic",
  "description": "An impenetrable executive door.",
  "apexDescription": "This door is entirely secure.",
  "avianDescription": "A totally sturdy door.",
  "floranDescription": "Floran hide behind door. Jump out. Ssstab!",
  "glitchDescription": "Approving. A flawless door.",
  "humanDescription": "An impenetrable executive door.",
  "hylotlDescription": "A robust executive door.",
  "novakidDescription": "This door sure is swish."
}