{
  "itemKey": "executivelight",
  "itemName": "Executive Light",
  "iconFile": "executivelight.png",
  "price": 105,
  "rarity": "Common",
  "category": "light",
  "maxStack": 0,
  "foodValue": 0.0,
  "rottingMultiplier": 0.0,
  "printable": false,
  "colonyTags": [
    "light",
    "executive"
  ],
  "race": "generic",
  "description": "A dazzling executive light.",
  "apexDescription": "A well-made light source.",
  "avianDescription": "This useful lamp will light up even the darkest room.",
  "floranDescription": "Fancy lamp sssafe for Floran.",
  "glitchDescription": "Pleased. A sleek and efficient lamp.",
  "humanDescription": "A nice looking, executive lamp.",
  "hylotlDescription": "A futuristic looking light source.",
  "novakidDescription": "This fancy light sure does impress."
}