{
  "itemKey": "expansionslot",
  "itemName": "Expansion Slot",
  "iconFile": "expansionslot.png",
  "price": 125,
  "rarity": "Common",
  "category": "playerstation",
  "maxStack": 0,
  "foodValue": 0.0,
  "rottingMultiplier": 0.0,
  "printable": false,
  "colonyTags": [],
  "race": "generic",
  "description": "A port which modular station expansion pieces can be attached to.",
  "apexDescription": "This port is used for adding additional modules to a space station.",
  "avianDescription": "This terminal is for managing the expansion modules for this station.",
  "floranDescription": "Computersss can attach more spacesss to the station.",
  "glitchDescription": "Observant. This terminal type can be used attach a variety of interior modules to the station.",
  "humanDescription": "An expansion port, there\u0027s a bunch of different station modules which can be attached to it.",
  "hylotlDescription": "This panel can be used to expand the station\u0027s interior.",
  "novakidDescription": "Some fancy computers for making the station even bigger."
}