{
  "itemKey": "eyeballchest",
  "itemName": "Eyeball Shirt",
  "iconFile": "eyeballchest.png",
  "price": 2500,
  "rarity": "Rare",
  "category": "chestwear",
  "maxStack": 1,
  "foodValue": 0.0,
  "rottingMultiplier": 0.0,
  "printable": true,
  "description": "A shirt woven from optic nerves."
}