{
  "itemKey": "eyeballhead",
  "itemName": "Eyeball Mask",
  "iconFile": "eyeballhead.png",
  "price": 2500,
  "rarity": "Rare",
  "category": "headwear",
  "maxStack": 1,
  "foodValue": 0.0,
  "rottingMultiplier": 0.0,
  "printable": true,
  "description": "A giant eyeball mask. Drastically reduces your depth perception."
}