{
  "itemKey": "eyedoor",
  "itemName": "Eye Door",
  "iconFile": "eyedoor.png",
  "price": 125,
  "rarity": "Common",
  "category": "door",
  "maxStack": 0,
  "foodValue": 0.0,
  "rottingMultiplier": 0.0,
  "printable": false,
  "colonyTags": [
    "eyepatch",
    "odd",
    "door"
  ],
  "race": "generic",
  "description": "A door covered in eyes. Don\u0027t blink.",
  "apexDescription": "The door\u0027s piercing gaze is just daring me to enter.",
  "avianDescription": "This eye emanate malevolence. What horrors lie beyond?",
  "floranDescription": "Floran think door look at Floran funny. Floran feel territorial.",
  "glitchDescription": "Contemplative. With just one eye, this door must see the world as a one dimensional space.",
  "humanDescription": "This door doesn\u0027t look very welcoming. I think that was sort of a pun.",
  "hylotlDescription": "An overly dramatic door decorated with a large eye. Hylotl prefer stark beauty to convey importance.",
  "novakidDescription": "This door\u0027s keepin\u0027 an eye on me."
}