{
  "itemKey": "eyepatchhead",
  "itemName": "Dastardly Eyepatch",
  "iconFile": "eyepatchhead.png",
  "price": 2500,
  "rarity": "Rare",
  "category": "headwear",
  "maxStack": 1,
  "foodValue": 0.0,
  "rottingMultiplier": 0.0,
  "printable": true,
  "description": "Wearing this patch is well worth the loss of depth perception."
}