{
  "itemKey": "eyepiles",
  "itemName": "Pile of Eyes",
  "iconFile": "eyepiles.png",
  "price": 0,
  "rarity": "Common",
  "category": "block",
  "maxStack": 0,
  "foodValue": 0.0,
  "rottingMultiplier": 0.0,
  "printable": true,
  "description": "A tumbling heap of squishy eyeballs."
}