{
  "itemKey": "fancysnowman",
  "itemName": "Fancy Snowman",
  "iconFile": "fancysnowman.png",
  "price": 0,
  "rarity": "Common",
  "category": "breakable",
  "maxStack": 0,
  "foodValue": 0.0,
  "rottingMultiplier": 0.0,
  "printable": false,
  "colonyTags": [
    "ice"
  ],
  "race": "generic",
  "description": "A stylishly dressed snowman.",
  "apexDescription": "An adorable snowman. How are you today?",
  "avianDescription": "A snowman. I\u0027m jealous of his hat.",
  "floranDescription": "Floran hunt sssnowman. Sssnowman not care. Sssnowman crumble.",
  "glitchDescription": "Jealous. Glitch bodies have too many corners for me to create an accurate snowglitch.",
  "humanDescription": "A snowman! Temptation to kick its head off... rising...",
  "hylotlDescription": "This snow effigy will one day melt, and return to the water from whence it came. It also has a cute carrot nose.",
  "novakidDescription": "Is this a snow sculpture? I\u0027m kind of jealous of the hat."
}