{
  "itemKey": "fawnfly",
  "itemName": "Fawnfly",
  "iconFile": "fawnfly.png",
  "price": 50,
  "rarity": "Common",
  "category": "bug",
  "maxStack": 0,
  "foodValue": 0.0,
  "rottingMultiplier": 0.0,
  "printable": false,
  "colonyTags": [
    "nature"
  ],
  "race": "generic",
  "description": "Its tawny wings make it hard to spot on trees."
}