{
  "itemKey": "featherybird",
  "itemName": "Decorative Bird",
  "iconFile": "featherybird.png",
  "price": 90,
  "rarity": "Common",
  "category": "decorative",
  "maxStack": 0,
  "foodValue": 0.0,
  "rottingMultiplier": 0.0,
  "printable": true,
  "colonyTags": [
    "avian",
    "aviantemple",
    "pretty"
  ],
  "race": "avian",
  "description": "Huge feathers are sprouting from this small bird statue.",
  "apexDescription": "Did the feathers come from a bird like this?",
  "avianDescription": "The Avians build these to decorate their temples.",
  "floranDescription": "Tasty looking birdie.",
  "glitchDescription": "Appreciative. A beautiful feathered statue.",
  "humanDescription": "A pretty bird statue.",
  "hylotlDescription": "The feathers are more beautiful than the statue.",
  "novakidDescription": "This statue has some pretty nice lookin\u0027 feathers."
}