{
  "itemKey": "featherfood",
  "itemName": "Feather Food",
  "iconFile": "featherfood.png",
  "price": 425,
  "rarity": "Uncommon",
  "category": "preparedFood",
  "maxStack": 1,
  "foodValue": 60.0,
  "rottingMultiplier": 1.0,
  "printable": true,
  "description": "A traditional Avian ceremonial food eaten at celebrations."
}