{
  "itemKey": "feathercrownseed",
  "itemName": "Feathercrown Seed",
  "iconFile": "feathercrownseed.png",
  "price": 30,
  "rarity": "Common",
  "category": "seed",
  "maxStack": 0,
  "foodValue": 0.0,
  "rottingMultiplier": 0.0,
  "printable": false,
  "colonyTags": [
    "nature"
  ],
  "description": "Feathers sprout from the top of the feathercrown and catch in the wind.",
  "apexDescription": "Looks like a carrot crossed with an Avian. Unusual to say the least.",
  "avianDescription": "An Avian delicacy. Only the finest of dishes contain feathercrown.",
  "floranDescription": "Looksss like a birdman, tassstes like dirt. Birdmen tassstier.",
  "glitchDescription": "Philosophical. Perhaps one day a feathercrown will develop sentience and take to the skies.",
  "humanDescription": "A carrot with a feather. Good for eating as well as tickling.",
  "hylotlDescription": "Feathers do not flourish underwater. Neither do feathercrowns.",
  "novakidDescription": "The fruit with a feathery surprise."
}