{
  "itemKey": "fedorahead",
  "itemName": "Fedora",
  "iconFile": "fedorahead.png",
  "price": 5000,
  "rarity": "Legendary",
  "category": "headwear",
  "maxStack": 1,
  "foodValue": 0.0,
  "rottingMultiplier": 0.0,
  "printable": true,
  "description": "The fedora - some wear it to look respectable, others disreputable."
}