{
  "itemKey": "firelordlegs",
  "itemName": "Fire Lord\u0027s Greaves",
  "iconFile": "firelordlegs.png",
  "price": 2500,
  "rarity": "Rare",
  "category": "legwear",
  "maxStack": 1,
  "foodValue": 0.0,
  "rottingMultiplier": 0.0,
  "printable": true,
  "description": "These greaves are said to allow the wearer to step through the hottest flames."
}