{
  "itemKey": "fishpie",
  "itemName": "Fish Pie",
  "iconFile": "fishpie.png",
  "price": 300,
  "rarity": "Rare",
  "category": "preparedFood",
  "maxStack": 1,
  "foodValue": 75.0,
  "rottingMultiplier": 1.0,
  "printable": true,
  "description": "Stargazy pie! Baked fish in sauce, topped with creamy mash."
}