{
  "itemKey": "fishinabone",
  "itemName": "Fish in a Bone",
  "iconFile": "fishinabone.png",
  "price": 225,
  "rarity": "Common",
  "category": "preparedFood",
  "maxStack": 1,
  "foodValue": 40.0,
  "rottingMultiplier": 1.0,
  "printable": true,
  "description": "A whole fish shoved haphazardly inside a boneboo."
}