{
  "itemKey": "fishingreellong",
  "itemName": "High Capacity Reel",
  "iconFile": "fishingreellong.png",
  "price": 500,
  "rarity": "Uncommon",
  "category": "fishingReel",
  "maxStack": 0,
  "foodValue": 0.0,
  "rottingMultiplier": 0.0,
  "printable": true,
  "description": "A reel with a larger spool for a longer line."
}