{
  "itemKey": "fishfossil",
  "itemName": "Fish Fossil",
  "iconFile": "fishfossil.png",
  "price": 75,
  "rarity": "Uncommon",
  "category": "smallFossil",
  "maxStack": 0,
  "foodValue": 0.0,
  "rottingMultiplier": 0.0,
  "printable": true,
  "race": "generic",
  "description": "A fossilised fish."
}