{
  "itemKey": "fishingreelfast",
  "itemName": "High Speed Reel",
  "iconFile": "fishingreelfast.png",
  "price": 500,
  "rarity": "Uncommon",
  "category": "fishingReel",
  "maxStack": 0,
  "foodValue": 0.0,
  "rottingMultiplier": 0.0,
  "printable": true,
  "description": "A reel that winds faster when not under load."
}