{
  "itemKey": "fishdumplings",
  "itemName": "Fish Dumplings",
  "iconFile": "fishdumplings.png",
  "price": 75,
  "rarity": "Common",
  "category": "preparedFood",
  "maxStack": 1,
  "foodValue": 30.0,
  "rottingMultiplier": 1.0,
  "printable": true,
  "description": "Simple fish dumplings, steamed and lightly seasoned."
}