{
  "itemKey": "flagnovakid",
  "itemName": "Novakid Flag",
  "iconFile": "flagnovakid.png",
  "price": 70,
  "rarity": "Common",
  "category": "teleportMarker",
  "maxStack": 0,
  "foodValue": 0.0,
  "rottingMultiplier": 0.0,
  "printable": false,
  "colonyTags": [
    "novakid"
  ],
  "race": "novakid",
  "description": "The Novakid flag. Use ^green;[E]^white; to bookmark a teleportation location.",
  "apexDescription": "A Novakid flag. I can use this as a waypoint for teleportation.",
  "avianDescription": "This Novakid flag can be bookmarked as a destination for my ship teleporter.",
  "floranDescription": "Novakid flag makess good point to teleport back to ussing teleporter!",
  "glitchDescription": "Observant. A small locator module attached to this Novakid flag allows it to be bookmarked for teleportation.",
  "humanDescription": "This Novakid flag can be saved as a location for my teleporter. Then I can return to it at any time.",
  "hylotlDescription": "This Novakid flag can act as a way point, enabling me to return to this point using a teleporter.",
  "novakidDescription": "I can bookmark this Novakid flag for quick teleportin\u0027."
}