{
  "itemKey": "flaghylotl",
  "itemName": "Hylotl Flag",
  "iconFile": "flaghylotl.png",
  "price": 70,
  "rarity": "Common",
  "category": "teleportMarker",
  "maxStack": 0,
  "foodValue": 0.0,
  "rottingMultiplier": 0.0,
  "printable": false,
  "colonyTags": [
    "hylotl"
  ],
  "race": "hylotl",
  "description": "The Hylotl flag. Use ^green;[E]^white; to bookmark a teleportation location.",
  "apexDescription": "A Hylotl flag. I can use this as a waypoint for teleportation.",
  "avianDescription": "This Hylotl flag can be bookmarked as a destination for my ship teleporter.",
  "floranDescription": "Hylotl flag makess good point to teleport back to ussing teleporter!",
  "glitchDescription": "Observant. A small locator module attached to this Hylotl flag allows it to be bookmarked for teleportation.",
  "humanDescription": "This Hylotl flag can be saved as a location for my teleporter. Then I can return to it at any time.",
  "hylotlDescription": "This Hylotl flag can act as a way point, enabling me to return to this point using a teleporter.",
  "novakidDescription": "I can bookmark this Hylotl flag for quick teleportin\u0027."
}