{
  "itemKey": "flametrap",
  "itemName": "Avian Flame Trap",
  "iconFile": "flametrap.png",
  "price": 200,
  "rarity": "Common",
  "category": "trap",
  "maxStack": 0,
  "foodValue": 0.0,
  "rottingMultiplier": 0.0,
  "printable": false,
  "colonyTags": [
    "avian",
    "aviantemple",
    "evil"
  ],
  "race": "avian",
  "description": "A flame trap designed to deter invaders.",
  "apexDescription": "A flame trap, definitely one to avoid.",
  "avianDescription": "Ouch! Flames and feathers don\u0027t mix!",
  "floranDescription": "Fire trap is Floran\u0027s worssst enemy!",
  "glitchDescription": "Observant. It\u0027s just a little flame trap, nothing that can\u0027t be overcome.",
  "humanDescription": "A trusty, reliable flame trap.",
  "hylotlDescription": "The swift warrior fears not the flame.",
  "novakidDescription": "Simple, yet deadly. My favourite kind."
}