{
  "itemKey": "flamethrowerblade",
  "itemName": "Flamethrower Blade",
  "iconFile": "flamethrowerblade.png",
  "price": 0,
  "rarity": "Legendary",
  "category": "uniqueWeapon",
  "maxStack": 1,
  "foodValue": 0.0,
  "rottingMultiplier": 0.0,
  "printable": true,
  "description": "It\u0027s a flamethrower built to look like a sword."
}