{
  "itemKey": "flashlight",
  "itemName": "Flashlight",
  "iconFile": "flashlight.png",
  "price": 100,
  "rarity": "Uncommon",
  "category": "Tool",
  "maxStack": 1,
  "foodValue": 0.0,
  "rottingMultiplier": 0.0,
  "printable": true,
  "description": "A handy flashlight!"
}