{
  "itemKey": "fleshchair",
  "itemName": "Flesh Chair",
  "iconFile": "fleshchair.png",
  "price": 75,
  "rarity": "Common",
  "category": "furniture",
  "maxStack": 0,
  "foodValue": 0.0,
  "rottingMultiplier": 0.0,
  "printable": false,
  "colonyTags": [
    "flesh",
    "odd"
  ],
  "race": "generic",
  "description": "A fleshy chair. About as gross as it sounds.",
  "apexDescription": "I have no words.",
  "avianDescription": "What a vile seat.",
  "floranDescription": "Floran not sssure if should sssit down or ssstab.",
  "glitchDescription": "Hesitant. Sitting here would be disconcerting.",
  "humanDescription": "Why am I so tempted to try it out?",
  "hylotlDescription": "Vulgar.",
  "novakidDescription": "I ain\u0027t keen to touch it let alone sit on it."
}