{
  "itemKey": "fleshbush5",
  "itemName": "Flesh Bush",
  "iconFile": "fleshbush5.png",
  "price": 0,
  "rarity": "Common",
  "category": "breakable",
  "maxStack": 0,
  "foodValue": 0.0,
  "rottingMultiplier": 0.0,
  "printable": false,
  "colonyTags": [
    "flesh"
  ],
  "race": "generic",
  "description": "A fleshy bush. Squishy.",
  "apexDescription": "A grotesque bush.",
  "avianDescription": "Not something I\u0027d want in my garden.",
  "floranDescription": "Floran feel like Floran should ssstab bush.",
  "glitchDescription": "Uncomfortable. This bush is rather vile.",
  "humanDescription": "Is it a bush or a growth?",
  "hylotlDescription": "Sometimes nature repulses even myself.",
  "novakidDescription": "This is just plain gruesome."
}