{
  "itemKey": "floorpipe1",
  "itemName": "Floor Pipe",
  "iconFile": "floorpipe1.png",
  "price": 145,
  "rarity": "Common",
  "category": "decorative",
  "maxStack": 0,
  "foodValue": 0.0,
  "rottingMultiplier": 0.0,
  "printable": true,
  "colonyTags": [
    "mechanical"
  ],
  "race": "generic",
  "description": "A pipe that comes out from the floor.",
  "apexDescription": "This pipe looks sturdy.",
  "avianDescription": "I wonder who built this pipe.",
  "floranDescription": "Strange pipe ssstructure.",
  "glitchDescription": "Impressed. What a handsome pipe.",
  "humanDescription": "These smoke puffs smell funny.",
  "hylotlDescription": "Like clouds fleeing captivation.",
  "novakidDescription": "This pipe smokes like a chimney."
}