{
  "itemKey": "floranleaflegs",
  "itemName": "Leaf Legs",
  "iconFile": "floranleaflegs.png",
  "price": 35,
  "rarity": "Common",
  "category": "legwear",
  "maxStack": 1,
  "foodValue": 0.0,
  "rottingMultiplier": 0.0,
  "printable": true,
  "description": "The leaf censors stuff children shouldn\u0027t see!"
}