{
  "itemKey": "floranhunterpainting",
  "itemName": "Primitive Hunter Art",
  "iconFile": "floranhunterpainting.png",
  "price": 350,
  "rarity": "Rare",
  "category": "decorative",
  "maxStack": 0,
  "foodValue": 0.0,
  "rottingMultiplier": 0.0,
  "printable": false,
  "colonyTags": [
    "floran",
    "floranvillage",
    "pretty"
  ],
  "race": "floran",
  "description": "A crude painting of a Floran hunter wielding a spear.",
  "apexDescription": "This appears to be a painting of Floran in a hunt.",
  "avianDescription": "This cave painting appears to show a Floran with a spear during a hunt.",
  "floranDescription": "Floran in painting iss running fasst. Musst be hunting.",
  "glitchDescription": "Intrigued. This picture crudely depicts what appears to be a Floran mid-hunt.",
  "humanDescription": "Whichever Floran painted this picture of a hunter needs to take some art classes.",
  "hylotlDescription": "Floran art couldn\u0027t be further from Hylotl art themes. This picture shows a hunter or warrior.",
  "novakidDescription": "This here paintin\u0027 shows what I think is a warrior runnin\u0027 with a spear in hand."
}