{
  "itemKey": "floranbonerack",
  "itemName": "Bone Rack",
  "iconFile": "floranbonerack.png",
  "price": 70,
  "rarity": "Common",
  "category": "decorative",
  "maxStack": 0,
  "foodValue": 0.0,
  "rottingMultiplier": 0.0,
  "printable": true,
  "colonyTags": [
    "floran",
    "floranvillage",
    "pretty"
  ],
  "race": "floran",
  "description": "A rack of 3 unidentified bones.",
  "apexDescription": "These bones sit here like tools. But what could they be used for?",
  "avianDescription": "Are these weapons? Tools? Trophies?",
  "floranDescription": "Bonesss here ussed for polishing other boness.",
  "glitchDescription": "Impressed. The bones here appear to have been used as tools.",
  "humanDescription": "Are these bones weapons or tools?",
  "hylotlDescription": "To hang bones like tools fills me with disgust.",
  "novakidDescription": "Displaying bones like this gives me the creeps."
}