{
  "itemKey": "floranfossil3",
  "itemName": "Floran Legs",
  "iconFile": "floranfossil3.png",
  "price": 0,
  "rarity": "Uncommon",
  "category": "mediumFossil",
  "maxStack": 0,
  "foodValue": 0.0,
  "rottingMultiplier": 0.0,
  "printable": true,
  "race": "floran",
  "description": "A fossilised pair of Floran legs"
}