{
  "itemKey": "florandesk",
  "itemName": "Primitive Desk",
  "iconFile": "florandesk.png",
  "price": 100,
  "rarity": "Common",
  "category": "furniture",
  "maxStack": 0,
  "foodValue": 0.0,
  "rottingMultiplier": 0.0,
  "printable": true,
  "colonyTags": [
    "floran",
    "floranvillage",
    "storage",
    "commerce"
  ],
  "race": "floran",
  "description": "A desk, probably belonging to the greenfinger of a Floran tribe.",
  "apexDescription": "A Floran desk. What work do Florans do that requires a desk?",
  "avianDescription": "I had never pictured a Floran working at a desk until now.",
  "floranDescription": "Floran usse dessk to plan next hunt. No bone in Floran dessk. Floran musst not be disstracted.",
  "glitchDescription": "Indifferent. A simple wooden desk.",
  "humanDescription": "This desk doesn\u0027t seem to be made from any bone, rare for Floran furniture.",
  "hylotlDescription": "Floran furniture and no bones in sight? And a writing desk at that! I am seeing things.",
  "novakidDescription": "Would a Floran desk be of much use to anyone other than a greenfinger?"
}