{
  "itemKey": "floranteleporter",
  "itemName": "Teleporter",
  "iconFile": "floranteleporter.png",
  "price": 0,
  "rarity": "Common",
  "category": "teleporter",
  "maxStack": 0,
  "foodValue": 0.0,
  "rottingMultiplier": 0.0,
  "printable": false,
  "colonyTags": [
    "floran"
  ],
  "race": "floran",
  "description": "Trusty teleporter, what would we do without you?",
  "apexDescription": "The ship\u0027s teleporter. Teleporting feels like riding a rollercoaster at the speed of light.",
  "avianDescription": "The teleporter! Teleporting feels like flying.",
  "floranDescription": "Ship teleporter. Floran feel confusssed during teleport.",
  "glitchDescription": "Smug. A teleporter. I am able to enter a sleep mode during the teleport process.",
  "humanDescription": "The teleporter! Teleporting is such a rush.",
  "hylotlDescription": "A teleporter. Teleporting feels like diving into the ocean from a mountain top.",
  "novakidDescription": "Ship\u0027s teleporter. Let\u0027s take her for a spin!"
}