{
  "itemKey": "florancorner",
  "itemName": "Leather Support",
  "iconFile": "florancorner.png",
  "price": 55,
  "rarity": "Common",
  "category": "decorative",
  "maxStack": 0,
  "foodValue": 0.0,
  "rottingMultiplier": 0.0,
  "printable": true,
  "colonyTags": [
    "floran",
    "floranvillage",
    "pretty"
  ],
  "race": "floran",
  "description": "A piece of thin leather is stretched from the ceiling.",
  "apexDescription": "A piece of stretched leather.",
  "avianDescription": "It looks like stretched leather. I\u0027m unsure of its purpose.",
  "floranDescription": "Floran hang leathersss to create pleassant sscent.",
  "glitchDescription": "Confused. Stretched leather. Is it decorative?",
  "humanDescription": "It looks like a stretched piece of leather. It has a typical leathery smell.",
  "hylotlDescription": "Decorative skin...",
  "novakidDescription": "This looks to me like stretched leather, if I\u0027m not mistaken."
}