{
  "itemKey": "florantier5shead",
  "itemName": "Gatherer\u0027s Helm",
  "iconFile": "florantier5shead.png",
  "price": 2880,
  "rarity": "Rare",
  "category": "headarmour",
  "maxStack": 1,
  "foodValue": 0.0,
  "rottingMultiplier": 0.0,
  "printable": true,
  "description": "A helm made to be worn in the shadows."
}