{
  "itemKey": "florantier6mpants",
  "itemName": "Shaman\u0027s Skirt",
  "iconFile": "florantier6mpants.png",
  "price": 2560,
  "rarity": "Legendary",
  "category": "legarmour",
  "maxStack": 1,
  "foodValue": 0.0,
  "rottingMultiplier": 0.0,
  "printable": true,
  "description": "This skirt is deceptively strong and extremely flexible."
}