{
  "itemKey": "floranfurnivourchest",
  "itemName": "Furnivour Chest",
  "iconFile": "floranfurnivourchest.png",
  "price": 75,
  "rarity": "Common",
  "category": "chestwear",
  "maxStack": 1,
  "foodValue": 0.0,
  "rottingMultiplier": 0.0,
  "printable": true,
  "description": "A proud display of animal fur, claimed from a recent hunt."
}