{
  "itemKey": "floranbonetable1",
  "itemName": "Large Primitive Table",
  "iconFile": "floranbonetable1.png",
  "price": 105,
  "rarity": "Common",
  "category": "furniture",
  "maxStack": 0,
  "foodValue": 0.0,
  "rottingMultiplier": 0.0,
  "printable": true,
  "colonyTags": [
    "floran",
    "floranvillage",
    "commerce"
  ],
  "race": "floran",
  "description": "This entire table appears to have been carved from a single, enormous bone.",
  "apexDescription": "A table made of bones. The hygiene standard here is questionable.",
  "avianDescription": "The Floran have peculiar taste in tables.",
  "floranDescription": "Sssometimes, if Floran run out of food, Floran eat table.",
  "glitchDescription": "Surprised. This table appears to have been heat treated kill bacteria.",
  "humanDescription": "This bone table is smooth and cold.",
  "hylotlDescription": "To eat at such a table would turn my stomach.",
  "novakidDescription": "I ain\u0027t a fan of bone furniture, but it seems sturdy enough."
}