{
  "itemKey": "florantier4head",
  "itemName": "Hunter\u0027s Hood",
  "iconFile": "florantier4head.png",
  "price": 2400,
  "rarity": "Uncommon",
  "category": "headarmour",
  "maxStack": 1,
  "foodValue": 0.0,
  "rottingMultiplier": 0.0,
  "printable": true,
  "description": "The hunter\u0027s hood is built to be light, allowing a Floran to track their prey many miles ."
}