{
  "itemKey": "florantier5mhead",
  "itemName": "Cannibal\u0027s Mask",
  "iconFile": "florantier5mhead.png",
  "price": 2880,
  "rarity": "Rare",
  "category": "headarmour",
  "maxStack": 1,
  "foodValue": 0.0,
  "rottingMultiplier": 0.0,
  "printable": true,
  "description": "Cursed with a friendly and appealing face? Cover it up with this horrifying mask."
}