{
  "itemKey": "florantoilet",
  "itemName": "Primitive Toilet",
  "iconFile": "florantoilet.png",
  "price": 75,
  "rarity": "Common",
  "category": "furniture",
  "maxStack": 0,
  "foodValue": 0.0,
  "rottingMultiplier": 0.0,
  "printable": true,
  "colonyTags": [
    "floran",
    "floranvillage"
  ],
  "race": "floran",
  "description": "This toilet doesn\u0027t look very leak-proof.",
  "apexDescription": "It appears to be some kind of haphazard toilet.",
  "avianDescription": "It\u0027s hard to imagine a Floran using the bathroom.",
  "floranDescription": "Floran doessn\u0027t need fancy toiletss.",
  "glitchDescription": "Suspicious. This toilet seems impossible to keep clean due to its design.",
  "humanDescription": "A toilet. It doesn\u0027t look very clean.",
  "hylotlDescription": "I am amazed the Floran are civilised enough to build toilets.",
  "novakidDescription": "This toilet would fit right into an outhouse."
}