{
  "itemKey": "floranpainting3",
  "itemName": "Primitive Chart Art",
  "iconFile": "floranpainting3.png",
  "price": 50,
  "rarity": "Common",
  "category": "decorative",
  "maxStack": 0,
  "foodValue": 0.0,
  "rottingMultiplier": 0.0,
  "printable": true,
  "colonyTags": [
    "floran",
    "floranvillage",
    "pretty"
  ],
  "race": "floran",
  "description": "It appears to be a tally chart.",
  "apexDescription": "An unlabelled tally chart. There are lots of marks here.",
  "avianDescription": "A chart that appears to be used for counting.",
  "floranDescription": "A Floran recorded killss on paper. Floran memory not so good.",
  "glitchDescription": "Unimpressed. A simple base 10 numbering system.",
  "humanDescription": "An old tally chart. I use these sometimes.",
  "hylotlDescription": "A tally chart. I hope these marks aren\u0027t kills.",
  "novakidDescription": "Some kinda chart, maybe it\u0027s a huntin\u0027 record."
}