{
  "itemKey": "floranshiplockerTier0",
  "itemName": "Shiplocker",
  "iconFile": "floranshiplockerTier0.png",
  "price": 0,
  "rarity": "Common",
  "category": "decorative",
  "maxStack": 0,
  "foodValue": 0.0,
  "rottingMultiplier": 0.0,
  "printable": false,
  "colonyTags": [
    "floran",
    "storage"
  ],
  "race": "floran",
  "description": "A locker. Store some stuff, why don\u0027t you?",
  "apexDescription": "A broken storage system. Definitely not of Floran origin.",
  "avianDescription": "Broken storage locker. I don\u0027t believe the Floran made this unit.",
  "floranDescription": "Floran sstore many usseful thingss in here for exploring universse, when it isss fixed.",
  "glitchDescription": "Distressed. This ship\u0027s storage system is malfunctioning.",
  "humanDescription": "A storage locker. It doesn\u0027t seem to be working.",
  "hylotlDescription": "Storage. It\u0027s not currently powered.",
  "novakidDescription": "A locker. Ain\u0027t much use \u0027til it\u0027s fixed."
}