{
  "itemKey": "floranopenpod2",
  "itemName": "Open Fungal Pod",
  "iconFile": "floranopenpod2.png",
  "price": 125,
  "rarity": "Common",
  "category": "decorative",
  "maxStack": 0,
  "foodValue": 0.0,
  "rottingMultiplier": 0.0,
  "printable": true,
  "colonyTags": [
    "agaran"
  ],
  "race": "floran",
  "description": "Some kind of bizarre pod. Looks like it\u0027s hatched.",
  "apexDescription": "What grew in here?",
  "avianDescription": "Something seems to have hatched from this pod.",
  "floranDescription": "Floran sssniff odd pod. Sssmells familiar. Floran ssscared.",
  "glitchDescription": "Analyse. This pod is of Floran origin, and there\u0027s nothing inside.",
  "humanDescription": "I don\u0027t want to meet what crawled out of here.",
  "hylotlDescription": "I\u0027m ready for you, foul beast.",
  "novakidDescription": "I\u0027m ready for ya, yer varmint."
}