{
  "itemKey": "floranpod3",
  "itemName": "Fungal Pod",
  "iconFile": "floranpod3.png",
  "price": 170,
  "rarity": "Common",
  "category": "decorative",
  "maxStack": 0,
  "foodValue": 0.0,
  "rottingMultiplier": 0.0,
  "printable": true,
  "colonyTags": [
    "agaran"
  ],
  "race": "floran",
  "description": "Some kind of bizarre pod. Something is growing out of it.",
  "apexDescription": "What are these vile growths?",
  "avianDescription": "Something seems to be gestating in this pod.",
  "floranDescription": "Floran sssniff odd pod. Sssmells familiar. Floran ssscared.",
  "glitchDescription": "Analyse. This pod is of Floran origin, but... something is amiss.",
  "humanDescription": "Eww, this is disgusting!",
  "hylotlDescription": "What new horrors have the Florans dreamed up this time?!",
  "novakidDescription": "Something mighty weird is going on here."
}