{
  "itemKey": "florancouch",
  "itemName": "Primitive Couch",
  "iconFile": "florancouch.png",
  "price": 150,
  "rarity": "Common",
  "category": "furniture",
  "maxStack": 0,
  "foodValue": 0.0,
  "rottingMultiplier": 0.0,
  "printable": true,
  "colonyTags": [
    "floran",
    "floranvillage"
  ],
  "race": "floran",
  "description": "A couch made of leather hide and large bones.",
  "apexDescription": "A couch built from bones and leather.",
  "avianDescription": "These bones are as soft as they are sharp.",
  "floranDescription": "Floran with large kill make bone couch. Other Floran sssit on couch. Admire Floran\u0027s kill.",
  "glitchDescription": "Disgusted. There are blood stains on the leather.",
  "humanDescription": "This couch looks like it would belong to a particularly bloodthirsty Floran.",
  "hylotlDescription": "To picture Floran sitting upon the bones of a living thing fills me with disgust.",
  "novakidDescription": "I just can\u0027t see how anyone can relax on a couch this pointy."
}