{
  "itemKey": "florantier3pants",
  "itemName": "Nomad\u0027s Trousers",
  "iconFile": "florantier3pants.png",
  "price": 1280,
  "rarity": "Uncommon",
  "category": "legarmour",
  "maxStack": 1,
  "foodValue": 0.0,
  "rottingMultiplier": 0.0,
  "printable": true,
  "description": "Leaf covered leg armour that is at one with the forest."
}