{
  "itemKey": "floranstoragelocker",
  "itemName": "Floran Storage Locker",
  "iconFile": "floranstoragelocker.png",
  "price": 180,
  "rarity": "Rare",
  "category": "storage",
  "maxStack": 0,
  "foodValue": 0.0,
  "rottingMultiplier": 0.0,
  "printable": false,
  "colonyTags": [
    "floran",
    "storage"
  ],
  "race": "floran",
  "description": "A nice, spacious, wall-mounted storage solution.",
  "apexDescription": "A locker made from metal.",
  "avianDescription": "A place to keep your things.",
  "floranDescription": "Floran can ssstuff things into locker.",
  "glitchDescription": "Neutral. A metallic storage locker.",
  "humanDescription": "It\u0027s an industrial looking storage locker.",
  "hylotlDescription": "Somewhere to store personal belongings.",
  "novakidDescription": "A locker in the wall."
}