{
  "itemKey": "floranpeltlegs",
  "itemName": "Pelt Legs",
  "iconFile": "floranpeltlegs.png",
  "price": 35,
  "rarity": "Common",
  "category": "legwear",
  "maxStack": 1,
  "foodValue": 0.0,
  "rottingMultiplier": 0.0,
  "printable": true,
  "description": "This loincloth is bound with strong vines."
}