{
  "itemKey": "florantier1chest",
  "itemName": "Sprout\u0027s Chestguard",
  "iconFile": "florantier1chest.png",
  "price": 800,
  "rarity": "Common",
  "category": "chestarmour",
  "maxStack": 1,
  "foodValue": 0.0,
  "rottingMultiplier": 0.0,
  "printable": true,
  "description": "It\u0027s rare to see a sprout\u0027s chestguard not covered in dents, blood and fleshy gobbets."
}