{
  "itemKey": "florancabinet3",
  "itemName": "Huge Primitive Cabinet",
  "iconFile": "florancabinet3.png",
  "price": 240,
  "rarity": "Common",
  "category": "storage",
  "maxStack": 0,
  "foodValue": 0.0,
  "rottingMultiplier": 0.0,
  "printable": true,
  "colonyTags": [
    "floran",
    "floranvillage",
    "storage"
  ],
  "race": "floran",
  "description": "The cabinet made of leather stretched between four large tusks.",
  "apexDescription": "A cabinet made of tanned hide and tusks.",
  "avianDescription": "This cabinet is made of stretched leather. It flexes when pressure is applied.",
  "floranDescription": "Floran likess leather cabinet. Cabinet ssstretch when full.",
  "glitchDescription": "Inspired. An innovative design, the leather stretches if necessary.",
  "humanDescription": "The cupboard itself is made of leather. A cool idea.",
  "hylotlDescription": "The innovative design of this cabinet is spoiled by butchery.",
  "novakidDescription": "Those are some pretty impressive tusks for a cabinet."
}