{
  "itemKey": "floranleafchest",
  "itemName": "Leaf Chest",
  "iconFile": "floranleafchest.png",
  "price": 75,
  "rarity": "Common",
  "category": "chestwear",
  "maxStack": 1,
  "foodValue": 0.0,
  "rottingMultiplier": 0.0,
  "printable": true,
  "description": "This shirt is covered in large tough leaves."
}