{
  "itemKey": "florancabinet1",
  "itemName": "Large Primitive Cabinet",
  "iconFile": "florancabinet1.png",
  "price": 130,
  "rarity": "Common",
  "category": "storage",
  "maxStack": 0,
  "foodValue": 0.0,
  "rottingMultiplier": 0.0,
  "printable": true,
  "colonyTags": [
    "floran",
    "floranvillage",
    "storage"
  ],
  "race": "floran",
  "description": "A cabinet adorned with huge, sharp fangs.",
  "apexDescription": "What sits inside a Floran cabinet? I\u0027m afraid to find out.",
  "avianDescription": "Those are either large teeth or sharp bones atop this cabinet.",
  "floranDescription": "Floran decorate furniture with fangss. Sharper the better.",
  "glitchDescription": "Frightened. The fangs on this cabinet are razor sharp.",
  "humanDescription": "This cabinet has fangs.",
  "hylotlDescription": "The fangs of some poor creature adorn this cabinet.",
  "novakidDescription": "The Floran sure do like pointy furniture."
}