{
  "itemKey": "floranbookcase",
  "itemName": "Primitive Bookcase",
  "iconFile": "floranbookcase.png",
  "price": 145,
  "rarity": "Common",
  "category": "decorative",
  "maxStack": 0,
  "foodValue": 0.0,
  "rottingMultiplier": 0.0,
  "printable": true,
  "colonyTags": [
    "floran",
    "floranvillage",
    "knowledge",
    "storage"
  ],
  "race": "floran",
  "description": "A bookcase made from the remains of Floran prey.",
  "apexDescription": "Is there anything the Floran don\u0027t decorate with bones?",
  "avianDescription": "I can\u0027t imagine a Floran writing a book.",
  "floranDescription": "Floran don\u0027t read bookss. Only Greenfinger use bookcase.",
  "glitchDescription": "Observant. This bookcase has not been touched in a long time.",
  "humanDescription": "The Floran don\u0027t appear to be heavy readers.",
  "hylotlDescription": "The Floran seem to incorporate death into every item, even this bookcase.",
  "novakidDescription": "I never had the Floran down as big readers. I\u0027m surprised they\u0027d need a bookcase."
}