{
  "itemKey": "flowerychest",
  "itemName": "Flowery Shirt",
  "iconFile": "flowerychest.png",
  "price": 2500,
  "rarity": "Rare",
  "category": "chestwear",
  "maxStack": 1,
  "foodValue": 0.0,
  "rottingMultiplier": 0.0,
  "printable": true,
  "description": "A flowery shirt, it smells lovely."
}