{
  "itemKey": "floweryblock",
  "itemName": "Flower Block",
  "iconFile": "floweryblock.png",
  "price": 0,
  "rarity": "Common",
  "category": "block",
  "maxStack": 0,
  "foodValue": 0.0,
  "rottingMultiplier": 0.0,
  "printable": true,
  "description": "A fragrant bundle made of flowers and leaves."
}