{
  "itemKey": "flowerspring",
  "itemName": "Spring Flower",
  "iconFile": "flowerspring.png",
  "price": 0,
  "rarity": "Common",
  "category": "seed",
  "maxStack": 0,
  "foodValue": 0.0,
  "rottingMultiplier": 0.0,
  "printable": false,
  "colonyTags": [
    "nature"
  ],
  "description": "A sweetly scented spring flower.",
  "apexDescription": "A spring flower.",
  "avianDescription": "A pretty spring flower.",
  "floranDescription": "Floran can ussse this flower to make clothes different colourss.",
  "glitchDescription": "Gleeful. A pretty spring flower.",
  "humanDescription": "A spring flower, the climate must be termperate for it to grow.",
  "hylotlDescription": "A graceful spring flower.",
  "novakidDescription": "A handful of this flower\u0027s petals is all I need to make a dye!"
}