{
  "itemKey": "flowerlamp",
  "itemName": "Hanging Flower Lamp",
  "iconFile": "flowerlamp.png",
  "price": 50,
  "rarity": "Common",
  "category": "light",
  "maxStack": 0,
  "foodValue": 0.0,
  "rottingMultiplier": 0.0,
  "printable": false,
  "colonyTags": [
    "spring",
    "nature",
    "light"
  ],
  "race": "generic",
  "description": "A blue flower lamp.",
  "apexDescription": "A pleasant light.",
  "avianDescription": "This light creates a relaxing atmosphere.",
  "floranDescription": "Flowersss are lightsss",
  "glitchDescription": "Relaxed. The Glitch enjoy flowers and light.",
  "humanDescription": "A lamp in a flower, ingenious!",
  "hylotlDescription": "A lamp made from a blue flower.",
  "novakidDescription": "A pretty little lamp. I like it."
}