{
  "itemKey": "floweryhead",
  "itemName": "Flowery Mask",
  "iconFile": "floweryhead.png",
  "price": 2500,
  "rarity": "Rare",
  "category": "headwear",
  "maxStack": 1,
  "foodValue": 0.0,
  "rottingMultiplier": 0.0,
  "printable": true,
  "description": "I better make sure to keep this mask watered."
}