{
  "itemKey": "flowerbox",
  "itemName": "Strange Flower Box",
  "iconFile": "flowerbox.png",
  "price": 65,
  "rarity": "Common",
  "category": "furniture",
  "maxStack": 0,
  "foodValue": 0.0,
  "rottingMultiplier": 0.0,
  "printable": false,
  "colonyTags": [
    "spring",
    "nature",
    "pretty"
  ],
  "race": "generic",
  "description": "Strange oversized flowers, you can hide inside!",
  "apexDescription": "Caution, someone could be hidden behind these flowers.",
  "avianDescription": "These flowers looks comfortable.",
  "floranDescription": "Florans like to hide in flowersss",
  "glitchDescription": "Curious. It might be a Floran bed.",
  "humanDescription": "A good place to play Hide and Seek.",
  "hylotlDescription": "Big strange flowers. I could try hiding behind these.",
  "novakidDescription": "In a sticky situation, one might use this flower box as a hidin\u0027 place."
}