{
  "itemKey": "flowerygrassseeds",
  "itemName": "Flowery Grass Seeds",
  "iconFile": "flowerygrassseeds.png",
  "price": 20,
  "rarity": "Common",
  "category": "throwableItem",
  "maxStack": 0,
  "foodValue": 0.0,
  "rottingMultiplier": 0.0,
  "printable": true,
  "description": "Toss these on some damp tilled soil to grow flowery grass!"
}