{
  "itemKey": "flowerred",
  "itemName": "Red Flower",
  "iconFile": "flowerred.png",
  "price": 0,
  "rarity": "Common",
  "category": "seed",
  "maxStack": 0,
  "foodValue": 0.0,
  "rottingMultiplier": 0.0,
  "printable": false,
  "colonyTags": [
    "nature"
  ],
  "description": "A flower with bright red petals. Useful for making dye.",
  "apexDescription": "A red flower, used to make red dye. The best colour!",
  "avianDescription": "This flower\u0027s petals can be used to make red dye, a versatile and powerful colour.",
  "floranDescription": "Thiss flower is a deep red. Remindss Floran of a friend.",
  "glitchDescription": "Respectful. Red flower petals are used in the creation of red dye, a royal colour.",
  "humanDescription": "From this tiny flower I can make a rich red dye.",
  "hylotlDescription": "A red flower. Vibrant, rich, beautiful.",
  "novakidDescription": "A red flower, I always wanna stop n\u0027 smell \u0027em. I wonder why?"
}