{
  "itemKey": "flute",
  "itemName": "Flute",
  "iconFile": "flute.png",
  "price": 3000,
  "rarity": "Common",
  "category": "musicalInstrument",
  "maxStack": 1,
  "foodValue": 0.0,
  "rottingMultiplier": 0.0,
  "printable": true,
  "description": "A flute. But is it magic?"
}