{
  "itemKey": "foundrybellow",
  "itemName": "Foundry Bellows",
  "iconFile": "foundrybellow.png",
  "price": 210,
  "rarity": "Common",
  "category": "decorative",
  "maxStack": 0,
  "foodValue": 0.0,
  "rottingMultiplier": 0.0,
  "printable": true,
  "colonyTags": [
    "foundry",
    "mechanical"
  ],
  "race": "generic",
  "description": "An industrial sized set of bellows from a foundry.",
  "apexDescription": "Industrial sized bellows.",
  "avianDescription": "A huge set of bellows.",
  "floranDescription": "Great big bellowsss.",
  "glitchDescription": "Surprised. Never have I seen bellows so large.",
  "humanDescription": "These must be pair of foundry bellows.",
  "hylotlDescription": "Large, unsightly machinery.",
  "novakidDescription": "Big bellows."
}