{
  "itemKey": "foundrygoggleshead",
  "itemName": "Foundry Goggles",
  "iconFile": "foundrygoggleshead.png",
  "price": 2500,
  "rarity": "Rare",
  "category": "headwear",
  "maxStack": 1,
  "foodValue": 0.0,
  "rottingMultiplier": 0.0,
  "printable": true,
  "description": "Big goggles to protect your small eyes."
}