{
  "itemKey": "foundryhardhathead",
  "itemName": "Foundry Hard Hat",
  "iconFile": "foundryhardhathead.png",
  "price": 2500,
  "rarity": "Rare",
  "category": "headwear",
  "maxStack": 1,
  "foodValue": 0.0,
  "rottingMultiplier": 0.0,
  "printable": true,
  "description": "A bright safety helmet with massive goggles attached."
}