{
  "itemKey": "foundrydoor",
  "itemName": "Heavy Door",
  "iconFile": "foundrydoor.png",
  "price": 170,
  "rarity": "Common",
  "category": "door",
  "maxStack": 0,
  "foodValue": 0.0,
  "rottingMultiplier": 0.0,
  "printable": false,
  "colonyTags": [
    "foundry",
    "door"
  ],
  "race": "generic",
  "description": "A heavy metal door often used in foundries.",
  "apexDescription": "A heavy looking door.",
  "avianDescription": "I can barely push this door open, it\u0027s so heavy.",
  "floranDescription": "Floran ssslam door to make big ssound.",
  "glitchDescription": "Mischievous. I wonder if I could make a loud echo by slamming this heavy door...",
  "humanDescription": "A door with a porthole!",
  "hylotlDescription": "A door similar to those found under the ocean, heavy enough to be watertight.",
  "novakidDescription": "A heavy door with a handy porthole."
}