{
  "itemKey": "foundrytimer2s",
  "itemName": "Foundry Timer (2 Sec)",
  "iconFile": "foundrytimer2s.png",
  "price": 100,
  "rarity": "Common",
  "category": "wire",
  "maxStack": 0,
  "foodValue": 0.0,
  "rottingMultiplier": 0.0,
  "printable": true,
  "colonyTags": [
    "foundry",
    "wired"
  ],
  "race": "generic",
  "description": "\u003cA timer. For when you need time to get away.\u003e"
}