{
  "itemKey": "foundrylegs",
  "itemName": "Foundry Legs",
  "iconFile": "foundrylegs.png",
  "price": 2500,
  "rarity": "Rare",
  "category": "legwear",
  "maxStack": 1,
  "foodValue": 0.0,
  "rottingMultiplier": 0.0,
  "printable": true,
  "description": "Some fire resistant trousers for a foundry worker."
}