{
  "itemKey": "frogmerchant",
  "itemName": "Frog Merchant",
  "iconFile": "frogmerchant.png",
  "price": 1000,
  "rarity": "Common",
  "category": "crafting",
  "maxStack": 0,
  "foodValue": 0.0,
  "rottingMultiplier": 0.0,
  "printable": false,
  "colonyTags": [],
  "race": "generic",
  "description": "A frog merchant. What it really is, or what it wants, nobody knows.",
  "apexDescription": "A silent frog merchant. Unusual.",
  "avianDescription": "Who is this curious merchant?",
  "floranDescription": "Floran ssslightly ssscared by sssilent frog.",
  "glitchDescription": "Concerned. This frog seems unwilling to communicate.",
  "humanDescription": "If I kiss it, do you think it\u0027ll turn into a prince merchant?",
  "hylotlDescription": "This silent creature is not one of us.",
  "novakidDescription": "Don\u0027t see many frog merchants round these parts!"
}