{
  "itemKey": "froggmerchantchest",
  "itemName": "Frogg Chest",
  "iconFile": "froggmerchantchest.png",
  "price": 0,
  "rarity": "Common",
  "category": "chestwear",
  "maxStack": 1,
  "foodValue": 0.0,
  "rottingMultiplier": 0.0,
  "printable": true,
  "description": "A slimy chestpiece."
}