{
  "itemKey": "froggmerchanthead",
  "itemName": "Frogg Head",
  "iconFile": "froggmerchanthead.png",
  "price": 0,
  "rarity": "Common",
  "category": "headwear",
  "maxStack": 1,
  "foodValue": 0.0,
  "rottingMultiplier": 0.0,
  "printable": true,
  "description": "Somehow this mask keeps your head wet."
}