{
  "itemKey": "frogfurnishing",
  "itemName": "Frögg Furnishing",
  "iconFile": "frogfurnishing.png",
  "price": 0,
  "rarity": "Common",
  "category": "other",
  "maxStack": 0,
  "foodValue": 0.0,
  "rottingMultiplier": 0.0,
  "printable": false,
  "colonyTags": [
    "outpost",
    "commerce"
  ],
  "race": "generic",
  "description": "The finest furnishings from around the universe.",
  "apexDescription": "It\u0027s one of those frog merchants. This one\u0027s peddling furniture. ",
  "avianDescription": "Who is this curious merchant? His furnishings are lovely.",
  "floranDescription": "Floran ssslightly scared by silent frog.",
  "glitchDescription": "Impressed. This frog has some comfortable looking wares.",
  "humanDescription": "This strange amphibian peddles some rather nice furniture.",
  "hylotlDescription": "This creature has an impressive collection of furniture.",
  "novakidDescription": "Don\u0027t see many frog merchants round these parts!"
}