{
  "itemKey": "froggfossil2",
  "itemName": "Frogg Torso",
  "iconFile": "froggfossil2.png",
  "price": 0,
  "rarity": "Uncommon",
  "category": "mediumFossil",
  "maxStack": 0,
  "foodValue": 0.0,
  "rottingMultiplier": 0.0,
  "printable": true,
  "race": "frogg",
  "description": "A fossilised Frogg torso."
}