{
  "itemKey": "frontierdoor",
  "itemName": "Frontier Door",
  "iconFile": "frontierdoor.png",
  "price": 95,
  "rarity": "Common",
  "category": "door",
  "maxStack": 0,
  "foodValue": 0.0,
  "rottingMultiplier": 0.0,
  "printable": true,
  "colonyTags": [
    "door"
  ],
  "race": "novakid",
  "description": "A wooden door, emblazoned with an iron emblem on both sides.",
  "apexDescription": "This wood door has a large, strange symbol on it.",
  "avianDescription": "I wonder if the emblem on this door has meaning.",
  "floranDescription": "Thiss frontier door is dry and old.",
  "glitchDescription": "Impressed. The different materials come together in an aesthetically pleasing way.",
  "humanDescription": "This door has a very shiny handle. I like it!",
  "hylotlDescription": "The symbol on this door is not familiar to me.",
  "novakidDescription": "Ain\u0027t unusual to see doors like this in a frontier buildin\u0027."
}