{
  "itemKey": "frontiergramophone",
  "itemName": "Frontier Gramophone",
  "iconFile": "frontiergramophone.png",
  "price": 90,
  "rarity": "Common",
  "category": "decorative",
  "maxStack": 0,
  "foodValue": 0.0,
  "rottingMultiplier": 0.0,
  "printable": true,
  "colonyTags": [
    "novakid",
    "novakidvillage",
    "musical"
  ],
  "race": "novakid",
  "description": "A charming record player, playing an old tune.",
  "apexDescription": "The music from this record player inspires something within me. It is an exciting feeling.",
  "avianDescription": "This simple device produces music by turning a disc. How fascinating!",
  "floranDescription": "Floran likesss music, hides soundsss of Floran being sssneaky.",
  "glitchDescription": "Intrigued. This device turns a disc that inexplicably produces pleasant music.",
  "humanDescription": "An old timey gramophone! Gather round, children!",
  "hylotlDescription": "This music player is surprisingly functional for how simple it is.",
  "novakidDescription": "The song this is playin\u0027 is a real ace-high toe tapper!"
}