{
  "itemKey": "frontierpainting3",
  "itemName": "Frontier Mooshi Painting",
  "iconFile": "frontierpainting3.png",
  "price": 800,
  "rarity": "Rare",
  "category": "decorative",
  "maxStack": 0,
  "foodValue": 0.0,
  "rottingMultiplier": 0.0,
  "printable": true,
  "colonyTags": [
    "novakid",
    "novakidvillage",
    "pretty"
  ],
  "race": "novakid",
  "description": "A painting of a proud mooshi against a setting sun.",
  "apexDescription": "The mooshi in this painting looks very proud.",
  "avianDescription": "What a noble looking beast!",
  "floranDescription": "Floran wantsss to hunt tiny prey.",
  "glitchDescription": "Inspired. What a majestic beast!",
  "humanDescription": "The mooshi in this painting is very majestic for a farm animal.",
  "hylotlDescription": "This painting captures an element of majesty in this wild beast.",
  "novakidDescription": "That\u0027s a mighty fine lookin\u0027 mooshi."
}