{
  "itemKey": "frontierlamp",
  "itemName": "Frontier Lamp",
  "iconFile": "frontierlamp.png",
  "price": 90,
  "rarity": "Common",
  "category": "light",
  "maxStack": 0,
  "foodValue": 0.0,
  "rottingMultiplier": 0.0,
  "printable": true,
  "colonyTags": [
    "novakid",
    "novakidvillage",
    "light"
  ],
  "race": "novakid",
  "description": "A hanging gas lamp with a red glass cover.",
  "apexDescription": "This brass oil lamp casts a warm red glow.",
  "avianDescription": "This lamp gives off a slight perfume smell. Perhaps the oil it is burning is scented?",
  "floranDescription": "Hanging red light hasss fire insside. Floran nervousss.",
  "glitchDescription": "Impressed. The metalwork on this brass lamp is rather ornate. It must have been made with care.",
  "humanDescription": "This lamp flickers with a soft flame. The red glass cover casts a warm glow!",
  "hylotlDescription": "The flickering of this oil lamp is oddly calming.",
  "novakidDescription": "Nothin\u0027 feels as homely as an ol\u0027 oil burnin\u0027 lamp lightin\u0027 up a room."
}