{
  "itemKey": "frontierchair",
  "itemName": "Frontier Chair",
  "iconFile": "frontierchair.png",
  "price": 95,
  "rarity": "Common",
  "category": "furniture",
  "maxStack": 0,
  "foodValue": 0.0,
  "rottingMultiplier": 0.0,
  "printable": true,
  "colonyTags": [
    "novakid",
    "novakidvillage"
  ],
  "race": "novakid",
  "description": "A wooden chair with mooshi hide cushioning.",
  "apexDescription": "This chair is comfortable enough. The animal hide cushions add a little character.",
  "avianDescription": "The animal hide cushioning is itchy on the feathers.",
  "floranDescription": "Chair ssstill smellss a bit like prey. Good chair.",
  "glitchDescription": "Impressed. This chair may look low quality but the hide cushions create a lot of potential comfort.",
  "humanDescription": "This couch looks a little itchy to sit on.",
  "hylotlDescription": "I\u0027d be reluctant to sit on this chair. The animal hide cushioning doesn\u0027t look very comfortable.",
  "novakidDescription": "The perfect chair. I\u0027d rest my feet up at a chair like this any day."
}