{
  "itemKey": "frontierclock",
  "itemName": "Frontier Grandfather Clock",
  "iconFile": "frontierclock.png",
  "price": 120,
  "rarity": "Common",
  "category": "decorative",
  "maxStack": 0,
  "foodValue": 0.0,
  "rottingMultiplier": 0.0,
  "printable": true,
  "colonyTags": [
    "novakid",
    "novakidvillage",
    "pretty"
  ],
  "race": "novakid",
  "description": "An old-fashioned standing clock, with a polished brass pendulum.",
  "apexDescription": "This fine clock is much higher quality than the mass-produced ones the Miniknog create.",
  "avianDescription": "This clock looks handmade. I\u0027m impressed with the woodwork!",
  "floranDescription": "Ssswinging metal thing looksss like ssmall axe. Isss this a weapon?",
  "glitchDescription": "Charmed. This clock must have taken a lot of care to produce by hand.",
  "humanDescription": "This clock has been waiting here, just for me. But I thought time waits for no-one?",
  "hylotlDescription": "I must admit that the construction of this clock must have taken a great deal of time. I\u0027m almost impressed.",
  "novakidDescription": "This here clock is just tickin\u0027 away the hours."
}