{
  "itemKey": "frozenfirechair",
  "itemName": "Frozen Fire Chair",
  "iconFile": "frozenfirechair.png",
  "price": 85,
  "rarity": "Common",
  "category": "furniture",
  "maxStack": 0,
  "foodValue": 0.0,
  "rottingMultiplier": 0.0,
  "printable": false,
  "colonyTags": [
    "frozenfire"
  ],
  "race": "generic",
  "description": "Quite a dangerous chair to sit on"
}