{
  "itemKey": "gangbroadsword",
  "itemName": "Common Broadsword",
  "price": 900,
  "rarity": "Common",
  "category": "broadsword",
  "maxStack": 1,
  "foodValue": 0.0,
  "rottingMultiplier": 0.0,
  "printable": true,
  "description": "A powerful two-handed sword."
}