{
  "itemKey": "gasprimer",
  "itemName": "Root",
  "iconFile": "gasprimer.png",
  "price": 0,
  "rarity": "Common",
  "category": "breakable",
  "maxStack": 0,
  "foodValue": 0.0,
  "rottingMultiplier": 0.0,
  "printable": false,
  "colonyTags": [
    "swamp"
  ],
  "race": "generic",
  "description": "It\u0027s a root.",
  "apexDescription": "Some sort of tree root.",
  "avianDescription": "It\u0027s a root.",
  "floranDescription": "Rootsss.",
  "glitchDescription": "Neutral. An unremarkable root.",
  "humanDescription": "Yup. It\u0027s a root.",
  "hylotlDescription": "A root.",
  "novakidDescription": "It\u0027s just a root."
}