{
  "itemKey": "geodehighanote",
  "itemName": "Geode High A",
  "iconFile": "geodehighanote.png",
  "price": 0,
  "rarity": "Common",
  "maxStack": 0,
  "foodValue": 0.0,
  "rottingMultiplier": 0.0,
  "printable": false,
  "colonyTags": [
    "geode"
  ],
  "race": "generic",
  "description": "A note carved from a white musical geode.",
  "apexDescription": "A stone that chimes when I get close to it.",
  "avianDescription": "A glowing stone. It chimes",
  "floranDescription": "Stone glow, make chime noissse. Floran listen.",
  "glitchDescription": "Curious. Sound waves emitted by a geological formation.",
  "humanDescription": "A ringing stone. Pretty cool.",
  "hylotlDescription": "A glowing, sound-emitting stone.",
  "novakidDescription": "Big ol\u0027 white rock that rings like a church bell. It\u0027s a head scratcher alright."
}