{
  "itemKey": "geodebluesample",
  "itemName": "Blue Geode Sample",
  "iconFile": "geodebluesample.png",
  "price": 100,
  "rarity": "Common",
  "category": "decorative",
  "maxStack": 0,
  "foodValue": 0.0,
  "rottingMultiplier": 0.0,
  "printable": false,
  "colonyTags": [
    "pretty"
  ],
  "description": "A pretty, blue geode.",
  "apexDescription": "Geodes are fascinating rock formations!",
  "avianDescription": "A shimmering geode. Pretty!",
  "floranDescription": "Pretty, sssparkly stone.",
  "glitchDescription": "Pleased. Ah, a lovely geode!",
  "humanDescription": "Cool on the inside but boring on the outside. Just like me!",
  "hylotlDescription": "Geodes keep lovely secrets on the inside.",
  "novakidDescription": "The inside of this rock is somethin\u0027 else."
}