{
  "itemKey": "geodehead",
  "itemName": "Geode Mask",
  "iconFile": "geodehead.png",
  "price": 2500,
  "rarity": "Rare",
  "category": "headwear",
  "maxStack": 1,
  "foodValue": 0.0,
  "rottingMultiplier": 0.0,
  "printable": true,
  "description": "A geode gem mask. It makes your eyes glow."
}