{
  "itemKey": "geodestone",
  "itemName": "Geode Stone",
  "iconFile": "geodestone.png",
  "price": 0,
  "rarity": "Common",
  "category": "block",
  "maxStack": 0,
  "foodValue": 0.0,
  "rottingMultiplier": 0.0,
  "printable": true,
  "description": "A solid stone filled with small geode crystals."
}