{
  "itemKey": "giantsnowflake",
  "itemName": "Giant Snowflake",
  "iconFile": "giantsnowflake.png",
  "price": 2000,
  "rarity": "Uncommon",
  "category": "decorative",
  "maxStack": 0,
  "foodValue": 0.0,
  "rottingMultiplier": 0.0,
  "printable": false,
  "colonyTags": [
    "christmas",
    "pretty"
  ],
  "race": "generic",
  "description": "A huge snowflake decoration.",
  "apexDescription": "They say every single snowflake is unique.",
  "avianDescription": "Every snowflake is unique in appearance. A gift from Kluex.",
  "floranDescription": "Sssnowflake. Iss it cold?",
  "glitchDescription": "Curious. Is this snowflake one of a kind?",
  "humanDescription": "The sight of snowflakes always makes me long for winter.",
  "hylotlDescription": "Snowflakes are truly a beautiful natural phenomenon.",
  "novakidDescription": "Snowflakes sure are pretty."
}