{
  "itemKey": "giantflowerlamp",
  "itemName": "Giant Flower Lamp",
  "iconFile": "giantflowerlamp.png",
  "price": 75,
  "rarity": "Common",
  "category": "light",
  "maxStack": 0,
  "foodValue": 0.0,
  "rottingMultiplier": 0.0,
  "printable": false,
  "colonyTags": [
    "giantflower",
    "light",
    "nature"
  ],
  "race": "generic",
  "description": "A flower that seems to emit the sun\u0027s rays.",
  "apexDescription": "A cute glowing flower. Works best at night.",
  "avianDescription": "This flower\u0027s glow lights up any room.",
  "floranDescription": "Floran like glowy flower.",
  "glitchDescription": "Interested. The glow is produced by the flower storing the sun\u0027s energy then expelling it gradually.",
  "humanDescription": "The nicest-smelling lamp ever.",
  "hylotlDescription": "This remarkable natural lamp is breathtaking.",
  "novakidDescription": "A stunnin\u0027 glowin\u0027 flower. A treat for any home."
}