{
  "itemKey": "giantflowerbed",
  "itemName": "Giant Flower Bed",
  "iconFile": "giantflowerbed.png",
  "price": 140,
  "rarity": "Common",
  "category": "furniture",
  "maxStack": 0,
  "foodValue": 0.0,
  "rottingMultiplier": 0.0,
  "printable": false,
  "colonyTags": [
    "giantflower",
    "nature"
  ],
  "race": "generic",
  "description": "A flower bed. Hope you don\u0027t have hayfever.",
  "apexDescription": "This bed is amusing and bouncy.",
  "avianDescription": "Sleeping here makes my feathers itch.",
  "floranDescription": "Floran fall asssleep easssily in plant.",
  "glitchDescription": "Uncomfortable. The bed is made out of a carnivorous plant. Worrying.",
  "humanDescription": "The sickly-sweet smell of the plant doesn\u0027t help me sleep.",
  "hylotlDescription": "Nature being adapted for other uses. Remarkable.",
  "novakidDescription": "A nicely scented bed. One could only dream of flowery meadows in this."
}