{
  "itemKey": "giantflowerchest",
  "itemName": "Giant Flower Chest",
  "iconFile": "giantflowerchest.png",
  "price": 70,
  "rarity": "Common",
  "category": "storage",
  "maxStack": 0,
  "foodValue": 0.0,
  "rottingMultiplier": 0.0,
  "printable": false,
  "colonyTags": [
    "giantflower",
    "nature",
    "storage"
  ],
  "race": "generic",
  "description": "A chest made of flowers.",
  "apexDescription": "You could easily pick up this chest and walk off with it.",
  "avianDescription": "A flower chest. Easy to open.",
  "floranDescription": "Floran could adapt chessst so it eat thievesss.",
  "glitchDescription": "Observant. Opening this chest releases invisible pollen clouds. Long term effects are unknown.",
  "humanDescription": "A cute, colourful chest.",
  "hylotlDescription": "A beautiful, natural chest.",
  "novakidDescription": "A bright chest like this must be full o\u0027 joy."
}