{
  "itemKey": "gladiatorhead",
  "itemName": "Gladiator Helmet",
  "iconFile": "gladiatorhead.png",
  "price": 5000,
  "rarity": "Rare",
  "category": "headwear",
  "maxStack": 1,
  "foodValue": 0.0,
  "rottingMultiplier": 0.0,
  "printable": true,
  "description": "A brass helmet, for those who like to go beserk."
}