{
  "itemKey": "glass",
  "itemName": "Glass",
  "iconFile": "glass.png",
  "price": 3,
  "rarity": "Common",
  "category": "craftingMaterial",
  "maxStack": 0,
  "foodValue": 0.0,
  "rottingMultiplier": 0.0,
  "printable": true,
  "description": "A pane of glass used for crafting."
}