{
  "itemKey": "glasses5head",
  "itemName": "Simple Glasses",
  "iconFile": "glasses5head.png",
  "price": 5000,
  "rarity": "Legendary",
  "category": "headwear",
  "maxStack": 1,
  "foodValue": 0.0,
  "rottingMultiplier": 0.0,
  "printable": true,
  "description": "The original and the best."
}