{
  "itemKey": "glitchtier1pants",
  "itemName": "Knave\u0027s Trousers",
  "iconFile": "glitchtier1pants.png",
  "price": 320,
  "rarity": "Common",
  "category": "legarmour",
  "maxStack": 1,
  "foodValue": 0.0,
  "rottingMultiplier": 0.0,
  "printable": true,
  "description": "Most of the iron in a knave\u0027s trousers is in the belt buckle."
}