{
  "itemKey": "glitchshiphatch",
  "itemName": "Glitch Ship Hatch",
  "iconFile": "glitchshiphatch.png",
  "price": 125,
  "rarity": "Common",
  "category": "door",
  "maxStack": 0,
  "foodValue": 0.0,
  "rottingMultiplier": 0.0,
  "printable": true,
  "colonyTags": [
    "glitch",
    "door"
  ],
  "race": "glitch",
  "description": "A hatch suitable for a spaceship.",
  "apexDescription": "Hatch designs like this are common on ships.",
  "avianDescription": "A spaceship hatch.",
  "floranDescription": "Ssspaceship hatch.",
  "glitchDescription": "Informed. A standard ship hatch.",
  "humanDescription": "A spaceship hatch.",
  "hylotlDescription": "A basic ship hatch.",
  "novakidDescription": "A hatch, the type you\u0027d find on a ship."
}