{
  "itemKey": "glitchshiplockerTier0",
  "itemName": "Shiplocker",
  "iconFile": "glitchshiplockerTier0.png",
  "price": 0,
  "rarity": "Common",
  "category": "decorative",
  "maxStack": 0,
  "foodValue": 0.0,
  "rottingMultiplier": 0.0,
  "printable": false,
  "colonyTags": [
    "glitch",
    "storage"
  ],
  "race": "glitch",
  "description": "Store some stuff, why don\u0027t you?",
  "apexDescription": "A Glitch storage unit. It appears to be malfunctioning.",
  "avianDescription": "The ship\u0027s storage locker. Sadly it seems broken.",
  "floranDescription": "Glitch sstore goodiess in here. When itsss working.",
  "glitchDescription": "Distressed. This locker seems to be broken.",
  "humanDescription": "A good spot to store valuables, when its actually working.",
  "hylotlDescription": "An old Hylotl saying comes to mind, it means nothing when the locker is broken however.",
  "novakidDescription": "A locker, for puttin\u0027 things in. Shame this one is wrecked."
}