{
  "itemKey": "glitchtier6mchest",
  "itemName": "Templar\u0027s Breastplate",
  "iconFile": "glitchtier6mchest.png",
  "price": 6400,
  "rarity": "Legendary",
  "category": "chestarmour",
  "maxStack": 1,
  "foodValue": 0.0,
  "rottingMultiplier": 0.0,
  "printable": true,
  "description": "A breastplate built to guard the watchful soldier."
}