{
  "itemKey": "glitchdecree",
  "itemName": "Royal Decree",
  "iconFile": "glitchdecree.png",
  "price": 500,
  "rarity": "Rare",
  "category": "decorative",
  "maxStack": 0,
  "foodValue": 0.0,
  "rottingMultiplier": 0.0,
  "printable": false,
  "colonyTags": [
    "glitch",
    "glitchcastle",
    "pretty"
  ],
  "race": "glitch",
  "description": "This royal decree makes note of a keep, where treasures lay under watchful guard.",
  "apexDescription": "This old decree makes note of treasures, held under guard in a large keep.",
  "avianDescription": "This decree makes mention of the location of a treasure filled keep.",
  "floranDescription": "Floran not sure why these boring wordsss are framed.",
  "glitchDescription": "Curious. This old decree makes note of a treasure filled keep.",
  "humanDescription": "This royal decree makes note of a heavily guarded keep, protecting vast wealth.",
  "hylotlDescription": "This old royal decree imparts the location of treasure held in a guarded keep.",
  "novakidDescription": "This writin\u0027 makes mention of hidden gold in an ol\u0027 keep somewhere."
}