{
  "itemKey": "glowbed",
  "itemName": "Glow Bed",
  "iconFile": "glowbed.png",
  "price": 75,
  "rarity": "Common",
  "category": "furniture",
  "maxStack": 0,
  "foodValue": 0.0,
  "rottingMultiplier": 0.0,
  "printable": false,
  "colonyTags": [
    "bioluminescence",
    "nature"
  ],
  "race": "generic",
  "description": "A bed, with glowing plants grown through it.",
  "apexDescription": "These lights will make it easier to find this bed at night.",
  "avianDescription": "Was this bed grown? How fascinating.",
  "floranDescription": "Floran likesss plant bed. Not sssure about ssstrange lights though.",
  "glitchDescription": "Relaxed. This bed is emitting a low, calming light.",
  "humanDescription": "Does this bed have night lights built in? Neat.",
  "hylotlDescription": "The calming lights are pleasing on this organic bed.",
  "novakidDescription": "A glowing bed is fine by me."
}