{
  "itemKey": "glowflower3",
  "itemName": "Glow Flower Pod",
  "iconFile": "glowflower3.png",
  "price": 0,
  "rarity": "Common",
  "category": "light",
  "maxStack": 0,
  "foodValue": 0.0,
  "rottingMultiplier": 0.0,
  "printable": false,
  "colonyTags": [
    "bioluminescence"
  ],
  "race": "generic",
  "description": "A glowing flower pod.",
  "apexDescription": "A glowing flower pod.",
  "avianDescription": "There\u0027s something unsettling about these glowing flower pods.",
  "floranDescription": "Glowing pods contain sssweet nectar.",
  "glitchDescription": "Nervous. This flower pod has an ominous glow to it.",
  "humanDescription": "These glowing pod flowers are too creepy. Not my kind of thing.",
  "hylotlDescription": "I have seen such glowing pods on the ocean floor. Their light is strange and ethereal.",
  "novakidDescription": "Looks like an alien egg!"
}