{
  "itemKey": "glowbomb",
  "itemName": "The Night Light",
  "iconFile": "glowbomb.png",
  "price": 0,
  "rarity": "Common",
  "category": "throwableItem",
  "maxStack": 0,
  "foodValue": 0.0,
  "rottingMultiplier": 0.0,
  "printable": true,
  "description": "For when you need a quick light source."
}