{
  "itemKey": "glowtree5",
  "itemName": "Glow Tree",
  "iconFile": "glowtree5.png",
  "price": 0,
  "rarity": "Common",
  "category": "light",
  "maxStack": 0,
  "foodValue": 0.0,
  "rottingMultiplier": 0.0,
  "printable": false,
  "colonyTags": [
    "bioluminescence"
  ],
  "race": "generic",
  "description": "A glowing tree. It\u0027s beautiful, but a bit eerie.",
  "apexDescription": "Somehow I doubt that these glowing fruits are edible.",
  "avianDescription": "Do these trees simply store sunlight, or do they generate their own light?",
  "floranDescription": "Bright tree makesss bad night hunting.",
  "glitchDescription": "Curious. What biochemical process fuels this luminescence?",
  "humanDescription": "Glowing trees? How convenient!",
  "hylotlDescription": "This tree glows as though inhabited by a lonely spirit.",
  "novakidDescription": "This tree comes with its own lanterns."
}