{
  "itemKey": "glowbush4",
  "itemName": "Glow Flower Bush",
  "iconFile": "glowbush4.png",
  "price": 0,
  "rarity": "Common",
  "category": "light",
  "maxStack": 0,
  "foodValue": 0.0,
  "rottingMultiplier": 0.0,
  "printable": false,
  "colonyTags": [
    "bioluminescence"
  ],
  "race": "generic",
  "description": "A bush of pretty glowing flowers.",
  "apexDescription": "Pretty glowing flowers.",
  "avianDescription": "These glowing flowers are beautiful!",
  "floranDescription": "Floran would wear glowy flowersss... but then Floran would be sseen.",
  "glitchDescription": "Intrigued. These flowers are surprisingly well adapted to this harsh environment.",
  "humanDescription": "I\u0027d love some of these flower bushes in my garden, but they look too delicate to transplant.",
  "hylotlDescription": "These flowers glow faintly. They seem forlorn in this snowy wasteland.",
  "novakidDescription": "Ain\u0027t that a pretty plant."
}