{
  "itemKey": "gnomehead",
  "itemName": "Gnome Hat",
  "iconFile": "gnomehead.png",
  "price": 2500,
  "rarity": "Rare",
  "category": "headwear",
  "maxStack": 1,
  "foodValue": 0.0,
  "rottingMultiplier": 0.0,
  "printable": true,
  "description": "He just sits there all day. What a lazy guy."
}