{
  "itemKey": "goldpickaxe",
  "itemName": "Gold Pickaxe",
  "iconFile": "goldpickaxe.png",
  "price": 100,
  "rarity": "Common",
  "category": "Tool",
  "maxStack": 1,
  "foodValue": 0.0,
  "rottingMultiplier": 0.0,
  "printable": true,
  "description": "This tool won\u0027t last long, but I\u0027ll be able to dig pretty fast with it."
}