{
  "itemKey": "goldrock",
  "itemName": "Gold Rock",
  "iconFile": "goldrock.png",
  "price": 0,
  "rarity": "Common",
  "category": "breakable",
  "maxStack": 0,
  "foodValue": 0.0,
  "rottingMultiplier": 0.0,
  "printable": false,
  "colonyTags": [],
  "race": "generic",
  "description": "A cracked rock full of gold.",
  "apexDescription": "There appears to be gold within this fragile rock.",
  "avianDescription": "If I break this rock I should be able to gather the gold ore within it.",
  "floranDescription": "Glittery rock. Sssmash it!",
  "glitchDescription": "Observant. This rock contains gold, and is covered in cracks.",
  "humanDescription": "A rock full of gold! Maybe I can break it.",
  "hylotlDescription": "A swift blow to this rock would free the gold within.",
  "novakidDescription": "A rock rich with gold. I should break it."
}