{
  "itemKey": "goldvase5",
  "itemName": "Gold Classic Jug",
  "iconFile": "goldvase5.png",
  "price": 65,
  "rarity": "Rare",
  "category": "decorative",
  "maxStack": 0,
  "foodValue": 0.0,
  "rottingMultiplier": 0.0,
  "printable": true,
  "colonyTags": [
    "hoard",
    "valuable",
    "pretty"
  ],
  "race": "generic",
  "description": "A classic golden jug.",
  "apexDescription": "A slim golden jug that may have been used in special ceremonies.",
  "avianDescription": "This slim golden jug may have been for special ceremonies.",
  "floranDescription": "Sssimple sslim gold jug. Iss pretty.",
  "glitchDescription": "Admiring. This golden jug is nice to look at.",
  "humanDescription": "This golden jug is pretty classic.",
  "hylotlDescription": "A classic, if showy, golden jug.",
  "novakidDescription": "Surely there\u0027s a better use for all this gold than a jug?"
}