{
  "itemKey": "gosmetaf",
  "itemName": "Gosmet Figurine",
  "iconFile": "gosmetaf.png",
  "price": 5000,
  "rarity": "Legendary",
  "category": "actionFigure",
  "maxStack": 0,
  "foodValue": 0.0,
  "rottingMultiplier": 0.0,
  "printable": false,
  "colonyTags": [
    "pretty"
  ],
  "description": "The label reads, \"These creatures have ethereal bodies that they mould into armour when threatened.\""
}