{
  "itemKey": "gothicbookcase",
  "itemName": "Gothic Bookcase",
  "iconFile": "gothicbookcase.png",
  "price": 150,
  "rarity": "Common",
  "category": "storage",
  "maxStack": 0,
  "foodValue": 0.0,
  "rottingMultiplier": 0.0,
  "printable": true,
  "colonyTags": [
    "gothic",
    "storage"
  ],
  "race": "generic",
  "description": "A morbid cabinet, for storing books and other things.",
  "apexDescription": "The open nature of this bookcase means it isn\u0027t very secure.",
  "avianDescription": "I can\u0027t say I enjoy the look of this sad looking bookcase.",
  "floranDescription": "Booksss too boring. Waste of treesss.",
  "glitchDescription": "Intrigued. I wonder what things are written in these dusty books?",
  "humanDescription": "This appears to be full of vampire novels...",
  "hylotlDescription": "Books are the source of all knowledge! Maybe not these vampire books, though.",
  "novakidDescription": "I feel like this woulda been purtier without the black finish."
}