{
  "itemKey": "gothicchair",
  "itemName": "Gothic Chair",
  "iconFile": "gothicchair.png",
  "price": 115,
  "rarity": "Common",
  "category": "furniture",
  "maxStack": 0,
  "foodValue": 0.0,
  "rottingMultiplier": 0.0,
  "printable": true,
  "colonyTags": [
    "gothic"
  ],
  "race": "generic",
  "description": "An exceptionally gothic chair.",
  "apexDescription": "A large gothic chair.",
  "avianDescription": "A luxurious chair. But rather gloomy looking.",
  "floranDescription": "Big chair is sssoft to ssit on.",
  "glitchDescription": "Observant. A very gothic looking chair.",
  "humanDescription": "A beautifully crafted gothic chair.",
  "hylotlDescription": "The velvety material of the padding is exquisite.",
  "novakidDescription": "A fancy chair. It looks comfortable."
}