{
  "itemKey": "grandfatherclock",
  "itemName": "Grandfather Clock",
  "iconFile": "grandfatherclock.png",
  "price": 100,
  "rarity": "Common",
  "category": "decorative",
  "maxStack": 0,
  "foodValue": 0.0,
  "rottingMultiplier": 0.0,
  "printable": true,
  "colonyTags": [
    "apex",
    "apexmansion",
    "valuable",
    "pretty"
  ],
  "race": "apex",
  "description": "I didn\u0027t know clocks were capable of reproduction.",
  "apexDescription": "All Apex clocks are set automatically via radio.",
  "avianDescription": "Avian time is based on reading the direction of shadows.",
  "floranDescription": "Floran still go by the sunset and sunrissse to tell time.",
  "glitchDescription": "Impressed. This time piece appears to be accurate to within 1 millisecond.",
  "humanDescription": "The sound this clock makes can be both ominous and soothing.",
  "hylotlDescription": "The sound of the metronome is perfect for meditation.",
  "novakidDescription": "Tick, tock, tick, tock. You can\u0027t ignore the sound of a clock."
}