{
  "itemKey": "grapejuice",
  "itemName": "Grape Juice",
  "iconFile": "grapejuice.png",
  "price": 150,
  "rarity": "Common",
  "category": "drink",
  "maxStack": 1,
  "foodValue": 15.0,
  "rottingMultiplier": 1.0,
  "printable": true,
  "description": "A sweet juice made of grapes."
}