{
  "itemKey": "grassseeds",
  "itemName": "Grass Seeds",
  "iconFile": "grassseeds.png",
  "price": 10,
  "rarity": "Common",
  "category": "throwableItem",
  "maxStack": 0,
  "foodValue": 0.0,
  "rottingMultiplier": 0.0,
  "printable": true,
  "description": "Toss these on some damp tilled soil to grow grass."
}