{
  "itemKey": "greengumdrop2",
  "itemName": "Giant Green Gumdrop",
  "iconFile": "greengumdrop2.png",
  "price": 500,
  "rarity": "Uncommon",
  "category": "decorative",
  "maxStack": 0,
  "foodValue": 0.0,
  "rottingMultiplier": 0.0,
  "printable": false,
  "colonyTags": [
    "christmas"
  ],
  "race": "generic",
  "description": "A giant, delicious green gumdrop! Yummy!",
  "apexDescription": "A tasty green gumdrop.",
  "avianDescription": "A big green gumdrop. Tasty.",
  "floranDescription": "Floran eat big green sweet!",
  "glitchDescription": "Pleased. A tasty green gumdrop.",
  "humanDescription": "Sweets! Yes!",
  "hylotlDescription": "This looks tasty.",
  "novakidDescription": "This gumdrop looks tasty!"
}