{
  "itemKey": "greencandycane2",
  "itemName": "Crooked Candy Cane",
  "iconFile": "greencandycane2.png",
  "price": 500,
  "rarity": "Uncommon",
  "category": "decorative",
  "maxStack": 0,
  "foodValue": 0.0,
  "rottingMultiplier": 0.0,
  "printable": false,
  "colonyTags": [
    "christmas"
  ],
  "race": "generic",
  "description": "A decorative green candy cane. It\u0027s crooked.",
  "apexDescription": "I\u0027m tempted to eat it. Is it real? ",
  "avianDescription": "Looks good enough to eat!",
  "floranDescription": "Too sssweet.",
  "glitchDescription": "Hungry. I would gamble that this candy cane tastes like mint.",
  "humanDescription": "It looks like a real candy cane. Should I try eating it?",
  "hylotlDescription": "Candy as decoration? I\u0027ve never heard of such a thing.",
  "novakidDescription": "Who would decorate with candy?"
}