{
  "itemKey": "greenstim",
  "itemName": "Green Stim Pack",
  "iconFile": "greenstim.png",
  "price": 100,
  "rarity": "Common",
  "category": "medicine",
  "maxStack": 0,
  "foodValue": 0.0,
  "rottingMultiplier": 0.0,
  "printable": true,
  "description": "A stimpack full of green liquid, gives your run a boost!"
}