{
  "itemKey": "groundspike2",
  "itemName": "Sharp Spikes",
  "iconFile": "groundspike2.png",
  "price": 0,
  "rarity": "Common",
  "category": "trap",
  "maxStack": 0,
  "foodValue": 0.0,
  "rottingMultiplier": 0.0,
  "printable": false,
  "colonyTags": [],
  "race": "generic",
  "description": "Don\u0027t wanna step in those...",
  "apexDescription": "Sharp stone spikes.",
  "avianDescription": "The stone looks razor sharp.",
  "floranDescription": "Sharp and pointy.",
  "glitchDescription": "Cautious. Sharp rock could penetrate Glitch shell.",
  "humanDescription": "I\u0027d better not touch these.",
  "hylotlDescription": "I will gracefully avoid these.",
  "novakidDescription": "These sure look sharp, I\u0027m ready to hightail it outta here!"
}