{
  "itemKey": "guillotine",
  "itemName": "Guillotine",
  "iconFile": "guillotine.png",
  "price": 175,
  "rarity": "Common",
  "category": "furniture",
  "maxStack": 0,
  "foodValue": 0.0,
  "rottingMultiplier": 0.0,
  "printable": true,
  "colonyTags": [
    "glitch",
    "glitchcastle",
    "evil"
  ],
  "race": "glitch",
  "description": "A brutal yet effective execution device.",
  "apexDescription": "An old but effective form of punishment.",
  "avianDescription": "Not as bad as being defeathered.",
  "floranDescription": "Blade cutss fasst! Great for food preparationss!",
  "glitchDescription": "Sadness. The preferred form of capital punishment among the Glitch.",
  "humanDescription": "I would not want to be on the receiving end of this thing.",
  "hylotlDescription": "A barbaric form of punishment...",
  "novakidDescription": "Quick and easy. Too easy for my likin\u0027!"
}