{
  "itemKey": "halogenpack",
  "itemName": "Halogen Pack",
  "iconFile": "halogenpack.png",
  "price": 2500,
  "rarity": "Uncommon",
  "category": "backwear",
  "maxStack": 1,
  "foodValue": 0.0,
  "rottingMultiplier": 0.0,
  "printable": true,
  "description": "A backpack with an attached halogen light. It\u0027s very bright!"
}