{
  "itemKey": "haystack",
  "itemName": "Hay Stack",
  "iconFile": "haystack.png",
  "price": 55,
  "rarity": "Common",
  "category": "decorative",
  "maxStack": 0,
  "foodValue": 0.0,
  "rottingMultiplier": 0.0,
  "printable": true,
  "colonyTags": [
    "nature"
  ],
  "race": "glitch",
  "description": "A neat bale of hay, ready for stacking.",
  "apexDescription": "A bale of hay. What are these for, I wonder?",
  "avianDescription": "Hay formed into a cube.",
  "floranDescription": "Floran could make big cassstle from hay building block.",
  "glitchDescription": "Neutral. Hay formed into bales for easy storage.",
  "humanDescription": "I believe these are called bales of hay.",
  "hylotlDescription": "A dried surface plant, made into a cube.",
  "novakidDescription": "A bale of hay."
}