{
  "itemKey": "hazardtapev",
  "itemName": "Vertical Hazard Tape",
  "iconFile": "hazardtapev.png",
  "price": 20,
  "rarity": "Common",
  "category": "decorative",
  "maxStack": 0,
  "foodValue": 0.0,
  "rottingMultiplier": 0.0,
  "printable": true,
  "colonyTags": [
    "human",
    "humanbunker"
  ],
  "race": "human",
  "description": "This brightly coloured tape clearly indicates that the area is unsafe.",
  "apexDescription": "This tape warns people of danger.",
  "avianDescription": "There\u0027s a hazard nearby.",
  "floranDescription": "Only hazard here is Floran.",
  "glitchDescription": "Reminiscing. Similar markings are used to denote areas in which self-aware Glitch lurk.",
  "humanDescription": "I\u0027ve always wanted to brush this kind of tape aside while flashing an ID.",
  "hylotlDescription": "If they wanted it to serve as a warming, perhaps the humans should not have made this tape so colourful.",
  "novakidDescription": "This tape is tryin\u0027 to tell me to keep my distance. I don\u0027t take orders from a tape."
}