{
  "itemKey": "hazardmicroscope",
  "itemName": "Hazard Microscope",
  "iconFile": "hazardmicroscope.png",
  "price": 75,
  "rarity": "Common",
  "category": "decorative",
  "maxStack": 0,
  "foodValue": 0.0,
  "rottingMultiplier": 0.0,
  "printable": true,
  "colonyTags": [
    "science"
  ],
  "race": "generic",
  "description": "A large microscope, designed for observing potentially hazardous bacteria.",
  "apexDescription": "A microscope - A classic universal tool for study and research.",
  "avianDescription": "Looking at small things isn\u0027t as interesting as looking at the stars.",
  "floranDescription": "Floran can look at plantsss very close with thisss!",
  "glitchDescription": "Fascinated. Organic materials are curious when you look very close.",
  "humanDescription": "A microscope! Small things can turn out to be creepy up close.",
  "hylotlDescription": "This device can be used to observe things on a very small scale.",
  "novakidDescription": "Ain\u0027t got time to be lookin\u0027 down microscopes."
}