{
  "itemKey": "healingcollar3",
  "itemName": "Healing III Collar",
  "iconFile": "healingcollar3.png",
  "price": 7500,
  "rarity": "Legendary",
  "category": "petCollar",
  "maxStack": 0,
  "foodValue": 0.0,
  "rottingMultiplier": 0.0,
  "printable": true,
  "description": "A collar that rapidly restores your pet\u0027s health over time."
}