{
  "itemKey": "healingaugment1",
  "itemName": "Healing I Augment",
  "iconFile": "healingaugment1.png",
  "price": 5000,
  "rarity": "Uncommon",
  "category": "eppAugment",
  "maxStack": 0,
  "foodValue": 0.0,
  "rottingMultiplier": 0.0,
  "printable": true,
  "description": "An EPP module that slowly restores your health over time."
}