{
  "itemKey": "healingaugment3",
  "itemName": "Healing III Augment",
  "iconFile": "healingaugment3.png",
  "price": 15000,
  "rarity": "Legendary",
  "category": "eppAugment",
  "maxStack": 0,
  "foodValue": 0.0,
  "rottingMultiplier": 0.0,
  "printable": true,
  "description": "An EPP module that rapidly restores your health over time."
}