{
  "itemKey": "heartforge",
  "itemName": "Heart Forge",
  "iconFile": "heartforge.png",
  "price": 0,
  "rarity": "Uncommon",
  "category": "crafting",
  "maxStack": 0,
  "foodValue": 0.0,
  "rottingMultiplier": 0.0,
  "printable": false,
  "colonyTags": [
    "valentines",
    "crafting",
    "light"
  ],
  "race": "generic",
  "description": "Just the thing for making a gift to show someone you care.",
  "apexDescription": "A festive forge with tools for crafting festive decorations.",
  "avianDescription": "This festive forge will allow me to spread holiday cheer.",
  "floranDescription": "Floran make pretty red bowsss.",
  "glitchDescription": "Festive. I shall craft the most delicious gumdrop.",
  "humanDescription": "I can craft loads of holiday decorations with this forge!",
  "hylotlDescription": "With this forge, I can create the tackiest of holiday decorations.",
  "novakidDescription": "This here forge will let me craft festive items!"
}