{
  "itemKey": "heatprotectionback",
  "itemName": "Cooling EPP Upgrade",
  "iconFile": "heatprotectionback.png",
  "price": 1000,
  "rarity": "Legendary",
  "category": "enviroProtectionPack",
  "maxStack": 1,
  "foodValue": 0.0,
  "rottingMultiplier": 0.0,
  "printable": true,
  "description": "This upgrade adds cool air generation to your EPP\u0027s capabilities. Helpful on ^red;dangerously hot^reset; planets."
}