{
  "itemKey": "herocaphead",
  "itemName": "Hero\u0027s Cap",
  "iconFile": "herocaphead.png",
  "price": 5000,
  "rarity": "Legendary",
  "category": "headwear",
  "maxStack": 1,
  "foodValue": 0.0,
  "rottingMultiplier": 0.0,
  "printable": true,
  "description": "It is said this cap once belonged to a hero of legend."
}