{
  "itemKey": "hikerchest",
  "itemName": "Hiker Jacket",
  "iconFile": "hikerchest.png",
  "price": 2500,
  "rarity": "Rare",
  "category": "chestwear",
  "maxStack": 1,
  "foodValue": 0.0,
  "rottingMultiplier": 0.0,
  "printable": true,
  "description": "Makes the wearer feel like they could scale any mountain."
}