{
  "itemKey": "hivechair",
  "itemName": "Hive Chair",
  "iconFile": "hivechair.png",
  "price": 115,
  "rarity": "Common",
  "category": "furniture",
  "maxStack": 0,
  "foodValue": 0.0,
  "rottingMultiplier": 0.0,
  "printable": false,
  "colonyTags": [
    "hive"
  ],
  "race": "generic",
  "description": "A strange chair made from curious hexagonal pods.",
  "apexDescription": "This organic looking chair is slightly sticky. I\u0027m reluctant to sit on it.",
  "avianDescription": "This chair almost feels like it\u0027s wriggling...",
  "floranDescription": "Chair smellsss ssstrange... Floran doesn\u0027t want to sssit on this ssso much...",
  "glitchDescription": "Concerned. Is this actually a chair, or a hive for a creature?",
  "humanDescription": "This chair is made from some sort of insect hive. Why would someone make this?!",
  "hylotlDescription": "I guess this chair is meant to look organic, but instead it is just revolting.",
  "novakidDescription": "I\u0027m not sure how I feel about the cut o\u0027 this here chair..."
}