{
  "itemKey": "hivedoor",
  "itemName": "Hive Door",
  "iconFile": "hivedoor.png",
  "price": 100,
  "rarity": "Common",
  "category": "door",
  "maxStack": 0,
  "foodValue": 0.0,
  "rottingMultiplier": 0.0,
  "printable": false,
  "colonyTags": [
    "hive",
    "door"
  ],
  "race": "human",
  "description": "A sticky door made from organic hexagonal pods.",
  "apexDescription": "Under close observation, this door appears to be slightly leaking some biological fluids.",
  "avianDescription": "This door leaves something sticky on my feathers when I touch it...",
  "floranDescription": "Floran wantsss to kick down weird sssticky door.",
  "glitchDescription": "Alarmed. This door appears to be dripping with some biological fluid...",
  "humanDescription": "I\u0027m not sure that a door dripping slime everywhere is the most hygienic choice to decorate with.",
  "hylotlDescription": "I can think of a thousand other materials that would be wiser to build a door with.",
  "novakidDescription": "I\u0027m gettin\u0027 heebie-jeebies just lookin\u0027 at this door."
}