{
  "itemKey": "hivebomb",
  "itemName": "Bug Hive",
  "iconFile": "hivebomb.png",
  "price": 0,
  "rarity": "Common",
  "category": "throwableItem",
  "maxStack": 0,
  "foodValue": 0.0,
  "rottingMultiplier": 0.0,
  "printable": true,
  "description": "Careful! These bugs have a deadly sting."
}