{
  "itemKey": "hobohead",
  "itemName": "Cardboard Hobo Hat",
  "iconFile": "hobohead.png",
  "price": 5000,
  "rarity": "Legendary",
  "category": "headwear",
  "maxStack": 1,
  "foodValue": 0.0,
  "rottingMultiplier": 0.0,
  "printable": true,
  "description": "+1% rain resistance when dry."
}