{
  "itemKey": "hockeytable",
  "itemName": "Air Hockey Table",
  "iconFile": "hockeytable.png",
  "price": 80,
  "rarity": "Common",
  "category": "decorative",
  "maxStack": 0,
  "foodValue": 0.0,
  "rottingMultiplier": 0.0,
  "printable": true,
  "colonyTags": [
    "hylotl",
    "hylotloceancity"
  ],
  "race": "hylotl",
  "description": "A classic air hockey table. First to ten wins!",
  "apexDescription": "Air hockey? It looks fun!",
  "avianDescription": "It\u0027s a sort of table game with pucks. It could be fun...",
  "floranDescription": "Floran could beat anyone at ssstupid table game.",
  "glitchDescription": "Determined. I will master this table game.",
  "humanDescription": "Air hockey! I was great at this as a kid...",
  "hylotlDescription": "To win at air hockey, one must have superb reflexes.",
  "novakidDescription": "Air hockey? Is it anythin\u0027 like a game o\u0027 pool?"
}