{
  "itemKey": "hoe",
  "itemName": "Hoe",
  "iconFile": "hoe.png",
  "price": 125,
  "rarity": "Uncommon",
  "category": "Tool",
  "maxStack": 1,
  "foodValue": 0.0,
  "rottingMultiplier": 0.0,
  "printable": true,
  "description": "This hoe lets you till soil. The tilled soil can then be used to grow all sorts of crops!"
}