{
  "itemKey": "hologramgalaxy",
  "itemName": "Ancient Hologram",
  "iconFile": "hologramgalaxy.png",
  "price": 0,
  "rarity": "Legendary",
  "category": "decorative",
  "maxStack": 0,
  "foodValue": 0.0,
  "rottingMultiplier": 0.0,
  "printable": false,
  "colonyTags": [
    "ancient",
    "light",
    "pretty"
  ],
  "race": "ancient",
  "description": "An ancient holographic depiction of a galaxy.",
  "apexDescription": "This hologram seems to depict a galaxy of sorts.",
  "avianDescription": "Planets orbiting a sun. Which solar system could it be?",
  "floranDescription": "Picture of planetsss! Planetsss to pillage!",
  "glitchDescription": "Inspired. This hologram makes me want to travel the stars.",
  "humanDescription": "Space is pretty!",
  "hylotlDescription": "I wonder how this hologram of the stars was made?",
  "novakidDescription": "The stars - My kind are all too familiar with them..."
}