{
  "itemKey": "hologramprojector",
  "itemName": "Hologram Projector",
  "iconFile": "hologramprojector.png",
  "price": 0,
  "rarity": "Common",
  "category": "decorative",
  "maxStack": 0,
  "foodValue": 0.0,
  "rottingMultiplier": 0.0,
  "printable": false,
  "colonyTags": [
    "hylotl"
  ],
  "race": "hylotl",
  "description": "An old projector for communicating holographically.",
  "apexDescription": "This old device would have been used to transmit holograms across short distances.",
  "avianDescription": "This device, when activated, can send wondrous moving images across space. Impressive!",
  "floranDescription": "Metal thing makesss moving pictures sometimes.",
  "glitchDescription": "Intrigued. This device sends holograms across short distances.",
  "humanDescription": "This projector used to be used to send cool blue holograms across a short distance.",
  "hylotlDescription": "Old Hylotl engineering allowed Library staff to communicate across short distances.",
  "novakidDescription": "This hunk o\u0027 metal doesn\u0027t seem to respond to much."
}