{
  "itemKey": "hoodiechest2",
  "itemName": "Sleeveless Hoodie",
  "iconFile": "hoodiechest2.png",
  "price": 75,
  "rarity": "Common",
  "category": "chestwear",
  "maxStack": 1,
  "foodValue": 0.0,
  "rottingMultiplier": 0.0,
  "printable": true,
  "description": "A sleeveless hoodie, both comfortable and breathable."
}