{
  "itemKey": "househathead",
  "itemName": "House Hat",
  "iconFile": "househathead.png",
  "price": 2500,
  "rarity": "Rare",
  "category": "headwear",
  "maxStack": 1,
  "foodValue": 0.0,
  "rottingMultiplier": 0.0,
  "printable": true,
  "description": "A gnomish house - because home is where the hat is."
}