{
  "itemKey": "hulagirl",
  "itemName": "Hula Girl",
  "iconFile": "hulagirl.png",
  "price": 75,
  "rarity": "Common",
  "category": "decorative",
  "maxStack": 0,
  "foodValue": 0.0,
  "rottingMultiplier": 0.0,
  "printable": false,
  "colonyTags": [
    "island",
    "pretty"
  ],
  "race": "generic",
  "description": "A dancing hula girl. Aloha!",
  "apexDescription": "The swaying human appears to be playing a ukulele.",
  "avianDescription": "This dancing girl is wearing a grass skirt.",
  "floranDescription": "Floran not sssure if Floran like... Perhapsss it growsss on Floran.",
  "glitchDescription": "Entranced. The swaying motion has an almost hypnotic effect.",
  "humanDescription": "Aloha!",
  "hylotlDescription": "It reminds me of white sands and blue seas.",
  "novakidDescription": "Look at her, strummin\u0027 away on her teeny ukulele."
}