{
  "itemKey": "humantier5mhead",
  "itemName": "Trailblazer\u0027s Helm",
  "iconFile": "humantier5mhead.png",
  "price": 2880,
  "rarity": "Rare",
  "category": "headarmour",
  "maxStack": 1,
  "foodValue": 0.0,
  "rottingMultiplier": 0.0,
  "printable": true,
  "description": "We shouldn\u0027t view life through rose tinted glasses, but an amber tinted visor is probably okay."
}