{
  "itemKey": "humantier5schest",
  "itemName": "Adventurer\u0027s Chestguard",
  "iconFile": "humantier5schest.png",
  "price": 4800,
  "rarity": "Rare",
  "category": "chestarmour",
  "maxStack": 1,
  "foodValue": 0.0,
  "rottingMultiplier": 0.0,
  "printable": true,
  "description": "Violium makes this chestguard incredibly strong."
}