{
  "itemKey": "humantier6mpants",
  "itemName": "Wanderer\u0027s Trousers",
  "iconFile": "humantier6mpants.png",
  "price": 2560,
  "rarity": "Legendary",
  "category": "legarmour",
  "maxStack": 1,
  "foodValue": 0.0,
  "rottingMultiplier": 0.0,
  "printable": true,
  "description": "A comely trouser/boot combo that safeguards the legs."
}