{
  "itemKey": "humantier5ahead",
  "itemName": "Vanguard\u0027s Helm",
  "iconFile": "humantier5ahead.png",
  "price": 2880,
  "rarity": "Rare",
  "category": "headarmour",
  "maxStack": 1,
  "foodValue": 0.0,
  "rottingMultiplier": 0.0,
  "printable": true,
  "description": "This aegisalt helmet is lightweight and durable... Plus, who doesn\u0027t look good in green?"
}