{
  "itemKey": "humantier6ahead",
  "itemName": "Seeker\u0027s Helmet",
  "iconFile": "humantier6ahead.png",
  "price": 3840,
  "rarity": "Legendary",
  "category": "headarmour",
  "maxStack": 1,
  "foodValue": 0.0,
  "rottingMultiplier": 0.0,
  "printable": true,
  "description": "The visor on this tough helmet is designed to sharpen the wearer\u0027s sight."
}