{
  "itemKey": "humantier6mchest",
  "itemName": "Wanderer\u0027s Chestguard",
  "iconFile": "humantier6mchest.png",
  "price": 6400,
  "rarity": "Legendary",
  "category": "chestarmour",
  "maxStack": 1,
  "foodValue": 0.0,
  "rottingMultiplier": 0.0,
  "printable": true,
  "description": "Defend your vital organs while simultaneously looking big and tough. Your enemies will be so jealous."
}