{
  "itemKey": "humantier5achest",
  "itemName": "Vanguard\u0027s Flak Jacket",
  "iconFile": "humantier5achest.png",
  "price": 4800,
  "rarity": "Rare",
  "category": "chestarmour",
  "maxStack": 1,
  "foodValue": 0.0,
  "rottingMultiplier": 0.0,
  "printable": true,
  "description": "Chosen for its strength on the battlefield. The vanguard flak jacket has saved many lives."
}