{
  "itemKey": "humantier3pants",
  "itemName": "Pioneer\u0027s Trousers",
  "iconFile": "humantier3pants.png",
  "price": 1280,
  "rarity": "Uncommon",
  "category": "legarmour",
  "maxStack": 1,
  "foodValue": 0.0,
  "rottingMultiplier": 0.0,
  "printable": true,
  "description": "Titanium trousers with a convenient flap at the rear."
}