{
  "itemKey": "humantier2pants",
  "itemName": "Scavenger\u0027s Trousers",
  "iconFile": "humantier2pants.png",
  "price": 960,
  "rarity": "Common",
  "category": "legarmour",
  "maxStack": 1,
  "foodValue": 0.0,
  "rottingMultiplier": 0.0,
  "printable": true,
  "description": "These scavenger\u0027s trousers contain woven layers of protection."
}