{
  "itemKey": "humantier6achest",
  "itemName": "Seeker\u0027s Chestguard",
  "iconFile": "humantier6achest.png",
  "price": 6400,
  "rarity": "Legendary",
  "category": "chestarmour",
  "maxStack": 1,
  "foodValue": 0.0,
  "rottingMultiplier": 0.0,
  "printable": true,
  "description": "The circuitry within this armor regulates breath rate and helps the wearer keep a steady aim."
}