{
  "itemKey": "hunterback",
  "itemName": "Hunter\u0027s Knife",
  "iconFile": "hunterback.png",
  "price": 2500,
  "rarity": "Rare",
  "category": "backwear",
  "maxStack": 1,
  "foodValue": 0.0,
  "rottingMultiplier": 0.0,
  "printable": true,
  "description": "A large decorative knife with a strap to wear on your back."
}