{
  "itemKey": "huntingpressureplate",
  "itemName": "Hunting Pressure Plate",
  "iconFile": "huntingpressureplate.png",
  "price": 70,
  "rarity": "Common",
  "category": "wire",
  "maxStack": 0,
  "foodValue": 0.0,
  "rottingMultiplier": 0.0,
  "printable": true,
  "colonyTags": [
    "floran",
    "floranhuntinggrounds",
    "wired"
  ],
  "race": "floran",
  "description": "An ideal device for preparing traps and the like.",
  "apexDescription": "Some kind of pressure plate.",
  "avianDescription": "What happens if I stand on this?",
  "floranDescription": "Button in floor. Usssseful for trapsss.",
  "glitchDescription": "Curious. Is this plate rigged up to something?",
  "humanDescription": "A giant pressure pad.",
  "hylotlDescription": "What does this activate?",
  "novakidDescription": "I betcha something will happen if I step on this."
}