{
  "itemKey": "huntinglight3",
  "itemName": "Vine Pod Light",
  "iconFile": "huntinglight3.png",
  "price": 75,
  "rarity": "Common",
  "category": "light",
  "maxStack": 0,
  "foodValue": 0.0,
  "rottingMultiplier": 0.0,
  "printable": true,
  "colonyTags": [
    "floran",
    "floranhuntinggrounds",
    "light",
    "nature"
  ],
  "race": "floran",
  "description": "A large, luminous pod hanigng from a vine.",
  "apexDescription": "Such a pretty light.",
  "avianDescription": "A plant that lights up. Remarkable.",
  "floranDescription": "Plant light not burn Floran.",
  "glitchDescription": "Impressed. The Floran are able to harness nature most effectively.",
  "humanDescription": "This light looks like it was grown, not made.",
  "hylotlDescription": "Even the vile Florans appreciate beauty it seems.",
  "novakidDescription": "This plant can sure give off some light."
}