{
  "itemKey": "huntingchampionstatue",
  "itemName": "Floran Champion Statue",
  "iconFile": "huntingchampionstatue.png",
  "price": 300,
  "rarity": "Rare",
  "category": "decorative",
  "maxStack": 0,
  "foodValue": 0.0,
  "rottingMultiplier": 0.0,
  "printable": true,
  "colonyTags": [
    "floran",
    "floranhuntinggrounds",
    "combat",
    "pretty"
  ],
  "race": "floran",
  "description": "A statue of a Floran. It looks like a great hunter.",
  "apexDescription": "A majestic yet imposing Floran hunter.",
  "avianDescription": "A statue of a Floran warrior. Avian warriors are not often importalised in stone.",
  "floranDescription": "Sssuccessful Floran hunters get big statuesss.",
  "glitchDescription": "Impressed. The Floran depicted here was a successful hunter.",
  "humanDescription": "This statue would look better if it was me instead.",
  "hylotlDescription": "A statue erected in honour of a revered Floran hunter.",
  "novakidDescription": "This guy must\u0027ve been a mighty fine hunter!"
}