{
  "itemKey": "huntingrail2",
  "itemName": "Crooked Pike Railing",
  "iconFile": "huntingrail2.png",
  "price": 50,
  "rarity": "Common",
  "category": "decorative",
  "maxStack": 0,
  "foodValue": 0.0,
  "rottingMultiplier": 0.0,
  "printable": true,
  "colonyTags": [
    "floran",
    "floranhuntinggrounds"
  ],
  "race": "floran",
  "description": "A railing made of pikes tied together.",
  "apexDescription": "This railing must be decorative, it\u0027s not very sturdy.",
  "avianDescription": "A very primitive looking railing.",
  "floranDescription": "Sssafety firsst.",
  "glitchDescription": "Concerned. This railing looks sharp.",
  "humanDescription": "I\u0027d better not lean over this railing, those pikes are pointy.",
  "hylotlDescription": "This railing seems barely functional.",
  "novakidDescription": "This railin\u0027 don\u0027t look good for leanin\u0027 on."
}