{
  "itemKey": "huntinggroundtorch",
  "itemName": "Sturdy Torch Stand",
  "iconFile": "huntinggroundtorch.png",
  "price": 85,
  "rarity": "Common",
  "category": "light",
  "maxStack": 0,
  "foodValue": 0.0,
  "rottingMultiplier": 0.0,
  "printable": true,
  "colonyTags": [
    "floran",
    "floranhuntinggrounds",
    "light"
  ],
  "race": "floran",
  "description": "A standing torch. Illuminates the giant beast about to eat you.",
  "apexDescription": "This torch stand design ensures it won\u0027t burn anything around it.",
  "avianDescription": "This stand seems to rise up. I like it.",
  "floranDescription": "Floran torch keepss fire contained.",
  "glitchDescription": "Surprised. This torch stand displays a high level of craftsmanship.",
  "humanDescription": "A well built Floran torch stand.",
  "hylotlDescription": "I\u0027m sure this torch stand is elegant by Floran standards.",
  "novakidDescription": "A mighty fine lookin\u0027 torch stand."
}