{
  "itemKey": "huntingtrophy3",
  "itemName": "Cross Mounted Skull",
  "iconFile": "huntingtrophy3.png",
  "price": 50,
  "rarity": "Common",
  "category": "decorative",
  "maxStack": 0,
  "foodValue": 0.0,
  "rottingMultiplier": 0.0,
  "printable": true,
  "colonyTags": [
    "floran",
    "floranhuntinggrounds",
    "pretty"
  ],
  "race": "floran",
  "description": "A skull mounted as a trophy on crossed wood planks.",
  "apexDescription": "A crudely made wall plaque with a skull.",
  "avianDescription": "This head is attached to the wall using small planks.",
  "floranDescription": "Floran often hang trophiess of killss on wall.",
  "glitchDescription": "Disturbed. Hanging a skull in this way is a bit unusual.",
  "humanDescription": "This poor guy never imagined he\u0027d end up like this.",
  "hylotlDescription": "Why would anyone like having this skull on display?",
  "novakidDescription": "This skull trophy don\u0027t sit well with me."
}