{
  "itemKey": "huntingdoor1",
  "itemName": "Bamboo Door",
  "iconFile": "huntingdoor1.png",
  "price": 95,
  "rarity": "Common",
  "category": "door",
  "maxStack": 0,
  "foodValue": 0.0,
  "rottingMultiplier": 0.0,
  "printable": true,
  "colonyTags": [
    "floran",
    "floranhuntinggrounds",
    "door"
  ],
  "race": "floran",
  "description": "This door is hardly suitable for keeping the weather out.",
  "apexDescription": "Bamboo woven into a door. It\u0027s harder than it looks.",
  "avianDescription": "The plant used to make this door feels as solid as stone.",
  "floranDescription": "Floran bamboo growss ssstrong. This door iss ssolid.",
  "glitchDescription": "Surprised. This door is built from organic material, but stands as strong as iron.",
  "humanDescription": "This door has small gaps in it where the stalks of bamboo join together.",
  "hylotlDescription": "The Floran appear to be able to bend nature to their will. No small feat.",
  "novakidDescription": "This door\u0027s made outta some bamboo bars."
}