{
  "itemKey": "huntingplatform2",
  "itemName": "Ramped Platform",
  "iconFile": "huntingplatform2.png",
  "price": 115,
  "rarity": "Common",
  "category": "furniture",
  "maxStack": 0,
  "foodValue": 0.0,
  "rottingMultiplier": 0.0,
  "printable": true,
  "colonyTags": [
    "floran",
    "floranhuntinggrounds"
  ],
  "race": "floran",
  "description": "A raised platform. Don\u0027t get stuck under it.",
  "apexDescription": "This wooden platform looks solidly constructed.",
  "avianDescription": "A wide platform, I wonder what the purpose is.",
  "floranDescription": "A Floran large platform ussed for sstandding on.",
  "glitchDescription": "Impressed. Though the materials are basic, this platform is very well made.",
  "humanDescription": "This platform is raised like some sort of stage.",
  "hylotlDescription": "A raised wooden platform.",
  "novakidDescription": "Looks almost like a stage t\u0027me."
}