{
  "itemKey": "hunterchest",
  "itemName": "Hunter Jacket",
  "iconFile": "hunterchest.png",
  "price": 2500,
  "rarity": "Rare",
  "category": "chestwear",
  "maxStack": 1,
  "foodValue": 0.0,
  "rottingMultiplier": 0.0,
  "printable": true,
  "description": "Sturdy, practical, stylish."
}