{
  "itemKey": "hunterrifle",
  "itemName": "Vintage Scoped Rifle",
  "iconFile": "hunterrifle.png",
  "price": 1500,
  "rarity": "Legendary",
  "category": "sniperRifle",
  "maxStack": 1,
  "foodValue": 0.0,
  "rottingMultiplier": 0.0,
  "printable": true,
  "description": "A powerful scope helps this gun pick off distant targets easily."
}