{
  "itemKey": "huntingdisplay1",
  "itemName": "Spear on a Plaque",
  "iconFile": "huntingdisplay1.png",
  "price": 60,
  "rarity": "Common",
  "category": "decorative",
  "maxStack": 0,
  "foodValue": 0.0,
  "rottingMultiplier": 0.0,
  "printable": true,
  "colonyTags": [
    "floran",
    "floranhuntinggrounds",
    "combat"
  ],
  "race": "floran",
  "description": "A Floran spear mounted on a decorative plaque.",
  "apexDescription": "A plaque mounted decorative spear.",
  "avianDescription": "A sturdy weapon on display.",
  "floranDescription": "Floran take pride in their hunting weaponss.",
  "glitchDescription": "Amused. Glitch often display weapons on walls, but this spear is of Floran origin.",
  "humanDescription": "A spear. It must be important to be displayed this way.",
  "hylotlDescription": "Once again, the Floran proudly display their barbarism.",
  "novakidDescription": "Well, that spear won\u0027t do much good hangin\u0027 up like that."
}