{
  "itemKey": "huntingbigstatue",
  "itemName": "Large Floran Statue",
  "iconFile": "huntingbigstatue.png",
  "price": 250,
  "rarity": "Common",
  "category": "decorative",
  "maxStack": 0,
  "foodValue": 0.0,
  "rottingMultiplier": 0.0,
  "printable": true,
  "colonyTags": [
    "floran",
    "floranhuntinggrounds",
    "pretty"
  ],
  "race": "floran",
  "description": "A statue of a Floran. It looks like a great hunter.",
  "apexDescription": "An imposing Floran overlord no doubt.",
  "avianDescription": "I assume this depicts a Floran hunting master.",
  "floranDescription": "This sstatue repressentss the hunt, not a sspecific Floran.",
  "glitchDescription": "Curious. Was the Floran depicted here important as a hunter?",
  "humanDescription": "I\u0027ll bet the history books have a lot to say about this Floran.",
  "hylotlDescription": "A hideous, mocking Floran. Immortalised in stone.",
  "novakidDescription": "A big ol\u0027 Floran statue."
}