{
  "itemKey": "huntingspear",
  "itemName": "Hunting Spear",
  "iconFile": "huntingspear.png",
  "price": 4,
  "rarity": "Common",
  "category": "throwableItem",
  "maxStack": 0,
  "foodValue": 0.0,
  "rottingMultiplier": 0.0,
  "printable": true,
  "description": "A throwing spear. Causes monsters to drop meat."
}