{
  "itemKey": "hylotllilypad",
  "itemName": "Metal Lily Pad",
  "iconFile": "hylotllilypad.png",
  "price": 120,
  "rarity": "Common",
  "category": "decorative",
  "maxStack": 0,
  "foodValue": 0.0,
  "rottingMultiplier": 0.0,
  "printable": true,
  "colonyTags": [
    "hylotl",
    "hylotloceancity",
    "pretty"
  ],
  "race": "hylotl",
  "description": "It looks like a decorative lily pad.",
  "apexDescription": "A decorative lily pad. Nice.",
  "avianDescription": "I haven\u0027t seen this many lily pads since that time I crash-landed in a swamp.",
  "floranDescription": "Ssstupid plastic plant. Floran is disssgusted!",
  "glitchDescription": "Amused. Someone is fond of lily pads.",
  "humanDescription": "The perfect gift for someone who adores lily pads. Unfortunately, that someone is not me.",
  "hylotlDescription": "The beauty of nature meets the harshness of the urban sprawl.",
  "novakidDescription": "Someone sure likes their lily pads, huh."
}