{
  "itemKey": "hylotlredalert",
  "itemName": "Blue Alert",
  "iconFile": "hylotlredalert.png",
  "price": 10,
  "rarity": "Common",
  "category": "light",
  "maxStack": 0,
  "foodValue": 0.0,
  "rottingMultiplier": 0.0,
  "printable": false,
  "colonyTags": [
    "hylotl",
    "hylotloceancity",
    "light"
  ],
  "race": "hylotl",
  "description": "A bright blue alarm",
  "apexDescription": "This light will flash and an alarm will sound when there is an emergency.",
  "avianDescription": "A flashing light and siren that signal an emergency.",
  "floranDescription": "Flashy blue siren isss loud.",
  "glitchDescription": "Nervous. A siren that announces an emergency.",
  "humanDescription": "Is a blue alert different from a red alert emergency?",
  "hylotlDescription": "A light that signals an emergency.",
  "novakidDescription": "A warnin\u0027 light for when danger is near."
}