{
  "itemKey": "hylotlshiplocker",
  "itemName": "Shiplocker",
  "iconFile": "hylotlshiplocker.png",
  "price": 0,
  "rarity": "Common",
  "category": "storage",
  "maxStack": 0,
  "foodValue": 0.0,
  "rottingMultiplier": 0.0,
  "printable": false,
  "colonyTags": [
    "hylotl",
    "storage"
  ],
  "race": "hylotl",
  "description": "A locker. Store some stuff, why don\u0027t you?",
  "apexDescription": "A locker. Pretty easy to break into!",
  "avianDescription": "The Hylotl haven\u0027t exactly designed this locker with security in mind.",
  "floranDescription": "Floran ssstruggle to break into locker, but manage eventually.",
  "glitchDescription": "Cynical. Even a Floran could break into this simple locker.",
  "humanDescription": "I don\u0027t know why the Hylotl have even bothered to lock this storage compartment. Anyone could easily break in.",
  "hylotlDescription": "A secure locker. Only the most cunning of thieves could break in.",
  "novakidDescription": "A locker, for puttin\u0027 things in."
}