{
  "itemKey": "hylotlsign2b",
  "itemName": "Blue Neon Sign",
  "iconFile": "hylotlsign2b.png",
  "price": 180,
  "rarity": "Common",
  "category": "decorative",
  "maxStack": 0,
  "foodValue": 0.0,
  "rottingMultiplier": 0.0,
  "printable": true,
  "colonyTags": [
    "hylotl",
    "hylotloceancity",
    "electronic"
  ],
  "race": "hylotl",
  "description": "A sign that looks like it says \"BUBBLE\"...",
  "apexDescription": "A sign saying \"bubble\". That\u0027s nice, I suppose!",
  "avianDescription": "I\u0027m hesitant to even follow this sign\u0027s direction.",
  "floranDescription": "Buzzy sssign annoy Floran.",
  "glitchDescription": "Critical. A sign that simply says \"bubble\". How useful.",
  "humanDescription": "I feel like these signs are more for decorative purposes. I can\u0027t see what this could advertise.",
  "hylotlDescription": "Bubbles. Beautiful orbs of life floating up to the vast skies above.",
  "novakidDescription": "Someone really likes bubbles."
}