{
  "itemKey": "hylotltier6mchest",
  "itemName": "Aphotic Chestguard",
  "iconFile": "hylotltier6mchest.png",
  "price": 6400,
  "rarity": "Legendary",
  "category": "chestarmour",
  "maxStack": 1,
  "foodValue": 0.0,
  "rottingMultiplier": 0.0,
  "printable": true,
  "description": "A chestguard built to withstand the high pressure of the ocean depths, among other things."
}