{
  "itemKey": "hylotltechstationTier0",
  "itemName": "S.A.I.L",
  "iconFile": "hylotltechstationTier0.png",
  "price": 0,
  "rarity": "Common",
  "category": "decorative",
  "maxStack": 0,
  "foodValue": 0.0,
  "rottingMultiplier": 0.0,
  "printable": false,
  "colonyTags": [
    "hylotl"
  ],
  "race": "hylotl",
  "description": "Ship-based Artificial Intelligence Lattice, or S.A.I.L for short.",
  "apexDescription": "When it\u0027s working, I can talk to SAIL through this console.",
  "avianDescription": "Rebooting this station should enable me to talk to SAIL.",
  "floranDescription": "Floran fix thisss panel to wake ship up!",
  "glitchDescription": "Distressed. I first need to reboot this station to communicate with SAIL.",
  "humanDescription": "If I can reboot this station SAIL should come back online!",
  "hylotlDescription": "This console will allow me to communicate with SAIL. I need to reboot it first.",
  "novakidDescription": "Time to reboot this station so I can talk to SAIL."
}