{
  "itemKey": "hylotlclassicbookcase",
  "itemName": "Traditional Bookcase",
  "iconFile": "hylotlclassicbookcase.png",
  "price": 125,
  "rarity": "Common",
  "category": "storage",
  "maxStack": 0,
  "foodValue": 0.0,
  "rottingMultiplier": 0.0,
  "printable": true,
  "colonyTags": [
    "hylotl",
    "hylotlvillage",
    "knowledge",
    "storage"
  ],
  "race": "hylotl",
  "description": "A master work of craftsmanship. Beautiful.",
  "apexDescription": "A number of Hylotl books. I\u0027ll, uh, read them later.",
  "avianDescription": "There are a lot of books on Hylotl history here.",
  "floranDescription": "Fishmen like to read. Ssstupid boring fishmen.",
  "glitchDescription": "Critical. Every single book is about how wonderful the Hylotl are. How tedious.",
  "humanDescription": "I fell asleep just reading the titles.",
  "hylotlDescription": "A bookshelf rich in Hylotl history. Other species flock to our grand libraries.",
  "novakidDescription": "Shelves filled with books on Hylotl topics. I can think of several things I\u0027d rather do than readin\u0027 these."
}