{
  "itemKey": "hylotlfashionhologram",
  "itemName": "Hylotl Fashion Hologram",
  "iconFile": "hylotlfashionhologram.png",
  "price": 140,
  "rarity": "Common",
  "category": "decorative",
  "maxStack": 0,
  "foodValue": 0.0,
  "rottingMultiplier": 0.0,
  "printable": true,
  "colonyTags": [
    "hylotl",
    "hylotloceancity",
    "electronic",
    "commerce"
  ],
  "race": "hylotl",
  "description": "A hologram displaying the latest trends in Hylotl fashion.",
  "apexDescription": "The Hylotl have interesting taste in clothes.",
  "avianDescription": "These styles are not what I\u0027m used to...",
  "floranDescription": "Fishman fashion. Floran not like.",
  "glitchDescription": "Intrigued. I wonder if these clothes would suit me.",
  "humanDescription": "For all their pretentiousness, I have to admit the Hylotl are stylish.",
  "hylotlDescription": "These looks are very on-trend.",
  "novakidDescription": "Maybe I should give Hylotl fashion a go?"
}