{
  "itemKey": "hylotllilyclock",
  "itemName": "Lily Pad Clock",
  "iconFile": "hylotllilyclock.png",
  "price": 50,
  "rarity": "Common",
  "category": "decorative",
  "maxStack": 0,
  "foodValue": 0.0,
  "rottingMultiplier": 0.0,
  "printable": true,
  "colonyTags": [
    "hylotl",
    "hylotlvillage",
    "pretty"
  ],
  "race": "hylotl",
  "description": "A clock in the shape of a lily pad.",
  "apexDescription": "A clock in the shape of a lily pad. How adorable.",
  "avianDescription": "It looks like some kind of fairground novelty.",
  "floranDescription": "Tick tock tick tock fishmen have a ssstupid clock.",
  "glitchDescription": "Amused. What a whimsical shape for a clock.",
  "humanDescription": "This is kind of cute, for a gimmick.",
  "hylotlDescription": "Not just a remarkable example of practicality, but a commentary on the fleeting nature of time itself.",
  "novakidDescription": "A lily pad clock. I used to have a clock shaped like a cactus."
}