{
  "itemKey": "hylotlclassicdesk",
  "itemName": "Classic Desk",
  "iconFile": "hylotlclassicdesk.png",
  "price": 140,
  "rarity": "Common",
  "category": "storage",
  "maxStack": 0,
  "foodValue": 0.0,
  "rottingMultiplier": 0.0,
  "printable": true,
  "colonyTags": [
    "hylotl",
    "hylotlvillage",
    "storage",
    "commerce"
  ],
  "race": "hylotl",
  "description": "A classic style desk.",
  "apexDescription": "A desk with lots of storage. Nice!",
  "avianDescription": "This feels like the kind of desk to hold many secrets in it\u0027s drawers.",
  "floranDescription": "Big wooden desssk.",
  "glitchDescription": "Neutral. It is an old desk.",
  "humanDescription": "An old, musty desk.",
  "hylotlDescription": "This is a fine example of a desk.",
  "novakidDescription": "A desk. I don\u0027t enjoy spendin\u0027 much time at these."
}