{
  "itemKey": "hylotltier3pants",
  "itemName": "River Leggings",
  "iconFile": "hylotltier3pants.png",
  "price": 1280,
  "rarity": "Uncommon",
  "category": "legarmour",
  "maxStack": 1,
  "foodValue": 0.0,
  "rottingMultiplier": 0.0,
  "printable": true,
  "description": "Strong and supple, like the lithe and limber legs of their wearer."
}