{
  "itemKey": "hylotlkatanarack",
  "itemName": "Traditional Sword Rack",
  "iconFile": "hylotlkatanarack.png",
  "price": 70,
  "rarity": "Common",
  "category": "decorative",
  "maxStack": 0,
  "foodValue": 0.0,
  "rottingMultiplier": 0.0,
  "printable": true,
  "colonyTags": [
    "hylotl",
    "combat"
  ],
  "race": "hylotl",
  "description": "A rack of traditional swords.",
  "apexDescription": "An impressive display of traditional weaponry.",
  "avianDescription": "An entire rack filled with sharp swords.",
  "floranDescription": "Shiny sharp ssswords.",
  "glitchDescription": "Fascinated. Many years of skill went into forming these blades.",
  "humanDescription": "A whole rack of swords... I want to swing one about.",
  "hylotlDescription": "A classic weapon, an apprentice trains for years before even forging one.",
  "novakidDescription": "A rack o\u0027 swords, these sure are... Classic."
}