{
  "itemKey": "hylotltier4pants",
  "itemName": "Lake Greaves",
  "iconFile": "hylotltier4pants.png",
  "price": 1600,
  "rarity": "Uncommon",
  "category": "legarmour",
  "maxStack": 1,
  "foodValue": 0.0,
  "rottingMultiplier": 0.0,
  "printable": true,
  "description": "Durasteel greaves that allow the wearer to stand at their post for many hours."
}