{
  "itemKey": "hylotltier5shead",
  "itemName": "Ocean Helm",
  "iconFile": "hylotltier5shead.png",
  "price": 2880,
  "rarity": "Rare",
  "category": "headarmour",
  "maxStack": 1,
  "foodValue": 0.0,
  "rottingMultiplier": 0.0,
  "printable": true,
  "description": "This violium helm is built for exploration of the deep."
}