{
  "itemKey": "hylotlskullhead",
  "itemName": "Hylotl Skull Mask",
  "iconFile": "hylotlskullhead.png",
  "price": 2500,
  "rarity": "Rare",
  "category": "headwear",
  "maxStack": 1,
  "foodValue": 0.0,
  "rottingMultiplier": 0.0,
  "printable": true,
  "description": "A Hylotl skull. Hopefully they died a warrior\u0027s death."
}