{
  "itemKey": "hylotltier1chest",
  "itemName": "Puddle Chestguard",
  "iconFile": "hylotltier1chest.png",
  "price": 800,
  "rarity": "Common",
  "category": "chestarmour",
  "maxStack": 1,
  "foodValue": 0.0,
  "rottingMultiplier": 0.0,
  "printable": true,
  "description": "This chestguard is produced with an ancient Hylotl technique that weaves iron like straw."
}