{
  "itemKey": "hylotlsymbolb",
  "itemName": "Blue Neon Symbol",
  "iconFile": "hylotlsymbolb.png",
  "price": 180,
  "rarity": "Common",
  "category": "decorative",
  "maxStack": 0,
  "foodValue": 0.0,
  "rottingMultiplier": 0.0,
  "printable": true,
  "colonyTags": [
    "hylotl",
    "hylotloceancity",
    "pretty",
    "light"
  ],
  "race": "hylotl",
  "description": "A metal lily pad with a bright blue emblem.",
  "apexDescription": "A lily pad with a symbol on it.",
  "avianDescription": "This looks like a Hylotl stepped in some paint then trod on the lily pad.",
  "floranDescription": "Floran not underssstand concept of this piece.",
  "glitchDescription": "Critical. A decorated lily pad is still a lily pad.",
  "humanDescription": "This looks more exciting than it probably is.",
  "hylotlDescription": "Such beautiful melding of Hylotl cultural motifs.",
  "novakidDescription": "What\u0027s with the glowin\u0027 symbol?"
}