{
  "itemKey": "hylotlfossil3",
  "itemName": "Hylotl Legs",
  "iconFile": "hylotlfossil3.png",
  "price": 0,
  "rarity": "Uncommon",
  "category": "mediumFossil",
  "maxStack": 0,
  "foodValue": 0.0,
  "rottingMultiplier": 0.0,
  "printable": true,
  "race": "hylotl",
  "description": "A fossilised pair of Hylotl legs."
}