{
  "itemKey": "hylotlcalligraphy2",
  "itemName": "Hylotl \"Croak\" Calligraphy",
  "iconFile": "hylotlcalligraphy2.png",
  "price": 60,
  "rarity": "Common",
  "category": "decorative",
  "maxStack": 0,
  "foodValue": 0.0,
  "rottingMultiplier": 0.0,
  "printable": true,
  "colonyTags": [
    "hylotl",
    "hylotlvillage",
    "pretty"
  ],
  "race": "hylotl",
  "description": "Framed calligraphy for \u0027croak\u0027.",
  "apexDescription": "The Hylotl appear to value their language enough to treat it as art.",
  "avianDescription": "Uninspiring to all but the Hylotl.",
  "floranDescription": "Looksss like pattern of ssstabs.",
  "glitchDescription": "Critical. Perhaps the Hylotl should frame the word \u0027hubris\u0027 instead.",
  "humanDescription": "This is like one of those modern art pieces. I\u0027m not a fan.",
  "hylotlDescription": "The stark beauty brings tears to my eyes.",
  "novakidDescription": "Looks like an accident happened on this canvas."
}