{
  "itemKey": "hylotlwarningposter",
  "itemName": "Warning Poster",
  "iconFile": "hylotlwarningposter.png",
  "price": 50,
  "rarity": "Common",
  "category": "decorative",
  "maxStack": 0,
  "foodValue": 0.0,
  "rottingMultiplier": 0.0,
  "printable": true,
  "colonyTags": [
    "hylotl",
    "hylotloceancity"
  ],
  "race": "hylotl",
  "description": "It\u0027s a warning to anyone who cares to read it.",
  "apexDescription": "It\u0027s warning me of something, but I\u0027m not really sure what...",
  "avianDescription": "I\u0027m not sure what to make of this warning.",
  "floranDescription": "Sssome kind of warning.",
  "glitchDescription": "Concerned. I\u0027m not sure what this sign is warning me about.",
  "humanDescription": "Warning schmorning.",
  "hylotlDescription": "A convoluted warning message, it never really comes to a point.",
  "novakidDescription": "Ain\u0027t sure what to make of this so called \"warning\"."
}