{
  "itemKey": "hylotlsign1o",
  "itemName": "Orange Apex Sign",
  "iconFile": "hylotlsign1o.png",
  "price": 195,
  "rarity": "Common",
  "category": "decorative",
  "maxStack": 0,
  "foodValue": 0.0,
  "rottingMultiplier": 0.0,
  "printable": true,
  "colonyTags": [
    "hylotl",
    "hylotloceancity",
    "electronic"
  ],
  "race": "hylotl",
  "description": "An orange neon sign displaying what seems to be Big Ape.",
  "apexDescription": "Big Ape\u0027s visage stretches even to the deep seas. Frightening.",
  "avianDescription": "The face looks kind of like an Apex. Odd.",
  "floranDescription": "Buzzy sssign annoy Floran.",
  "glitchDescription": "Confused. Is this meant to be Big Ape?",
  "humanDescription": "This displays an... Apex? What is this doing here?",
  "hylotlDescription": "\"Giant Gorilla is attracted to fish\"? Seems like this was poorly translated.",
  "novakidDescription": "Is that an Apex?"
}