{
  "itemKey": "hylotlsign3o",
  "itemName": "Orange Neon Collector Sign",
  "iconFile": "hylotlsign3o.png",
  "price": 180,
  "rarity": "Common",
  "category": "decorative",
  "maxStack": 0,
  "foodValue": 0.0,
  "rottingMultiplier": 0.0,
  "printable": true,
  "colonyTags": [
    "hylotl",
    "hylotloceancity",
    "electronic"
  ],
  "race": "hylotl",
  "description": "A sign seeking Hylotl to collect spawn from the surface.",
  "apexDescription": "My translator says this sign is asking Hylotl to kidnap babies. That can\u0027t be right, surely?",
  "avianDescription": "According to my translator, the Hylotl are stealing children. I find this hard to believe.",
  "floranDescription": "Buzzy sssign annoy Floran.",
  "glitchDescription": "Critical. Perhaps the Hylotl should consider how their language translates. This appears as if they\u0027re stealing babies.",
  "humanDescription": "Whoa, I always suspected the Hylotl were up to something. No, this can\u0027t be right.",
  "hylotlDescription": "A request for Hylotl to collect spawn from the surface, a charitable and benevolent act.",
  "novakidDescription": "I haven\u0027t got time to be translatin\u0027 everythin\u0027!"
}