{
  "itemKey": "hypnareaf",
  "itemName": "Hypnare Figurine",
  "iconFile": "hypnareaf.png",
  "price": 5000,
  "rarity": "Legendary",
  "category": "actionFigure",
  "maxStack": 0,
  "foodValue": 0.0,
  "rottingMultiplier": 0.0,
  "printable": false,
  "colonyTags": [
    "pretty"
  ],
  "description": "The label reads, \"It loves frolicking through forests and meadows.\""
}