{
  "itemKey": "iceblock",
  "itemName": "Ice Block",
  "iconFile": "iceblock.png",
  "price": 0,
  "rarity": "Common",
  "category": "block",
  "maxStack": 0,
  "foodValue": 0.0,
  "rottingMultiplier": 0.0,
  "printable": true,
  "description": "Solid ice, cut into block shape."
}