{
  "itemKey": "icecubehead",
  "itemName": "Ice Cube Mask",
  "iconFile": "icecubehead.png",
  "price": 2500,
  "rarity": "Rare",
  "category": "headwear",
  "maxStack": 1,
  "foodValue": 0.0,
  "rottingMultiplier": 0.0,
  "printable": true,
  "description": "A big ice cube carved with a friendly face. It\u0027s a wonder it doesn\u0027t melt."
}