{
  "itemKey": "icespherechest",
  "itemName": "Ice Sphere Chest",
  "iconFile": "icespherechest.png",
  "price": 85,
  "rarity": "Common",
  "category": "storage",
  "maxStack": 0,
  "foodValue": 0.0,
  "rottingMultiplier": 0.0,
  "printable": false,
  "colonyTags": [
    "ice",
    "storage"
  ],
  "race": "generic",
  "description": "A frozen, spherical chest. Perfect for treasure, or making ice cubes.",
  "apexDescription": "A rounded, frozen chest. Let\u0027s look inside.",
  "avianDescription": "A smooth, cold, inviting chest.",
  "floranDescription": "Floran open shivery chessst.",
  "glitchDescription": "Analysis. The ice has special properties, meaning it won\u0027t melt any time soon.",
  "humanDescription": "This chest looks like an igloo. Maybe there\u0027s a polar bear inside.",
  "hylotlDescription": "A rounded, frozen chest. Remarkable.",
  "novakidDescription": "This icy chest has been keepin\u0027 my loot nice and fresh."
}