{
  "itemKey": "icetable",
  "itemName": "Ice Table",
  "iconFile": "icetable.png",
  "price": 105,
  "rarity": "Common",
  "category": "furniture",
  "maxStack": 0,
  "foodValue": 0.0,
  "rottingMultiplier": 0.0,
  "printable": false,
  "colonyTags": [
    "ice",
    "commerce"
  ],
  "race": "generic",
  "description": "A table made of carved ice.",
  "apexDescription": "A table carved from a huge block of ice.",
  "avianDescription": "A large table made of ice.",
  "floranDescription": "Floran ssslice on ice.",
  "glitchDescription": "Considering. It would be amusing to see a hot meal served up here.",
  "humanDescription": "This is one table you won\u0027t want to rest your elbows on.",
  "hylotlDescription": "An ice table. Beautiful, if impractical.",
  "novakidDescription": "As a general rule, I should probably stay away from ice furniture."
}