{
  "itemKey": "industrialcanister",
  "itemName": "Industrial Canister",
  "iconFile": "industrialcanister.png",
  "price": 85,
  "rarity": "Common",
  "category": "storage",
  "maxStack": 0,
  "foodValue": 0.0,
  "rottingMultiplier": 0.0,
  "printable": true,
  "colonyTags": [
    "storage",
    "industrial"
  ],
  "race": "generic",
  "description": "A sealed metal canister, that might be used to store hazardous liquids.",
  "apexDescription": "This canister seems ideal for transporting volatile substances in.",
  "avianDescription": "What a curious canister - I wonder what is inside?",
  "floranDescription": "Yellow tube. Might have ssstuff inside.",
  "glitchDescription": "Observant. A short analysis concludes that this canister is built to safely store valuable liquids.",
  "humanDescription": "The sound this canister makes when opened is quite satisfying.",
  "hylotlDescription": "What a curious looking storage container. Perhaps it is built to store fuel?",
  "novakidDescription": "Is this a big ol\u0027 oil barrel? Mighty odd lookin\u0027 barrel if I say so myself."
}