{
  "itemKey": "industrialcrate",
  "itemName": "Industrial Crate",
  "iconFile": "industrialcrate.png",
  "price": 160,
  "rarity": "Common",
  "category": "storage",
  "maxStack": 0,
  "foodValue": 0.0,
  "rottingMultiplier": 0.0,
  "printable": true,
  "colonyTags": [
    "industrial",
    "storage",
    "commerce"
  ],
  "race": "generic",
  "description": "A pressurised cargo crate, designed to withstand the conditions of space travel.",
  "apexDescription": "A sturdy looking crate, illuminated by a set of dim red lights.",
  "avianDescription": "This crate looks like it would be difficult to destroy.",
  "floranDescription": "Doesss thisss box have red eyesss? Floran worried.",
  "glitchDescription": "Impressed. The exterior of this crate is made to withstand extreme pressure. If only I was as tough as this...",
  "humanDescription": "I could pretend to be interested in how this crate looks, but really I just want to see what\u0027s inside.",
  "hylotlDescription": "This crate is designed to withstand extreme pressure. I wonder if a Hylotl helped design it?",
  "novakidDescription": "I\u0027d have a hard time pryin\u0027 this tough ol\u0027 thing open by force."
}