{
  "itemKey": "industrialcomputer",
  "itemName": "Industrial Computer",
  "iconFile": "industrialcomputer.png",
  "price": 140,
  "rarity": "Common",
  "category": "wire",
  "maxStack": 0,
  "foodValue": 0.0,
  "rottingMultiplier": 0.0,
  "printable": true,
  "colonyTags": [
    "industrial",
    "electronic",
    "wired"
  ],
  "race": "generic",
  "description": "An old metal computer tower. Untidy cables hang out of its back.",
  "apexDescription": "This console has many buttons and levers. I\u0027m sure I could understand it with an instruction manual.",
  "avianDescription": "This computer shows lots of tiny green text. I wonder what it\u0027s for?",
  "floranDescription": "Box hasss green words on it. Green isss good colour. Floran approvesss.",
  "glitchDescription": "Intrigued. This screen shows a lot of information - I wonder what it is all for?",
  "humanDescription": "I wonder why all the text on this computer display is green? Is it a stylistic choice?",
  "hylotlDescription": "This computer is much larger than it needs to be. Hylotl engineers could build something more compact.",
  "novakidDescription": "This here box sure has a lot o\u0027 words on it, but I just ain\u0027t got the attention span t\u0027keep up with it."
}