{
  "itemKey": "industrialbed",
  "itemName": "Industrial Bed",
  "iconFile": "industrialbed.png",
  "price": 180,
  "rarity": "Common",
  "category": "furniture",
  "maxStack": 0,
  "foodValue": 0.0,
  "rottingMultiplier": 0.0,
  "printable": false,
  "colonyTags": [
    "misc",
    "industrial"
  ],
  "race": "generic",
  "description": "A cheap bed with a sturdy metal frame. It doesn\u0027t seem very comfortable.",
  "apexDescription": "This bed looks like it was designed with structural integrity in mind instead of comfort.",
  "avianDescription": "This bed looks quite heavy...",
  "floranDescription": "Floran might not ssssleep well in big metal bed.",
  "glitchDescription": "Analytical. This bed appears to be able to withstand extremely turbulent movement.",
  "humanDescription": "With a little extra padding this bed could actually be quite comfortable.",
  "hylotlDescription": "This bed looks horribly uncomfortable, but I\u0027m not judgemental so I could still sleep in it.",
  "novakidDescription": "This bed may look mighty stiff but luckily I\u0027m an easy sleeper."
}