{
  "itemKey": "intestinewhip",
  "itemName": "Intestine Whip",
  "iconFile": "intestinewhip.png",
  "price": 1000,
  "rarity": "Legendary",
  "category": "whip",
  "maxStack": 1,
  "foodValue": 0.0,
  "rottingMultiplier": 0.0,
  "printable": true,
  "description": "A large intestine, it can stretch surprisingly far."
}