{
  "itemKey": "inventorstable",
  "itemName": "Inventor\u0027s Table",
  "iconFile": "inventorstable.png",
  "price": 35,
  "rarity": "Uncommon",
  "category": "crafting",
  "maxStack": 0,
  "foodValue": 0.0,
  "rottingMultiplier": 0.0,
  "printable": false,
  "colonyTags": [
    "crafting"
  ],
  "race": "generic",
  "description": "The inventor\u0027s table is used to produce various crafting stations.",
  "apexDescription": "A table with a bunch of tools for a craftsman.",
  "avianDescription": "A chance to display one\u0027s ability to create.",
  "floranDescription": "Floran ussse table. Make nice thingss.",
  "glitchDescription": "Inspired. Crafting module activated.",
  "humanDescription": "I can use materials I\u0027ve found here to create new things.",
  "hylotlDescription": "A chance to create.",
  "novakidDescription": "I can use materials I\u0027ve found here to create new things."
}