{
  "itemKey": "invisibletimer",
  "itemName": "Invisible Timer (1 Sec)",
  "iconFile": "invisibletimer.png",
  "price": 0,
  "rarity": "Common",
  "category": "wire",
  "maxStack": 0,
  "foodValue": 0.0,
  "rottingMultiplier": 0.0,
  "printable": false,
  "colonyTags": [
    "wired"
  ],
  "race": "generic",
  "description": "..."
}