{
  "itemKey": "ironblock",
  "itemName": "Iron Block",
  "iconFile": "ironblock.png",
  "price": 0,
  "rarity": "Common",
  "category": "block",
  "maxStack": 0,
  "foodValue": 0.0,
  "rottingMultiplier": 0.0,
  "printable": true,
  "description": "A solid iron block."
}