{
  "itemKey": "irontoilet",
  "itemName": "Sharp Toilet",
  "iconFile": "irontoilet.png",
  "price": 75,
  "rarity": "Common",
  "category": "furniture",
  "maxStack": 0,
  "foodValue": 0.0,
  "rottingMultiplier": 0.0,
  "printable": true,
  "colonyTags": [
    "misc"
  ],
  "race": "generic",
  "description": "A toilet made of swords. Risky.",
  "apexDescription": "This is not the most appealing toilet I\u0027ve ever seen.",
  "avianDescription": "I can\u0027t imagine these things being very popular.",
  "floranDescription": "Ssspiky brain bowl, Floran steal design for own brain bowl.",
  "glitchDescription": "Puzzlement. This toilet is only really safe for the Glitch, who don\u0027t need it.",
  "humanDescription": "A toilet made of swords. I\u0027ll be having nightmares for weeks.",
  "hylotlDescription": "One would almost prefer it if these swords were still used for combat."
}