{
  "itemKey": "ironbed",
  "itemName": "Sharp Bed",
  "iconFile": "ironbed.png",
  "price": 125,
  "rarity": "Common",
  "category": "furniture",
  "maxStack": 0,
  "foodValue": 0.0,
  "rottingMultiplier": 0.0,
  "printable": true,
  "colonyTags": [
    "misc"
  ],
  "race": "generic",
  "description": "An iron bed made of swords. Perfect for a power nap.",
  "apexDescription": "An uncomfortable-looking bed.",
  "avianDescription": "What an unusually sharp bed.",
  "floranDescription": "Bed is sssharp and full of ssspikey.",
  "glitchDescription": "Bliss. A comfortable iron bed. The Glitch can rest easily here.",
  "humanDescription": "I don\u0027t think I\u0027d get much sleep on a bed like this.",
  "hylotlDescription": "A remarkably brutal bed. Such design does not suggest comfort."
}