{
  "itemKey": "irontable",
  "itemName": "Sharp Table",
  "iconFile": "irontable.png",
  "price": 105,
  "rarity": "Common",
  "category": "furniture",
  "maxStack": 0,
  "foodValue": 0.0,
  "rottingMultiplier": 0.0,
  "printable": true,
  "colonyTags": [
    "commerce"
  ],
  "race": "generic",
  "description": "A table with swords for legs. Not ideal for playing footsie.",
  "apexDescription": "This table brings a sense of finality to stubbing one\u0027s toe.",
  "avianDescription": "Sitting here would be enough to make anyone edgy.",
  "floranDescription": "Floran cut on table. Now, Floran cut WITH table.",
  "glitchDescription": "Comfort. A casual table. Others seem wary of it.",
  "humanDescription": "I\u0027m extremely hesitant to sit here.",
  "hylotlDescription": "Perhaps this is slightly too dangerous as an alternate use of weapons."
}