{
  "itemKey": "ixodoomaf",
  "itemName": "Ixodoom Figurine",
  "iconFile": "ixodoomaf.png",
  "price": 5000,
  "rarity": "Legendary",
  "category": "actionFigure",
  "maxStack": 0,
  "foodValue": 0.0,
  "rottingMultiplier": 0.0,
  "printable": false,
  "colonyTags": [
    "pretty"
  ],
  "description": "The label reads, \"A gigantic arthropod which can regrow its tough exoskeleton in seconds if damaged.\""
}