{
  "itemKey": "jeans1legs",
  "itemName": "Skinny Jeans",
  "iconFile": "jeans1legs.png",
  "price": 75,
  "rarity": "Common",
  "category": "legwear",
  "maxStack": 1,
  "foodValue": 0.0,
  "rottingMultiplier": 0.0,
  "printable": true,
  "description": "Extremely close-fitting jeans, for the fashion conscious spacefarer."
}