{
  "itemKey": "jeans2legs",
  "itemName": "Ripped Jeans",
  "iconFile": "jeans2legs.png",
  "price": 75,
  "rarity": "Common",
  "category": "legwear",
  "maxStack": 1,
  "foodValue": 0.0,
  "rottingMultiplier": 0.0,
  "printable": true,
  "description": "Jeans with large, ripped holes allowing for pleasantly breezy knees."
}