{
  "itemKey": "jellyblock",
  "itemName": "Jelly Blob",
  "iconFile": "jellyblock.png",
  "price": 0,
  "rarity": "Common",
  "category": "block",
  "maxStack": 0,
  "foodValue": 0.0,
  "rottingMultiplier": 0.0,
  "printable": true,
  "description": "A slimy, bright coloured mass of jelly."
}