{
  "itemKey": "jumpsuitlegs",
  "itemName": "Jump Suit Trousers",
  "iconFile": "jumpsuitlegs.png",
  "price": 5000,
  "rarity": "Legendary",
  "category": "legwear",
  "maxStack": 1,
  "foodValue": 0.0,
  "rottingMultiplier": 0.0,
  "printable": true,
  "description": "There\u0027s a label which reads, \"Made in Deep 13.\""
}