{
  "itemKey": "jumpaugment",
  "itemName": "Jump Augment",
  "iconFile": "jumpaugment.png",
  "price": 10000,
  "rarity": "Rare",
  "category": "eppAugment",
  "maxStack": 0,
  "foodValue": 0.0,
  "rottingMultiplier": 0.0,
  "printable": true,
  "description": "An EPP module that boosts your jumping power."
}