{
  "itemKey": "jumppad",
  "itemName": "Jump Pad",
  "iconFile": "jumppad.png",
  "price": 100,
  "rarity": "Common",
  "category": "wire",
  "maxStack": 0,
  "foodValue": 0.0,
  "rottingMultiplier": 0.0,
  "printable": false,
  "colonyTags": [
    "wired"
  ],
  "race": "generic",
  "description": "Repels objects with a strong elastic force",
  "floranDescription": "Repelss objectss with a ssstrong elastic force",
  "glitchDescription": "Impressed. Repels objects with a strong elastic force"
}