{
  "itemKey": "junglebush13",
  "itemName": "Leafy Plant",
  "iconFile": "junglebush13.png",
  "price": 0,
  "rarity": "Common",
  "category": "breakable",
  "maxStack": 0,
  "foodValue": 0.0,
  "rottingMultiplier": 0.0,
  "printable": false,
  "colonyTags": [
    "jungle"
  ],
  "race": "generic",
  "description": "A leafy plant.",
  "apexDescription": "A leafy plant.",
  "avianDescription": "A leafy plant.",
  "floranDescription": "Leafy plantsss.",
  "glitchDescription": "Observant. A leafy plant.",
  "humanDescription": "A leafy plant.",
  "hylotlDescription": "This plant has lovely leaves.",
  "novakidDescription": "It\u0027s a plant with big leaves."
}