{
  "itemKey": "junglebush18",
  "itemName": "Putrid Flower",
  "iconFile": "junglebush18.png",
  "price": 0,
  "rarity": "Common",
  "category": "breakable",
  "maxStack": 0,
  "foodValue": 0.0,
  "rottingMultiplier": 0.0,
  "printable": false,
  "colonyTags": [
    "jungle"
  ],
  "race": "generic",
  "description": "A putrid, horrible flower.",
  "apexDescription": "Something smells horrid. Is it this flower?",
  "avianDescription": "This flower smells terrible.",
  "floranDescription": "Ssstinky flower.",
  "glitchDescription": "Observant. This flower smells horrible",
  "humanDescription": "This flower smells awful!",
  "hylotlDescription": "An altogether awful flower. It smells putrid.",
  "novakidDescription": "Whoa! That is one smelly flower."
}