{
  "itemKey": "junglebush8",
  "itemName": "Colourful Bush",
  "iconFile": "junglebush8.png",
  "price": 0,
  "rarity": "Common",
  "category": "breakable",
  "maxStack": 0,
  "foodValue": 0.0,
  "rottingMultiplier": 0.0,
  "printable": false,
  "colonyTags": [
    "jungle"
  ],
  "race": "generic",
  "description": "A colourful bush.",
  "apexDescription": "A colourful bush.",
  "avianDescription": "A colourful bush.",
  "floranDescription": "Pretty plantsss.",
  "glitchDescription": "Neutral. A colourful bush.",
  "humanDescription": "A colourful bush.",
  "hylotlDescription": "A colourful bush.",
  "novakidDescription": "This bush sure is colourful."
}