{
  "itemKey": "jupitermodel",
  "itemName": "Jupiter Model",
  "iconFile": "jupitermodel.png",
  "price": 75,
  "rarity": "Common",
  "category": "decorative",
  "maxStack": 0,
  "foodValue": 0.0,
  "rottingMultiplier": 0.0,
  "printable": false,
  "colonyTags": [
    "astronaut"
  ],
  "race": "generic",
  "description": "A detailed model of the Sol system\u0027s largest planet, Jupiter.",
  "apexDescription": "It\u0027s laughable to think that humans once thought Jupiter a \u0027large\u0027 planet.",
  "avianDescription": "Jupiter is quite large compared to Earth.",
  "floranDescription": "Jupiter isss a pretty messs of cloudsss.",
  "glitchDescription": "Amazed. Jupiter is a relatively small planet by today\u0027s standards.",
  "humanDescription": "That big old gas planet, still going strong.",
  "hylotlDescription": "Jupiter, once a regarded as a giant to so many.",
  "novakidDescription": "I\u0027ve seen bigger."
}