{
  "itemKey": "kathoodhead",
  "itemName": "Hood With Ears",
  "iconFile": "kathoodhead.png",
  "price": 5000,
  "rarity": "Legendary",
  "category": "headwear",
  "maxStack": 1,
  "foodValue": 0.0,
  "rottingMultiplier": 0.0,
  "printable": true,
  "description": "A large hood, with pointed ears attached."
}