{
  "itemKey": "kimonolegs",
  "itemName": "Kimono Skirt",
  "iconFile": "kimonolegs.png",
  "price": 35,
  "rarity": "Common",
  "category": "legwear",
  "maxStack": 1,
  "foodValue": 0.0,
  "rottingMultiplier": 0.0,
  "printable": true,
  "description": "A sleek traditional kimono."
}