{
  "itemKey": "kitchentools",
  "itemName": "Kitchen Tools",
  "iconFile": "kitchentools.png",
  "price": 60,
  "rarity": "Common",
  "category": "decorative",
  "maxStack": 0,
  "foodValue": 0.0,
  "rottingMultiplier": 0.0,
  "printable": true,
  "colonyTags": [
    "glitch",
    "glitchvillage",
    "cooking"
  ],
  "race": "glitch",
  "description": "Tools for creating pure, unadulterated deliciousness.",
  "apexDescription": "Kitchen utensils. I wonder what dishes these have been used to make.",
  "avianDescription": "A set of tools that look like they\u0027re made for making food.",
  "floranDescription": "Sharp knife for cutting meatss.",
  "glitchDescription": "Appreciative. These tools are for making food.",
  "humanDescription": "I wonder how fast I could chop vegetables with these?",
  "hylotlDescription": "Hylotl use a katana to chop their food. Just kidding.",
  "novakidDescription": "Utensils for cookin\u0027."
}