{
  "itemKey": "kittyhead",
  "itemName": "Kitty Hat",
  "iconFile": "kittyhead.png",
  "price": 5000,
  "rarity": "Legendary",
  "category": "headwear",
  "maxStack": 1,
  "foodValue": 0.0,
  "rottingMultiplier": 0.0,
  "printable": true,
  "description": "A living kitty wants to claim you as their slave!"
}