{
  "itemKey": "kluexmural1",
  "itemName": "Kluex World Mural",
  "iconFile": "kluexmural1.png",
  "price": 550,
  "rarity": "Rare",
  "category": "decorative",
  "maxStack": 0,
  "foodValue": 0.0,
  "rottingMultiplier": 0.0,
  "printable": false,
  "colonyTags": [
    "avian",
    "aviantemple"
  ],
  "race": "avian",
  "description": "An ancient mural of the god Kluex.",
  "apexDescription": "This mural appears to describe some great treasures of the Avian people.",
  "avianDescription": "This mural of Kluex describes the location of great treasures of my people...",
  "floranDescription": "Sstone thing lookss important.",
  "glitchDescription": "Intrigued. This mural appears to describe a temple of ancient treasures.",
  "humanDescription": "This stone mural describes an ancient Avian temple, filled with treasures. Huh.",
  "hylotlDescription": "This curious mural tells a tale of an ancient Avian temple, filled with riches.",
  "novakidDescription": "This ol\u0027 thing seems to describe some kinda temple."
}