{
  "itemKey": "ladlelarge",
  "itemName": "Large Ladle",
  "iconFile": "ladlelarge.png",
  "price": 230,
  "rarity": "Common",
  "category": "decorative",
  "maxStack": 0,
  "foodValue": 0.0,
  "rottingMultiplier": 0.0,
  "printable": true,
  "colonyTags": [
    "foundry",
    "mechanical"
  ],
  "race": "generic",
  "description": "A container full of bubbling of molten liquid.",
  "apexDescription": "This container is full of hot bubbling liquid.",
  "avianDescription": "This large container holds glowing molten liquid.",
  "floranDescription": "Container holdss burning liquid.",
  "glitchDescription": "Alarmed. This molten liquid could cause damage if not properly contained.",
  "humanDescription": "I can\u0027t tell if it\u0027s molten metal or lava. Either way, it looks pretty hot.",
  "hylotlDescription": "This mechanical container is somehow containing the heat from the liquid inside.",
  "novakidDescription": "A big ol\u0027 pool of bubblin\u0027 molten somethin\u0027."
}