{
  "itemKey": "lagoonpants",
  "itemName": "Lagoon Trousers",
  "iconFile": "lagoonpants.png",
  "price": 2500,
  "rarity": "Rare",
  "category": "legwear",
  "maxStack": 1,
  "foodValue": 0.0,
  "rottingMultiplier": 0.0,
  "printable": true,
  "description": "These scale-covered trousers have claws for feet."
}