{
  "itemKey": "lamppost3",
  "itemName": "Double Lamp Post",
  "iconFile": "lamppost3.png",
  "price": 125,
  "rarity": "Common",
  "category": "light",
  "maxStack": 0,
  "foodValue": 0.0,
  "rottingMultiplier": 0.0,
  "printable": false,
  "colonyTags": [
    "outdoor",
    "light"
  ],
  "race": "generic",
  "description": "A lamp post with two lamps. Nifty!",
  "apexDescription": "A tall lamp post featuring dual lights.",
  "avianDescription": "Two lights, like eyes staring at me from above.",
  "floranDescription": "Shiny lightsss on top of tall lamp post.",
  "glitchDescription": "Observant. What a tall and bright lamp post.",
  "humanDescription": "Two lights staring at me from a lamp post.",
  "hylotlDescription": "A generous light source to brighten the path that lays ahead of me.",
  "novakidDescription": "This lamp post has two lights."
}