{
  "itemKey": "lanternstickback",
  "itemName": "Lantern Stick",
  "iconFile": "lanternstickback.png",
  "price": 1600,
  "rarity": "Uncommon",
  "category": "backwear",
  "maxStack": 1,
  "foodValue": 0.0,
  "rottingMultiplier": 0.0,
  "printable": true,
  "description": "Provides light while leaving your hands free. An essential accessory for adventurering!"
}