{
  "itemKey": "largecastledoor",
  "itemName": "Large Medieval Door",
  "iconFile": "largecastledoor.png",
  "price": 145,
  "rarity": "Common",
  "category": "door",
  "maxStack": 0,
  "foodValue": 0.0,
  "rottingMultiplier": 0.0,
  "printable": true,
  "colonyTags": [
    "glitch",
    "glitchcastle",
    "door"
  ],
  "race": "glitch",
  "description": "A huge, intimidating door.",
  "apexDescription": "A huge door. You\u0027d need a battering ram to take this down.",
  "avianDescription": "This is perhaps the biggest door I\u0027ve ever seen.",
  "floranDescription": "Door makess Floran feel sssmall.",
  "glitchDescription": "Comforted. This door can be barred from the inside by a huge plank of wood.",
  "humanDescription": "A huge fortified door. It\u0027d require more than a battering ram to get this open.",
  "hylotlDescription": "Such doors are built for those that fear intruders.",
  "novakidDescription": "Whoever built this door sure don\u0027t want visitors."
}