{
  "itemKey": "larvalegs",
  "itemName": "Larva Legs",
  "iconFile": "larvalegs.png",
  "price": 2500,
  "rarity": "Rare",
  "category": "legwear",
  "maxStack": 1,
  "foodValue": 0.0,
  "rottingMultiplier": 0.0,
  "printable": true,
  "description": "Wide, large creepy looking legs."
}