{
  "itemKey": "laserminer",
  "itemName": "Mining Laser",
  "iconFile": "laserminer.png",
  "price": 1500,
  "rarity": "Legendary",
  "category": "Tool",
  "maxStack": 1,
  "foodValue": 0.0,
  "rottingMultiplier": 0.0,
  "printable": true,
  "description": "A disposable mining tool that drills with a focused microwave beam."
}