{
  "itemKey": "lavalamp1",
  "itemName": "Lava Lamp",
  "iconFile": "lavalamp1.png",
  "price": 60,
  "rarity": "Common",
  "category": "light",
  "maxStack": 0,
  "foodValue": 0.0,
  "rottingMultiplier": 0.0,
  "printable": true,
  "colonyTags": [
    "human",
    "pretty",
    "light"
  ],
  "race": "human",
  "description": "It\u0027s entrancing. I can\u0027t look away.",
  "apexDescription": "A hypnotising lamp.",
  "avianDescription": "This lamp demands to be stared at.",
  "floranDescription": "Is thisss lamp living? It has moving insssides!",
  "glitchDescription": "Calm. This liquid moves in a mesmerising way.",
  "humanDescription": "Reminds me of a bad dream I once had.",
  "hylotlDescription": "The way the liquid ebbs and flows makes me nostalgic.",
  "novakidDescription": "This lamp looks the way I feel. Peculiar."
}