{
  "itemKey": "leather",
  "itemName": "Leather",
  "iconFile": "leather.png",
  "price": 50,
  "rarity": "Uncommon",
  "category": "craftingMaterial",
  "maxStack": 0,
  "foodValue": 0.0,
  "rottingMultiplier": 0.0,
  "printable": true,
  "description": "A square of leather."
}