{
  "itemKey": "librarybookcaseG2damage",
  "itemName": "Damaged Grand Bookcase",
  "iconFile": "librarybookcaseG2damage.png",
  "price": 500,
  "rarity": "Common",
  "category": "decorative",
  "maxStack": 0,
  "foodValue": 0.0,
  "rottingMultiplier": 0.0,
  "printable": false,
  "colonyTags": [
    "hylotl",
    "hylotlvillage",
    "storage",
    "knowledge"
  ],
  "race": "hylotl",
  "description": "A large bookcase that has been damaged.",
  "apexDescription": "This bookcase has taken quite a beating.",
  "avianDescription": "I wonder how this bookcase became so damaged.",
  "floranDescription": "Bookcasse already sssmashed?",
  "glitchDescription": "Curious. How did this bookcase suffer such damage?",
  "humanDescription": "This bookcase is a wreck.",
  "hylotlDescription": "A damaged bookcase is a tragic sight.",
  "novakidDescription": "What in the stars happened?"
}