{
  "itemKey": "librarybookcaseN2empty",
  "itemName": "Deprived Bookcase",
  "iconFile": "librarybookcaseN2empty.png",
  "price": 225,
  "rarity": "Common",
  "category": "decorative",
  "maxStack": 0,
  "foodValue": 0.0,
  "rottingMultiplier": 0.0,
  "printable": true,
  "colonyTags": [
    "hylotl",
    "hylotlvillage",
    "storage",
    "knowledge"
  ],
  "race": "hylotl",
  "description": "A fairly big bookcase, only partially filled with books.",
  "apexDescription": "A standard ornate bookcase. Many books appear to be missing.",
  "avianDescription": "An old bookcase.",
  "floranDescription": "Booksss.",
  "glitchDescription": "Upset. There are many bookcases such as this with missing books.",
  "humanDescription": "A sturdy bookcase.",
  "hylotlDescription": "A large assortment of poems and prose would normally line these shelves.",
  "novakidDescription": "A bookcase, somewhat lacking in books."
}