{
  "itemKey": "librarymodel",
  "itemName": "Hylotl Library Model",
  "iconFile": "librarymodel.png",
  "price": 400,
  "rarity": "Rare",
  "category": "decorative",
  "maxStack": 0,
  "foodValue": 0.0,
  "rottingMultiplier": 0.0,
  "printable": false,
  "colonyTags": [
    "hylotl",
    "hylotlvillage",
    "pretty"
  ],
  "race": "hylotl",
  "description": "An intricate handmade paper model of a Hylotl library. There\u0027s little paper bookcases inside!",
  "apexDescription": "This detailed paper model must be of a very important building.",
  "avianDescription": "What a delightfully detailed model! It must have taken a long time to make.",
  "floranDescription": "Floran concerned about number of treess ussed to make model.",
  "glitchDescription": "Impressed. This model of a Hylotl library even has tiny bookcases inside.",
  "humanDescription": "This delicate model of a library even has little bookcases inside. I\u0027m almost afraid to touch it in case it breaks.",
  "hylotlDescription": "Someone took a lot of care to make this model. This building must be quite important.",
  "novakidDescription": "This is a fine lookin\u0027 model. I\u0027d rather not touch it."
}