{
  "itemKey": "license5",
  "itemName": "Condor License",
  "iconFile": "license5.png",
  "price": 0,
  "rarity": "Legendary",
  "category": "shipLicense",
  "maxStack": 0,
  "foodValue": 0.0,
  "rottingMultiplier": 0.0,
  "printable": true,
  "description": "Qualifies the bearer to fly Condor class ships."
}