{
  "itemKey": "lightbulb2",
  "itemName": "Lightbulb",
  "iconFile": "lightbulb2.png",
  "price": 60,
  "rarity": "Common",
  "category": "light",
  "maxStack": 0,
  "foodValue": 0.0,
  "rottingMultiplier": 0.0,
  "printable": true,
  "colonyTags": [
    "human",
    "humanprison",
    "light"
  ],
  "race": "generic",
  "description": "A bare lightbulb hanging from a metal rod in the ceiling.",
  "apexDescription": "A light bulb.",
  "avianDescription": "Light!",
  "floranDescription": "Bright!",
  "glitchDescription": "Compassionate. I wish to donate this lightbulb a lampshade.",
  "humanDescription": "A depressing fixture.",
  "hylotlDescription": "An undecorated light.",
  "novakidDescription": "A lone lightbulb."
}