{
  "itemKey": "liquidsensor",
  "itemName": "Liquid Sensor",
  "iconFile": "liquidsensor.png",
  "price": 10,
  "rarity": "Common",
  "category": "wire",
  "maxStack": 0,
  "foodValue": 0.0,
  "rottingMultiplier": 0.0,
  "printable": false,
  "colonyTags": [
    "wired"
  ],
  "race": "generic",
  "description": "Don\u0027t use your finger! This trusty sensor indicates the presence of liquids.",
  "floranDescription": "Don\u0027t use your finger! This ssensor indicatesss the presence of liquidss.",
  "glitchDescription": "Impressed. This trusty sensor indicates the presence of liquids."
}