{
  "itemKey": "locker1",
  "itemName": "Tall Locker",
  "iconFile": "locker1.png",
  "price": 50,
  "rarity": "Common",
  "category": "storage",
  "maxStack": 0,
  "foodValue": 0.0,
  "rottingMultiplier": 0.0,
  "printable": true,
  "colonyTags": [
    "storage"
  ],
  "race": "generic",
  "description": "A locker with a tall metal door.",
  "apexDescription": "A storage locker.",
  "avianDescription": "A metal box, probably built for storage.",
  "floranDescription": "Ssstorage.",
  "glitchDescription": "Neutral. A small amount of wall storage.",
  "humanDescription": "There\u0027s no lock on this locker...",
  "hylotlDescription": "Useful storage.",
  "novakidDescription": "This locker doesn\u0027t actually lock."
}