{
  "itemKey": "lollipop2",
  "itemName": "Giant Lollipop",
  "iconFile": "lollipop2.png",
  "price": 500,
  "rarity": "Uncommon",
  "category": "decorative",
  "maxStack": 0,
  "foodValue": 0.0,
  "rottingMultiplier": 0.0,
  "printable": false,
  "colonyTags": [
    "christmas"
  ],
  "race": "generic",
  "description": "A big lollipop! Sweet!",
  "apexDescription": "An exceptionally tasty lollipop.",
  "avianDescription": "A huge lollipop. Tasty.",
  "floranDescription": "Floran lick big sssweet!",
  "glitchDescription": "Entranced. A giant lollipop.",
  "humanDescription": "Time for a sugar rush!",
  "hylotlDescription": "An exceptionally sweet lollipop. For once, I\u0027ll indulge.",
  "novakidDescription": "I never seen a lollipop so large!"
}