{
  "itemKey": "lunarbasecrate",
  "itemName": "Lunar Base Crate",
  "iconFile": "lunarbasecrate.png",
  "price": 100,
  "rarity": "Common",
  "category": "storage",
  "maxStack": 0,
  "foodValue": 0.0,
  "rottingMultiplier": 0.0,
  "printable": false,
  "colonyTags": [
    "human",
    "lunarbase",
    "storage"
  ],
  "race": "human",
  "description": "A storage crate, typically used for stashing equipment and ores.",
  "apexDescription": "A nice storage crate made from a sturdy material.",
  "avianDescription": "This crate is used for storing different types of equipment.",
  "floranDescription": "Sshiny crate can store many thingss.",
  "glitchDescription": "Envious. This crate is well maintained and polished.",
  "humanDescription": "This crate looks like it could survive any space condition.",
  "hylotlDescription": "A large crate used for organising items and keeping them safe.",
  "novakidDescription": "A nice, big crate. I wonder what\u0027s inside."
}