{
  "itemKey": "lunarbaseplatform",
  "itemName": "Lunar Base Platform",
  "iconFile": "lunarbaseplatform.png",
  "price": 0,
  "rarity": "Common",
  "category": "platform",
  "maxStack": 0,
  "foodValue": 0.0,
  "rottingMultiplier": 0.0,
  "printable": true,
  "description": "A well-constructed metal platform."
}