{
  "itemKey": "manholedoor",
  "itemName": "Manhole Cover",
  "iconFile": "manholedoor.png",
  "price": 0,
  "rarity": "Common",
  "category": "door",
  "maxStack": 0,
  "foodValue": 0.0,
  "rottingMultiplier": 0.0,
  "printable": false,
  "colonyTags": [
    "scorched",
    "door"
  ],
  "race": "generic",
  "description": "A manhole cover.",
  "apexDescription": "A manhole cover. To stop fools falling down a hole.",
  "avianDescription": "A manhole cover.",
  "floranDescription": "Manhole cover, iss ssomething hiding beneath?",
  "glitchDescription": "Surprised. A manhole cover.",
  "humanDescription": "A manhole cover, just waiting for someone to fall down in comical fashion.",
  "hylotlDescription": "A manhole cover, what lurks beneath?",
  "novakidDescription": "Some kinda manhole cover, what\u0027s it hidin\u0027?"
}