{
  "itemKey": "mannequin",
  "itemName": "Mannequin",
  "iconFile": "mannequin.png",
  "price": 500,
  "rarity": "Common",
  "category": "other",
  "maxStack": 0,
  "foodValue": 0.0,
  "rottingMultiplier": 0.0,
  "printable": false,
  "colonyTags": [],
  "race": "generic",
  "description": "Display and easily equip armour sets!"
}