{
  "itemKey": "markergroundplaque",
  "itemName": "Commemorative Marker",
  "iconFile": "markergroundplaque.png",
  "price": 100,
  "rarity": "Common",
  "maxStack": 0,
  "foodValue": 0.0,
  "rottingMultiplier": 0.0,
  "printable": false,
  "colonyTags": [
    "pretty"
  ],
  "race": "generic",
  "description": "A beautifully crafted marker with a plaque embedded into it.",
  "apexDescription": "I can use this marker to finally identify something as my own.",
  "avianDescription": "A handy marker to tell people this is mine.",
  "floranDescription": "Floran plant marker to sssay \"keep out!\"",
  "glitchDescription": "Proud. A handy plaque to signify ownership.",
  "humanDescription": "With one of these plaques, everyone will know which is my house.",
  "hylotlDescription": "Hylotl dwellings are unique as it is, but this plaque would seal the deal.",
  "novakidDescription": "A fancy plaque to tell strangers that this property is taken."
}