{
  "itemKey": "markerwallplaque2",
  "itemName": "Polished Stone Plaque",
  "iconFile": "markerwallplaque2.png",
  "price": 70,
  "rarity": "Common",
  "category": "decorative",
  "maxStack": 0,
  "foodValue": 0.0,
  "rottingMultiplier": 0.0,
  "printable": false,
  "colonyTags": [
    "pretty"
  ],
  "race": "apex",
  "description": "Simple, but elegant. Plaques like this bring some real class to a place.",
  "apexDescription": "I can use this marker to finally identify something as my own.",
  "avianDescription": "A handy marker to tell people this is mine.",
  "floranDescription": "Floran plant marker to sssay \"keep out!\"",
  "glitchDescription": "Proud. A handy plaque to signify ownership.",
  "humanDescription": "With one of these plaques, everyone will know which is my house.",
  "hylotlDescription": "Hylotl dwellings are unique as it is, but this plaque would seal the deal.",
  "novakidDescription": "A fancy plaque to tell strangers that this property is taken."
}