{
  "itemKey": "mechbeacon",
  "itemName": "Landing Beacon",
  "iconFile": "mechbeacon.png",
  "price": 100,
  "rarity": "Common",
  "category": "light",
  "maxStack": 0,
  "foodValue": 0.0,
  "rottingMultiplier": 0.0,
  "printable": false,
  "colonyTags": [
    "station",
    "mech"
  ],
  "race": "generic",
  "description": "This guidance beacon marks the position of a landing bay.",
  "apexDescription": "This marks the position of a mech landing bay.",
  "avianDescription": "This marker signifies a space bay made for mech entry.",
  "floranDescription": "Beacon showsss where mechs can enter space.",
  "glitchDescription": "Informed. This beacon type is useful for tracking where mech vehicles can dock.",
  "humanDescription": "A marker to tell pilots where to land their mech suits.",
  "hylotlDescription": "This beacon is for marking entry bays for mechs.",
  "novakidDescription": "This marker is here to mark where t\u0027saddle up your mech."
}