{
  "itemKey": "mecharmgatling",
  "itemName": "Gatling Gun Mech Arm",
  "iconFile": "mecharmgatling.png",
  "price": 4800,
  "rarity": "Rare",
  "category": "mechPart",
  "maxStack": 1,
  "foodValue": 0.0,
  "rottingMultiplier": 0.0,
  "printable": true,
  "description": "A mech arm equipped with a heavy Gatling gun."
}