{
  "itemKey": "mecharmneolaser",
  "itemName": "Neo Laser Mech Arm",
  "iconFile": "mecharmneolaser.png",
  "price": 5600,
  "rarity": "Rare",
  "category": "mechPart",
  "maxStack": 1,
  "foodValue": 0.0,
  "rottingMultiplier": 0.0,
  "printable": true,
  "description": "A ranged offensive beam weapon designed for Peacekeeper agents."
}