{
  "itemKey": "mechbodyapex",
  "itemName": "Dominion Mech Body",
  "iconFile": "mechbodyapex.png",
  "price": 9600,
  "rarity": "Rare",
  "category": "mechPart",
  "maxStack": 1,
  "foodValue": 0.0,
  "rottingMultiplier": 0.0,
  "printable": true,
  "description": "A high tech Apex-styled mech body, powered by a vented cold fusion reactor."
}