{
  "itemKey": "mechbodypirate",
  "itemName": "Skulduggery Mech Body",
  "iconFile": "mechbodypirate.png",
  "price": 8000,
  "rarity": "Rare",
  "category": "mechPart",
  "maxStack": 1,
  "foodValue": 0.0,
  "rottingMultiplier": 0.0,
  "printable": true,
  "description": "A mech body used primarily by pirates and mercenaries, for obvious reasons."
}