{
  "itemKey": "mecharmguidedmissiles",
  "itemName": "Guided Missile Mech Arm",
  "iconFile": "mecharmguidedmissiles.png",
  "price": 5600,
  "rarity": "Rare",
  "category": "mechPart",
  "maxStack": 1,
  "foodValue": 0.0,
  "rottingMultiplier": 0.0,
  "printable": true,
  "description": "A heavy mech arm that launches a trio of remote-guided missiles."
}