{
  "itemKey": "mecharmgravitymine",
  "itemName": "Gravity Mine Mech Arm",
  "iconFile": "mecharmgravitymine.png",
  "price": 5600,
  "rarity": "Rare",
  "category": "mechPart",
  "maxStack": 1,
  "foodValue": 0.0,
  "rottingMultiplier": 0.0,
  "printable": true,
  "description": "Fires a remote mine that creates a tiny gravitational singularity."
}