{
  "itemKey": "mechsign",
  "itemName": "Mech Sign",
  "iconFile": "mechsign.png",
  "price": 50,
  "rarity": "Common",
  "category": "decorative",
  "maxStack": 0,
  "foodValue": 0.0,
  "rottingMultiplier": 0.0,
  "printable": true,
  "colonyTags": [
    "outpost"
  ],
  "race": "human",
  "description": "This metal sign indicates a mech work station.",
  "apexDescription": "This sign has a large mech vehicle printed on it.",
  "avianDescription": "This sign displays a large mech suit.",
  "floranDescription": "There isss a suit of mech armour on this sssign.",
  "glitchDescription": "Observant. This sign indicates a work station for mech assembly.",
  "humanDescription": "This round sign has a large mech suit on it.",
  "hylotlDescription": "A coloured sign, with an image of a mech suit.",
  "novakidDescription": "A sign with a big \u0027ol mech suit printed on it."
}