{
  "itemKey": "mechhorntoy",
  "itemName": "Toy Mech Horn",
  "iconFile": "mechhorntoy.png",
  "price": 2500,
  "rarity": "Legendary",
  "category": "mechPart",
  "maxStack": 1,
  "foodValue": 0.0,
  "rottingMultiplier": 0.0,
  "printable": true,
  "description": "This horn module is surprisingly small... I wonder what it sounds like?"
}