{
  "itemKey": "mechblueprint6",
  "itemName": "Experimental Mech Blueprint",
  "iconFile": "mechblueprint6.png",
  "price": 800,
  "rarity": "Legendary",
  "category": "Blueprint",
  "maxStack": 1,
  "foodValue": 0.0,
  "rottingMultiplier": 0.0,
  "printable": true,
  "description": "A blueprint for an experimental high-tech mech part."
}