{
  "itemKey": "mecharmchainsaw",
  "itemName": "Neo Chainsaw Mech Arm",
  "iconFile": "mecharmchainsaw.png",
  "price": 4800,
  "rarity": "Rare",
  "category": "mechPart",
  "maxStack": 1,
  "foodValue": 0.0,
  "rottingMultiplier": 0.0,
  "printable": true,
  "description": "An energized chainsaw originally developed for cutting through ice."
}