{
  "itemKey": "mechhornclownhorn",
  "itemName": "Clown Mech Horn",
  "iconFile": "mechhornclownhorn.png",
  "price": 2500,
  "rarity": "Legendary",
  "category": "mechPart",
  "maxStack": 1,
  "foodValue": 0.0,
  "rottingMultiplier": 0.0,
  "printable": true,
  "description": "Honk."
}