{
  "itemKey": "mechbodypeacekeeper",
  "itemName": "Peacekeeper Mech Body",
  "iconFile": "mechbodypeacekeeper.png",
  "price": 11200,
  "rarity": "Rare",
  "category": "mechPart",
  "maxStack": 1,
  "foodValue": 0.0,
  "rottingMultiplier": 0.0,
  "printable": true,
  "description": "A classic Mech body historically used by Terrene Peacekeeper agents."
}