{
  "itemKey": "mechboosterastro",
  "itemName": "Astro Mech Boosters",
  "iconFile": "mechboosterastro.png",
  "price": 4800,
  "rarity": "Rare",
  "category": "mechPart",
  "maxStack": 1,
  "foodValue": 0.0,
  "rottingMultiplier": 0.0,
  "printable": true,
  "description": "A set of mid-range boosters that use a series of long thrusters."
}