{
  "itemKey": "mechblueprint5",
  "itemName": "High-Tech Mech Blueprint",
  "iconFile": "mechblueprint5.png",
  "price": 500,
  "rarity": "Rare",
  "category": "Blueprint",
  "maxStack": 1,
  "foodValue": 0.0,
  "rottingMultiplier": 0.0,
  "printable": true,
  "description": "A blueprint for a high-tech mech part."
}