{
  "itemKey": "mecharmbeamsniper",
  "itemName": "Beam Sniper Mech Arm",
  "iconFile": "mecharmbeamsniper.png",
  "price": 5600,
  "rarity": "Rare",
  "category": "mechPart",
  "maxStack": 1,
  "foodValue": 0.0,
  "rottingMultiplier": 0.0,
  "printable": true,
  "description": "A mech arm gun that discharge fast-travelling beams of solar energy."
}