{
  "itemKey": "mecharmmultidrone",
  "itemName": "Swarm Drone Mech Arm",
  "iconFile": "mecharmmultidrone.png",
  "price": 5600,
  "rarity": "Rare",
  "category": "mechPart",
  "maxStack": 1,
  "foodValue": 0.0,
  "rottingMultiplier": 0.0,
  "printable": true,
  "description": "An advanced mech arm that can deploy multiple attack drones."
}