{
  "itemKey": "mecharmplasmadrone",
  "itemName": "Plasma Drone Mech Arm",
  "iconFile": "mecharmplasmadrone.png",
  "price": 4800,
  "rarity": "Rare",
  "category": "mechPart",
  "maxStack": 1,
  "foodValue": 0.0,
  "rottingMultiplier": 0.0,
  "printable": true,
  "description": "A mech arm that at deploys an offensive turret drone."
}