{
  "itemKey": "mecharmshielddrone",
  "itemName": "Shield Drone Mech Arm",
  "iconFile": "mecharmshielddrone.png",
  "price": 5600,
  "rarity": "Rare",
  "category": "mechPart",
  "maxStack": 1,
  "foodValue": 0.0,
  "rottingMultiplier": 0.0,
  "printable": true,
  "description": "Launches a drone which projects a defensive energy shield."
}