{
  "itemKey": "medievalarmorarmed",
  "itemName": "Armed Display Armour",
  "iconFile": "medievalarmorarmed.png",
  "price": 125,
  "rarity": "Common",
  "category": "decorative",
  "maxStack": 0,
  "foodValue": 0.0,
  "rottingMultiplier": 0.0,
  "printable": true,
  "colonyTags": [
    "glitch",
    "glitchcastle",
    "combat",
    "pretty"
  ],
  "race": "glitch",
  "description": "Shiny armour stands armed and resolute.",
  "apexDescription": "A beautiful set of armour.",
  "avianDescription": "It appears to be battle armour.",
  "floranDescription": "Doess metal man wear metal armour?",
  "glitchDescription": "Unimpressed. This armour is built purely for decoration. Real battle armour is far more rugged.",
  "humanDescription": "An attractive suit of armour.",
  "hylotlDescription": "This armour looks as if it\u0027s never seen battle.",
  "novakidDescription": "Seems unnecessary to wear somethin\u0027 like this when fightin\u0027."
}