{
  "itemKey": "medievalcellbed",
  "itemName": "Medieval Hay Bed",
  "iconFile": "medievalcellbed.png",
  "price": 100,
  "rarity": "Common",
  "category": "furniture",
  "maxStack": 0,
  "foodValue": 0.0,
  "rottingMultiplier": 0.0,
  "printable": true,
  "colonyTags": [
    "glitch",
    "glitchvillage"
  ],
  "race": "glitch",
  "description": "An extremely basic bed of hay.",
  "apexDescription": "An uncomfortable-looking bed with nothing but some hay for warmth.",
  "avianDescription": "As close to a nest as can be.",
  "floranDescription": "Bed too hard. Floran getss back pain.",
  "glitchDescription": "Concerned. I can\u0027t imagine anyone getting a good nights sleep here.",
  "humanDescription": "A hay bed. I can\u0027t imagine sleeping on this night after night.",
  "hylotlDescription": "An uncomfortable bed built out of hay and hard wood.",
  "novakidDescription": "This bed\u0027s gotta be a form of punishment."
}