{
  "itemKey": "medievalstock",
  "itemName": "Medieval Stocks",
  "iconFile": "medievalstock.png",
  "price": 70,
  "rarity": "Common",
  "category": "decorative",
  "maxStack": 0,
  "foodValue": 0.0,
  "rottingMultiplier": 0.0,
  "printable": true,
  "colonyTags": [
    "glitch",
    "glitchvillage",
    "evil"
  ],
  "race": "glitch",
  "description": "A pair of stocks. A medieval method of punishment.",
  "apexDescription": "A set of stocks. One of the few degrading things the Miniknog has yet to explore.",
  "avianDescription": "Some sort of restraint it seems.",
  "floranDescription": "Wooden thing sssmell of icky fruit.",
  "glitchDescription": "Horrified. You would not want to have to be put in these.",
  "humanDescription": "If you told this stock a funny joke, it\u0027d be... A Laughing Stock. I\u0027m hilarious.",
  "hylotlDescription": "Built to restrain someone whilst you pelt them with rotten fruit.",
  "novakidDescription": "Stocks for lockin\u0027 outlaws in."
}