{
  "itemKey": "medicalgoods",
  "itemName": "Medical Supplies",
  "iconFile": "medicalgoods.png",
  "price": 100,
  "rarity": "common",
  "category": "tradeGoods",
  "maxStack": 0,
  "foodValue": 0.0,
  "rottingMultiplier": 0.0,
  "printable": true,
  "description": "A sealed crate of medical supplies, valuable for interstellar trade."
}