{
  "itemKey": "medievalcodex",
  "itemName": "Medieval Codex",
  "iconFile": "medievalcodex.png",
  "price": 55,
  "rarity": "Common",
  "category": "decorative",
  "maxStack": 0,
  "foodValue": 0.0,
  "rottingMultiplier": 0.0,
  "printable": true,
  "colonyTags": [
    "glitch",
    "glitchcastle"
  ],
  "race": "glitch",
  "description": "This book is full of strange illustrations.",
  "apexDescription": "A book. It\u0027s entirely full of portraits.",
  "avianDescription": "There are pictures of many different people in this book.",
  "floranDescription": "It\u0027ss full of picturess.",
  "glitchDescription": "Intrigued. A compendium of old illustrations.",
  "humanDescription": "It appears to be some kind of almanac. There are illustrations here of lots of different people.",
  "hylotlDescription": "This books feels as though it bears importance. Each page contains portraits of unknown persons.",
  "novakidDescription": "A picture book, sorta."
}