{
  "itemKey": "medievalbowl",
  "itemName": "Medieval Bowl",
  "iconFile": "medievalbowl.png",
  "price": 40,
  "rarity": "Common",
  "category": "decorative",
  "maxStack": 0,
  "foodValue": 0.0,
  "rottingMultiplier": 0.0,
  "printable": true,
  "colonyTags": [
    "glitch",
    "glitchvillage"
  ],
  "race": "glitch",
  "description": "A bowl. It doesn\u0027t look very clean.",
  "apexDescription": "A simple, dirty bowl.",
  "avianDescription": "It appears food is eaten from this.",
  "floranDescription": "Bowl too sssmall for Floran appetite.",
  "glitchDescription": "Neutral. A simple bowl. Likely made from clay.",
  "humanDescription": "A little bowl, it looks like clay.",
  "hylotlDescription": "What is eaten from this bowl, I wonder...",
  "novakidDescription": "A simple bowl for a simple meal."
}