{
  "itemKey": "mediumsnowball",
  "itemName": "Medium Snowball",
  "iconFile": "mediumsnowball.png",
  "price": 0,
  "rarity": "Common",
  "category": "throwableItem",
  "maxStack": 0,
  "foodValue": 0.0,
  "rottingMultiplier": 0.0,
  "printable": true,
  "description": "It\u0027s bigger than the average snowball, but you can still throw it."
}