{
  "itemKey": "medievalbookcaseswitch",
  "itemName": "Medieval Bookcase Switch",
  "iconFile": "medievalbookcaseswitch.png",
  "price": 170,
  "rarity": "Common",
  "category": "wire",
  "maxStack": 0,
  "foodValue": 0.0,
  "rottingMultiplier": 0.0,
  "printable": true,
  "colonyTags": [
    "glitch",
    "glitchvillage",
    "knowledge",
    "storage",
    "wired"
  ],
  "race": "glitch",
  "description": "One of these books looks out of place... I wonder...",
  "apexDescription": "Some of these books don\u0027t look quite right.",
  "avianDescription": "A dusty old home for books. Some of them don\u0027t look real...",
  "floranDescription": "Old and dusssty books. Those oness look sstrange.",
  "glitchDescription": "Suspicious. Some of the books appear to be placed strangely.",
  "humanDescription": "I wonder how old some of these books are. Those ones aren\u0027t the same as the others...",
  "hylotlDescription": "There\u0027s definitely something strange about this bookcase.",
  "novakidDescription": "I got a hunch there\u0027s somethin up with these books!"
}