{
  "itemKey": "mercenaryhead",
  "itemName": "Mercenary\u0027s Helm",
  "iconFile": "mercenaryhead.png",
  "price": 480,
  "rarity": "Common",
  "category": "headwear",
  "maxStack": 1,
  "foodValue": 0.0,
  "rottingMultiplier": 0.0,
  "printable": true,
  "description": "Dependable armour is a merc\u0027s best friend."
}