{
  "itemKey": "mercenarychest",
  "itemName": "Mercenary\u0027s Breastplate",
  "iconFile": "mercenarychest.png",
  "price": 800,
  "rarity": "Common",
  "category": "chestwear",
  "maxStack": 1,
  "foodValue": 0.0,
  "rottingMultiplier": 0.0,
  "printable": true,
  "description": "A solid breastplate without the frills."
}