{
  "itemKey": "mercenarylegs",
  "itemName": "Mercenary\u0027s Greaves",
  "iconFile": "mercenarylegs.png",
  "price": 320,
  "rarity": "Common",
  "category": "legwear",
  "maxStack": 1,
  "foodValue": 0.0,
  "rottingMultiplier": 0.0,
  "printable": true,
  "description": "A mercenary cares little for fashion."
}