{
  "itemKey": "mercurymodel",
  "itemName": "Mercury Model",
  "iconFile": "mercurymodel.png",
  "price": 25,
  "rarity": "Common",
  "category": "decorative",
  "maxStack": 0,
  "foodValue": 0.0,
  "rottingMultiplier": 0.0,
  "printable": false,
  "colonyTags": [
    "astronaut"
  ],
  "race": "generic",
  "description": "A detailed model of the Sol system\u0027s smallest planet, Mercury.",
  "apexDescription": "Mercury is the first planet in the Sol System and is gravitationally locked leading to extremely long days.",
  "avianDescription": "Mercury, the first planet in the Sol System. Named after an ancient Earth god of commerce known for swiftness.",
  "floranDescription": "Sssmall planet in the Sol Sssystem. The closest to the sun. Inhossspitable.",
  "glitchDescription": "Fascinated. Mercury\u0027s day length is almost 59 Earth-days long and it\u0027s year length about 88 Earth-days.",
  "humanDescription": "It\u0027s the smallest planet in my home system and the closest to the Sun.",
  "hylotlDescription": "The planet Mercury. Besides being a Sol System planet it\u0027s perhaps best known for a series of horrible mining accidents some decades ago.",
  "novakidDescription": "Mercury is a tiny, varmint of a planet in the Sol System."
}