{
  "itemKey": "metalbarrel2b",
  "itemName": "Radioactive Barrel",
  "iconFile": "metalbarrel2b.png",
  "price": 55,
  "rarity": "Common",
  "category": "decorative",
  "maxStack": 0,
  "foodValue": 0.0,
  "rottingMultiplier": 0.0,
  "printable": true,
  "colonyTags": [
    "human",
    "humanbunker",
    "storage"
  ],
  "race": "generic",
  "description": "A barrel full of radioactive material.",
  "apexDescription": "A metal barrel. Judging by the symbol it\u0027s best not to open it.",
  "avianDescription": "Metal container. I can\u0027t get into it. What does the symbol mean?",
  "floranDescription": "Round metal cube. No door. Thiss metal tastesss funny.",
  "glitchDescription": "Fearful. The label on this barrel suggests it contains radioactive material.",
  "humanDescription": "A sealed metal drum with questionable contents.",
  "hylotlDescription": "Metal container. It\u0027s closed. I wonder what\u0027s inside.",
  "novakidDescription": "A sealed metal barrel. I don\u0027t want to open it."
}