{
  "itemKey": "meteoriterock",
  "itemName": "Meteorite Rock",
  "iconFile": "meteoriterock.png",
  "price": 0,
  "rarity": "Common",
  "category": "block",
  "maxStack": 0,
  "foodValue": 0.0,
  "rottingMultiplier": 0.0,
  "printable": true,
  "description": "An extremely hard rock found just outside the atmosphere."
}