{
  "itemKey": "microformertar",
  "itemName": "Tarry Microformer",
  "iconFile": "microformertar.png",
  "price": 3000,
  "rarity": "Legendary",
  "category": "terraformer",
  "maxStack": 0,
  "foodValue": 0.0,
  "rottingMultiplier": 0.0,
  "printable": false,
  "colonyTags": [],
  "race": "ancient",
  "description": "Transforms an area of a planet into a morass of sticky tar."
}