{
  "itemKey": "miniknogintel1",
  "itemName": "Miniknog Intel Display",
  "iconFile": "miniknogintel1.png",
  "price": 360,
  "rarity": "Rare",
  "category": "decorative",
  "maxStack": 0,
  "foodValue": 0.0,
  "rottingMultiplier": 0.0,
  "printable": false,
  "colonyTags": [
    "apex",
    "apexresearchlab",
    "electronic"
  ],
  "race": "apex",
  "description": "A display cycling through information about Miniknog strongholds.",
  "apexDescription": "This display appears to show information on various Miniknog strongholds.",
  "avianDescription": "This screen shows some information on Apex political strongholds. Is that the face of Big Ape?",
  "floranDescription": "Glass shows wordss and picturesss.",
  "glitchDescription": "Fascinated. This display is cycling through information on Apex military locations.",
  "humanDescription": "This screen appears to cycle through lots of Miniknog intel - it also has a picture of Big Ape\u0027s big face!",
  "hylotlDescription": "This screen encapsulates cold blue words describing valuable information about the Miniknog.",
  "novakidDescription": "This screen appears t\u0027have a buncha military intel and a planet. Purdy neat."
}