{
  "itemKey": "miningpowersign",
  "itemName": "Power Sign",
  "iconFile": "miningpowersign.png",
  "price": 60,
  "rarity": "Common",
  "category": "light",
  "maxStack": 0,
  "foodValue": 0.0,
  "rottingMultiplier": 0.0,
  "printable": true,
  "colonyTags": [
    "human",
    "lunarbase",
    "electronic"
  ],
  "race": "generic",
  "description": "A sign that says either offline or online.",
  "apexDescription": "A red glowing sign.",
  "avianDescription": "A simplistic electronic",
  "floranDescription": "Sssome sort of sssign.",
  "glitchDescription": "Observant. This low power sign has two states.",
  "humanDescription": "A very informal sign.",
  "hylotlDescription": "A soft glowing sign.",
  "novakidDescription": "A straight to the point kind o\u0027 sign. I can appreciate that."
}