{
  "itemKey": "minidronerack",
  "itemName": "Minidrone Intel Rack",
  "iconFile": "minidronerack.png",
  "price": 450,
  "rarity": "Rare",
  "category": "decorative",
  "maxStack": 0,
  "foodValue": 0.0,
  "rottingMultiplier": 0.0,
  "printable": false,
  "colonyTags": [
    "apex",
    "apexresearchlab",
    "electronic"
  ],
  "race": "apex",
  "description": "A computer displaying information downloaded from the drone on top.",
  "apexDescription": "This computer appears to be downloading data from a Miniknog surveillance drone.",
  "avianDescription": "This computer is attached to the robotic drone. I wonder what information it has found from it?",
  "floranDescription": "Computer sscreen showing thingsss from machine.",
  "glitchDescription": "Enticed. This computer display is showing information from the small robot it is attached to.",
  "humanDescription": "This computer is hooked up to the drone on top. I wonder who made it, and what information can be found from it?",
  "hylotlDescription": "This computer is cycling through curious data from the small silver drone it is attached to.",
  "novakidDescription": "I wonder what this here set up is fixin\u0027 to do?"
}