{
  "itemKey": "miningsupplies",
  "itemName": "Mining Supplies Crate",
  "iconFile": "miningsupplies.png",
  "price": 100,
  "rarity": "Common",
  "category": "storage",
  "maxStack": 0,
  "foodValue": 0.0,
  "rottingMultiplier": 0.0,
  "printable": true,
  "colonyTags": [
    "mining",
    "storage"
  ],
  "race": "generic",
  "description": "An old crate of Mining supplies - For every budding Miner!",
  "apexDescription": "I think these tools have degraded too much to use.",
  "avianDescription": "There\u0027s an old rusty smell coming from within this.",
  "floranDescription": "Floran wantsss to hide in old box!",
  "glitchDescription": "Intrigued. I wonder what kind of person made this.",
  "humanDescription": "Hi-Ho!",
  "hylotlDescription": "These tools are hand-crafted. I approve of this level of commitment.",
  "novakidDescription": "This ol\u0027 box is full o\u0027 tools for diggin\u0027."
}