{
  "itemKey": "miningbelt",
  "itemName": "Mining Conveyer Belt",
  "iconFile": "miningbelt.png",
  "price": 80,
  "rarity": "Common",
  "category": "decorative",
  "maxStack": 0,
  "foodValue": 0.0,
  "rottingMultiplier": 0.0,
  "printable": true,
  "colonyTags": [
    "human",
    "lunarbase",
    "mechanical",
    "mining"
  ],
  "race": "human",
  "description": "A machine used to move large amounts of mined material.",
  "apexDescription": "A Conveyer Belt, for moving heavy loads a short distance.",
  "avianDescription": "A Conveyer Belt, currently not moving.",
  "floranDescription": "Floran bored of fencesss.",
  "glitchDescription": "Indifferent. The conveyer belt is seemingly nonfunctional.",
  "humanDescription": "A short Conveyer Belt for moving heavy loads.",
  "hylotlDescription": "An uninteresting human construct.",
  "novakidDescription": "A device for carryin\u0027 heavy things from one place to another."
}