{
  "itemKey": "mirror",
  "itemName": "Mirror Block",
  "iconFile": "mirror.png",
  "price": 0,
  "rarity": "Common",
  "category": "block",
  "maxStack": 0,
  "foodValue": 0.0,
  "rottingMultiplier": 0.0,
  "printable": true,
  "description": "A non-reflective mirror.",
  "floranDescription": "Ssshiny ssurface.",
  "glitchDescription": "Confused. Though it appears to be a mirror there is no reflection.",
  "novakidDescription": "Somethin\u0027 wrong with this mirror. I ain\u0027t seein\u0027 nothin\u0027 reflected."
}