{
  "itemKey": "modernplatform",
  "itemName": "Modern Platform",
  "iconFile": "modernplatform.png",
  "price": 0,
  "rarity": "Common",
  "category": "platform",
  "maxStack": 0,
  "foodValue": 0.0,
  "rottingMultiplier": 0.0,
  "printable": true,
  "description": "Made from a modern material, this platform is smooth to the touch."
}