{
  "itemKey": "molotov",
  "itemName": "Molotov",
  "iconFile": "molotov.png",
  "price": 40,
  "rarity": "Common",
  "category": "throwableItem",
  "maxStack": 0,
  "foodValue": 0.0,
  "rottingMultiplier": 0.0,
  "printable": true,
  "description": "The liquid in this bottle is highly flammable."
}