{
  "itemKey": "moneybagspants",
  "itemName": "Moneybags Trousers",
  "iconFile": "moneybagspants.png",
  "price": 5000,
  "rarity": "Legendary",
  "category": "legwear",
  "maxStack": 1,
  "foodValue": 0.0,
  "rottingMultiplier": 0.0,
  "printable": true,
  "description": "These fancy tux trousers let you step out in style."
}