{
  "itemKey": "moneybagschest",
  "itemName": "Moneybags Tux",
  "iconFile": "moneybagschest.png",
  "price": 5000,
  "rarity": "Legendary",
  "category": "chestwear",
  "maxStack": 1,
  "foodValue": 0.0,
  "rottingMultiplier": 0.0,
  "printable": true,
  "description": "A fancy tux, perfect for the prom."
}