{
  "itemKey": "monolithstatue1",
  "itemName": "Monolith Statue",
  "iconFile": "monolithstatue1.png",
  "price": 0,
  "rarity": "Legendary",
  "category": "decorative",
  "maxStack": 0,
  "foodValue": 0.0,
  "rottingMultiplier": 0.0,
  "printable": false,
  "colonyTags": [
    "ancient"
  ],
  "race": "ancient",
  "description": "A mysterious ancient statue.",
  "apexDescription": "This statue seems to exist to deliver a message from long ago.",
  "avianDescription": "A grand depiction of a being. Perhaps a false god of old?",
  "floranDescription": "Floran tempted to draw sssilly face on statue!",
  "glitchDescription": "Curious. Does this statue exist to deliver a message?",
  "humanDescription": "I like my ancient ruins with giant ancient statues!",
  "hylotlDescription": "Crude but distinct in design. A Hylotl statue would have aged better.",
  "novakidDescription": "An old statue, like a ghost of the past, stirrin\u0027 memories long gone."
}