{
  "itemKey": "monsterspawner",
  "itemName": "Monster Spawner",
  "iconFile": "monsterspawner.png",
  "price": 133,
  "rarity": "Common",
  "category": "spawner",
  "maxStack": 0,
  "foodValue": 0.0,
  "rottingMultiplier": 0.0,
  "printable": false,
  "colonyTags": [
    "misc"
  ],
  "race": "human",
  "description": "Spawns monsters in a variety of configurable ways."
}