{
  "itemKey": "mooshiegg",
  "itemName": "Mooshi Egg",
  "iconFile": "mooshiegg.png",
  "price": 2000,
  "rarity": "Rare",
  "category": "farmBeastEgg",
  "maxStack": 0,
  "foodValue": 0.0,
  "rottingMultiplier": 0.0,
  "printable": false,
  "colonyTags": [],
  "race": "generic",
  "description": "Hatches into a mooshi calf, which grows into an adult mooshi. Mooshi produce milk.",
  "apexDescription": "The egg of a mooshi. Adult mooshi produce milk. Milk is good for your fur.",
  "avianDescription": "This egg has a mooshi calf inside.",
  "floranDescription": "Floran can\u0027t wait \u0027til mooshi egg hatchess!",
  "glitchDescription": "Pleased. A Mooshi egg! Mooshi milk is very nutritious.",
  "humanDescription": "Mooshi egg! Please hatch little egg.",
  "hylotlDescription": "There is an infant mooshi inside this egg.",
  "novakidDescription": "This here\u0027s a mooshi egg. You want milk, you better get a mooshi."
}