{
  "itemKey": "movingsunflower",
  "itemName": "Moving Sunflower",
  "iconFile": "movingsunflower.png",
  "price": 65,
  "rarity": "Common",
  "category": "decorative",
  "maxStack": 0,
  "foodValue": 0.0,
  "rottingMultiplier": 0.0,
  "printable": false,
  "colonyTags": [
    "spring",
    "nature",
    "pretty"
  ],
  "race": "apex",
  "description": "A sunflower who\u0027s just looking for the sun.",
  "apexDescription": "This big sunflower seems to be lost.",
  "avianDescription": "I want to help this flower to find a sun.",
  "floranDescription": "Sssunflower.",
  "glitchDescription": "Worried. This flower is looking for something, or someone.",
  "humanDescription": "A big sunflower. Obviously it is looking for the sun.",
  "hylotlDescription": "A big yellow flower. It moves when I touch it.",
  "novakidDescription": "This flower has a restless soul. I see you, buddy."
}