{
  "itemKey": "mughathead",
  "itemName": "Mug Hat",
  "iconFile": "mughathead.png",
  "price": 5000,
  "rarity": "Legendary",
  "category": "headwear",
  "maxStack": 1,
  "foodValue": 0.0,
  "rottingMultiplier": 0.0,
  "printable": true,
  "description": "A mug hat filled with something mysterious!"
}