{
  "itemKey": "mushroomquiche",
  "itemName": "Mushroom Quiche",
  "iconFile": "mushroomquiche.png",
  "price": 170,
  "rarity": "Common",
  "category": "preparedFood",
  "maxStack": 1,
  "foodValue": 45.0,
  "rottingMultiplier": 1.0,
  "printable": true,
  "description": "A cheesy quiche packed full of fresh mushrooms."
}