{
  "itemKey": "mutantminerhead",
  "itemName": "Mutant Miner\u0027s Helmet",
  "iconFile": "mutantminerhead.png",
  "price": 0,
  "rarity": "Common",
  "category": "headwear",
  "maxStack": 1,
  "foodValue": 0.0,
  "rottingMultiplier": 0.0,
  "printable": true,
  "description": "A slimy helmet which makes you look like a Moontant."
}