{
  "itemKey": "neonhologram",
  "itemName": "Neon Hologram",
  "iconFile": "neonhologram.png",
  "price": 250,
  "rarity": "Uncommon",
  "category": "wire",
  "maxStack": 0,
  "foodValue": 0.0,
  "rottingMultiplier": 0.0,
  "printable": true,
  "colonyTags": [
    "neon",
    "light"
  ],
  "race": "generic",
  "description": "A magenta hologram of a palm tree.",
  "apexDescription": "This is an impressively rendered tree... But it\u0027s unfortunate that holograms can only be a single colour.",
  "avianDescription": "A tree that hangs in the air, a formation of light frozen in space! How wonderful.",
  "floranDescription": "Floran seesss a tree, but cannot smell it. Sssuspicious.",
  "glitchDescription": "Impressed. This tree is made of light, but it has such a sense of presence...",
  "humanDescription": "Holographic trees! Who needs to go on a beachside getaway?",
  "hylotlDescription": "Artificial depictions of nature are no match for the real thing.",
  "novakidDescription": "This is a mighty neat invention!"
}