{
  "itemKey": "novatier5achest",
  "itemName": "Bandito\u0027s Poncho",
  "iconFile": "novatier5achest.png",
  "price": 4800,
  "rarity": "Rare",
  "category": "chestarmour",
  "maxStack": 1,
  "foodValue": 0.0,
  "rottingMultiplier": 0.0,
  "printable": true,
  "description": "A mysterious poncho for mysterious purposes."
}