{
  "itemKey": "novatier1pants",
  "itemName": "Deputy\u0027s Slacks",
  "iconFile": "novatier1pants.png",
  "price": 320,
  "rarity": "Common",
  "category": "legarmour",
  "maxStack": 1,
  "foodValue": 0.0,
  "rottingMultiplier": 0.0,
  "printable": true,
  "description": "Simple yet stylish deputy\u0027s slacks."
}