{
  "itemKey": "novatier5mchest",
  "itemName": "Bonesaw\u0027s Coat",
  "iconFile": "novatier5mchest.png",
  "price": 4800,
  "rarity": "Rare",
  "category": "chestarmour",
  "maxStack": 1,
  "foodValue": 0.0,
  "rottingMultiplier": 0.0,
  "printable": true,
  "description": "A bonesaw\u0027s coat. Menacing yet elegant."
}