{
  "itemKey": "novakidfancypants",
  "itemName": "Gunslinger Pants",
  "iconFile": "novakidfancypants.png",
  "price": 35,
  "rarity": "Common",
  "category": "legwear",
  "maxStack": 1,
  "foodValue": 0.0,
  "rottingMultiplier": 0.0,
  "printable": true,
  "description": "Comfy and casual. Brilliant for blending into a crowd."
}