{
  "itemKey": "novakidteleporterTier0",
  "itemName": "Teleporter",
  "iconFile": "novakidteleporterTier0.png",
  "price": 0,
  "rarity": "Common",
  "category": "decorative",
  "maxStack": 0,
  "foodValue": 0.0,
  "rottingMultiplier": 0.0,
  "printable": false,
  "colonyTags": [
    "novakid"
  ],
  "race": "novakid",
  "description": "Trusty teleporter, what would we do without you?",
  "apexDescription": "The ship\u0027s teleporter. I need to power it up.",
  "avianDescription": "The teleporter! If only this one was powered up.",
  "floranDescription": "Ship teleporter. This one dead.",
  "glitchDescription": "Disappointed. A teleporter without power. I need to power it up.",
  "humanDescription": "The teleporter! Too bad it isn\u0027t powered up.",
  "hylotlDescription": "This teleporter is off.",
  "novakidDescription": "Ship\u0027s teleporter. I need to power her up!"
}