{
  "itemKey": "npcbow",
  "itemName": "NPC Bow",
  "iconFile": "npcbow.png",
  "price": 0,
  "rarity": "Common",
  "category": "bow",
  "maxStack": 1,
  "foodValue": 0.0,
  "rottingMultiplier": 0.0,
  "printable": true,
  "description": "Harvests meat and other goods from monsters."
}