{
  "itemKey": "npchammer",
  "itemName": "NPC Hammer",
  "price": 0,
  "rarity": "Common",
  "category": "hammer",
  "maxStack": 1,
  "foodValue": 0.0,
  "rottingMultiplier": 0.0,
  "printable": true,
  "description": "Slow, heavy and effective."
}