{
  "itemKey": "npcpetcapturepod",
  "itemName": "Filled Capture Pod",
  "iconFile": "npcpetcapturepod.png",
  "price": 0,
  "rarity": "Common",
  "category": "throwableItem",
  "maxStack": 1,
  "foodValue": 0.0,
  "rottingMultiplier": 0.0,
  "printable": true,
  "description": "Throw it down to release the creature captured inside!"
}