{
  "itemKey": "number6",
  "itemName": "Six",
  "iconFile": "number6.png",
  "price": 20,
  "rarity": "Common",
  "category": "decorative",
  "maxStack": 0,
  "foodValue": 0.0,
  "rottingMultiplier": 0.0,
  "printable": false,
  "colonyTags": [
    "outpost"
  ],
  "race": "generic",
  "description": "Six marker.",
  "apexDescription": "Six.",
  "avianDescription": "Six.",
  "floranDescription": "Number sssix.",
  "glitchDescription": "Neutral. Six.",
  "humanDescription": "Six.",
  "hylotlDescription": "Six.",
  "novakidDescription": "A six."
}