{
  "itemKey": "number2",
  "itemName": "Two",
  "iconFile": "number2.png",
  "price": 20,
  "rarity": "Common",
  "category": "decorative",
  "maxStack": 0,
  "foodValue": 0.0,
  "rottingMultiplier": 0.0,
  "printable": false,
  "colonyTags": [
    "outpost"
  ],
  "race": "generic",
  "description": "Two marker.",
  "apexDescription": "Two.",
  "avianDescription": "Two.",
  "floranDescription": "Sssnakey two.",
  "glitchDescription": "Neutral. Two.",
  "humanDescription": "A number two. Hehe.",
  "hylotlDescription": "Two.",
  "novakidDescription": "A two."
}