{
  "itemKey": "number7",
  "itemName": "Seven",
  "iconFile": "number7.png",
  "price": 20,
  "rarity": "Common",
  "category": "decorative",
  "maxStack": 0,
  "foodValue": 0.0,
  "rottingMultiplier": 0.0,
  "printable": false,
  "colonyTags": [
    "outpost"
  ],
  "race": "generic",
  "description": "Seven marker.",
  "apexDescription": "Seven.",
  "avianDescription": "Seven.",
  "floranDescription": "Ssseven.",
  "glitchDescription": "Neutral. Seven.",
  "humanDescription": "Seven.",
  "hylotlDescription": "Seven.",
  "novakidDescription": "A seven."
}