{
  "itemKey": "number1",
  "itemName": "One",
  "iconFile": "number1.png",
  "price": 20,
  "rarity": "Common",
  "category": "decorative",
  "maxStack": 0,
  "foodValue": 0.0,
  "rottingMultiplier": 0.0,
  "printable": false,
  "colonyTags": [
    "outpost"
  ],
  "race": "generic",
  "description": "One marker.",
  "apexDescription": "One.",
  "avianDescription": "One.",
  "floranDescription": "Pointy one.",
  "glitchDescription": "Neutral. One.",
  "humanDescription": "One.",
  "hylotlDescription": "One.",
  "novakidDescription": "A one."
}