{
  "itemKey": "numiposter",
  "itemName": "Numi Poster",
  "iconFile": "numiposter.png",
  "price": 70,
  "rarity": "Common",
  "category": "decorative",
  "maxStack": 0,
  "foodValue": 0.0,
  "rottingMultiplier": 0.0,
  "printable": true,
  "colonyTags": [
    "hylotl",
    "hylotloceancity",
    "pretty"
  ],
  "race": "hylotl",
  "description": "A poster displaying Numi, mascot from a Hylotl children\u0027s cartoon.",
  "apexDescription": "What\u0027s a Numi? Some sort of cartoon character?",
  "avianDescription": "Numi? It looks a little like a cross between a Hylotl and a bear. Chilling...",
  "floranDescription": "Sssome fishman cartoon.",
  "glitchDescription": "Disinterested. It\u0027s an advertisement for a children\u0027s cartoon.",
  "humanDescription": "Numi appears to be a mascot for a Hylotl children\u0027s cartoon.",
  "hylotlDescription": "Ahh, I\u0027m admittedly tired of seeing Numi everywhere.",
  "novakidDescription": "Some kids cartoon character."
}