{
  "itemKey": "nutmidgeaf",
  "itemName": "Nutmidge Figurine",
  "iconFile": "nutmidgeaf.png",
  "price": 5000,
  "rarity": "Legendary",
  "category": "actionFigure",
  "maxStack": 0,
  "foodValue": 0.0,
  "rottingMultiplier": 0.0,
  "printable": false,
  "colonyTags": [
    "pretty"
  ],
  "description": "The label reads, \"The king nutmidgeling is the only one whose head tuft hasn\u0027t been trampled to death.\""
}