{
  "itemKey": "nylonguitar",
  "itemName": "Nylon Guitar",
  "iconFile": "nylonguitar.png",
  "price": 3000,
  "rarity": "Common",
  "category": "musicalInstrument",
  "maxStack": 1,
  "foodValue": 0.0,
  "rottingMultiplier": 0.0,
  "printable": true,
  "description": "A nylon guitar. It gently weeps."
}