{
  "itemKey": "oceansalsa",
  "itemName": "Ocean Salsa",
  "iconFile": "oceansalsa.png",
  "price": 665,
  "rarity": "Uncommon",
  "category": "preparedFood",
  "maxStack": 1,
  "foodValue": 60.0,
  "rottingMultiplier": 1.0,
  "printable": true,
  "description": "A refreshing salsa made from tropical and ocean fruits."
}