{
  "itemKey": "oceanrisotto",
  "itemName": "Ocean Risotto",
  "iconFile": "oceanrisotto.png",
  "price": 290,
  "rarity": "Uncommon",
  "category": "preparedFood",
  "maxStack": 1,
  "foodValue": 50.0,
  "rottingMultiplier": 1.0,
  "printable": true,
  "description": "A salty and aromatic rice dish."
}