{
  "itemKey": "oculemonstew",
  "itemName": "Oculemon Stew",
  "iconFile": "oculemonstew.png",
  "price": 515,
  "rarity": "Uncommon",
  "category": "preparedFood",
  "maxStack": 1,
  "foodValue": 65.0,
  "rottingMultiplier": 1.0,
  "printable": true,
  "description": "A tangy, somewhat slimy stew made of oculemon and meat scraps."
}