{
  "itemKey": "officescanner",
  "itemName": "Office Scanner",
  "iconFile": "officescanner.png",
  "price": 70,
  "rarity": "Common",
  "category": "decorative",
  "maxStack": 0,
  "foodValue": 0.0,
  "rottingMultiplier": 0.0,
  "printable": true,
  "colonyTags": [
    "office",
    "misc"
  ],
  "race": "generic",
  "description": "A tall antiquated device used for assisting in paperwork.",
  "apexDescription": "This machine says multi-function, but I don\u0027t understand what it does.",
  "avianDescription": "This large machine must be very powerful - it says all-in-one.",
  "floranDescription": "Big machine makesss funny noisesss.",
  "glitchDescription": "Fascinated. This machine has ports designed to connect to an ancient human communication network.",
  "humanDescription": "The display on this machine says paper jam.",
  "hylotlDescription": "There are so many buttons on this machine!",
  "novakidDescription": "This thing looks complicated - I can\u0027t figure out what it\u0027s all about."
}