{
  "itemKey": "opensign",
  "itemName": "Neon Open Sign",
  "iconFile": "opensign.png",
  "price": 90,
  "rarity": "Common",
  "category": "decorative",
  "maxStack": 0,
  "foodValue": 0.0,
  "rottingMultiplier": 0.0,
  "printable": true,
  "colonyTags": [
    "hylotl",
    "hylotloceancity",
    "pretty",
    "commerce"
  ],
  "race": "hylotl",
  "description": "A neon \"open\" sign.",
  "apexDescription": "A bright neon \"open\" sign.",
  "avianDescription": "An \"open\" sign.",
  "floranDescription": "Thiss place is open?",
  "glitchDescription": "Disinterested. An \"open\" sign.",
  "humanDescription": "A neon \"open\" sign.",
  "hylotlDescription": "A sign indicating whether or not this place is open.",
  "novakidDescription": "An \"open\" sign."
}