{
  "itemKey": "orangestim",
  "itemName": "Orange Stim Pack",
  "iconFile": "orangestim.png",
  "price": 20,
  "rarity": "Common",
  "category": "medicine",
  "maxStack": 0,
  "foodValue": 0.0,
  "rottingMultiplier": 0.0,
  "printable": true,
  "description": "A stimpack full of orange liquid, it will get you all fired up!"
}