{
  "itemKey": "oredetector",
  "itemName": "Ore Detector",
  "iconFile": "oredetector.png",
  "price": 2500,
  "rarity": "legendary",
  "category": "Tool",
  "maxStack": 1,
  "foodValue": 0.0,
  "rottingMultiplier": 0.0,
  "printable": true,
  "description": "Emits pulses to analyse the composition of nearby minerals."
}