{
  "itemKey": "ornatetorch",
  "itemName": "Ornate Lantern",
  "iconFile": "ornatetorch.png",
  "price": 85,
  "rarity": "Common",
  "category": "light",
  "maxStack": 0,
  "foodValue": 0.0,
  "rottingMultiplier": 0.0,
  "printable": true,
  "colonyTags": [
    "hylotl",
    "hylotlvillage",
    "light"
  ],
  "race": "hylotl",
  "description": "This ornate lamp flickers softly.",
  "apexDescription": "An exotic design for a rather simple lamp.",
  "avianDescription": "Too hot to touch.",
  "floranDescription": "Pretty flamesss insside.",
  "glitchDescription": "Pleased. This lantern has been delicately crafted.",
  "humanDescription": "A rather pretty oil lamp.",
  "hylotlDescription": "The finest craftsmanship, a reliable source of light.",
  "novakidDescription": "That lamp is real pretty."
}