{
  "itemKey": "oshroom4",
  "itemName": "Glowing Oshroom",
  "iconFile": "oshroom4.png",
  "price": 0,
  "rarity": "Common",
  "category": "light",
  "maxStack": 0,
  "foodValue": 0.0,
  "rottingMultiplier": 0.0,
  "printable": false,
  "colonyTags": [
    "ocean"
  ],
  "race": "generic",
  "description": "A glowing oshroom.",
  "apexDescription": "I can\u0027t tell whether this is a fruit, vegetable or fungus.",
  "avianDescription": "These plants light the ocean\u0027s depths like tiny, gentle suns.",
  "floranDescription": "Pretty! Floran cannot glow on command. Would be ssso useful...",
  "glitchDescription": "Approving. Another fine example of natural bioluminescence.",
  "humanDescription": "Some kind of ocean mushroom... an oshroom?",
  "hylotlDescription": "Yet another example of the ocean\u0027s delicate beauty.",
  "novakidDescription": "Wonder if we\u0027re made of the same stuff, lil\u0027 glowing plant."
}