{
  "itemKey": "outhouse",
  "itemName": "Outhouse",
  "iconFile": "outhouse.png",
  "price": 125,
  "rarity": "Common",
  "category": "furniture",
  "maxStack": 0,
  "foodValue": 0.0,
  "rottingMultiplier": 0.0,
  "printable": true,
  "colonyTags": [
    "glitch",
    "glitchvillage"
  ],
  "race": "glitch",
  "description": "An outhouse! Enjoy!",
  "apexDescription": "An outhouse. I guess I do need to go.",
  "avianDescription": "A run-down outhouse.",
  "floranDescription": "Floran like little sssmelly house.",
  "glitchDescription": "Repulsed. This building contains an incalculable number of germs.",
  "humanDescription": "You used to find toilets like these at music festivals.",
  "hylotlDescription": "A grotesque outhouse.",
  "novakidDescription": "I got a feelin\u0027 this ain\u0027t just an outhouse."
}