{
  "itemKey": "outpostwall1",
  "itemName": "Outpost Concrete",
  "iconFile": "outpostwall1.png",
  "price": 0,
  "rarity": "Common",
  "category": "block",
  "maxStack": 0,
  "foodValue": 0.0,
  "rottingMultiplier": 0.0,
  "printable": true,
  "description": "Dark concrete specially designed for outposts."
}