{
  "itemKey": "outpostconsole",
  "itemName": "Free Standing Console",
  "iconFile": "outpostconsole.png",
  "price": 125,
  "rarity": "Common",
  "category": "wire",
  "maxStack": 0,
  "foodValue": 0.0,
  "rottingMultiplier": 0.0,
  "printable": true,
  "colonyTags": [
    "outpost",
    "wired"
  ],
  "race": "generic",
  "description": "A control console.",
  "apexDescription": "A control console for some unknown thing.",
  "avianDescription": "A control console.",
  "floranDescription": "Floran can use thisss... But not sure what for.",
  "glitchDescription": "Concerned. I cannot determine what this console is used for.",
  "humanDescription": "A console. I can turn it on and off again.",
  "hylotlDescription": "A console for something unknown.",
  "novakidDescription": "If I press enough buttons it might do somethin\u0027."
}