{
  "itemKey": "outpostmicrowave",
  "itemName": "Microwave Oven",
  "iconFile": "outpostmicrowave.png",
  "price": 70,
  "rarity": "Common",
  "category": "crafting",
  "maxStack": 0,
  "foodValue": 0.0,
  "rottingMultiplier": 0.0,
  "printable": true,
  "colonyTags": [
    "outpost",
    "cooking"
  ],
  "race": "generic",
  "description": "A microwave. For when you\u0027re hungry enough to nuke your food.",
  "apexDescription": "A type of oven.",
  "avianDescription": "A bizarre cooking device.",
  "floranDescription": "Floran likess raw meat, sssometimes cooked meat is good too.",
  "glitchDescription": "Irked. It is encrusted with spattered food, who left it in this state?",
  "humanDescription": "A microwave. Gotta get me some jacket potatoes.",
  "hylotlDescription": "A strange, spinning oven.",
  "novakidDescription": "This lil\u0027 rotatin\u0027 oven cooks food at speed!"
}