{
  "itemKey": "outpostpc",
  "itemName": "Desktop PC",
  "iconFile": "outpostpc.png",
  "price": 50,
  "rarity": "Common",
  "category": "decorative",
  "maxStack": 0,
  "foodValue": 0.0,
  "rottingMultiplier": 0.0,
  "printable": true,
  "colonyTags": [
    "outpost",
    "electronic"
  ],
  "race": "generic",
  "description": "A computer. Probably quite a good one.",
  "apexDescription": "A computer.",
  "avianDescription": "A strange computer.",
  "floranDescription": "Floran has little use for thiss.",
  "glitchDescription": "Envious. A high-powered computer.",
  "humanDescription": "A sweet rig.",
  "hylotlDescription": "Other species\u0027 over reliance on technology saddens me.",
  "novakidDescription": "I betcha\u0027 this thing could look up anythin\u0027!"
}