{
  "itemKey": "outpostgenerator",
  "itemName": "Power Generator",
  "iconFile": "outpostgenerator.png",
  "price": 165,
  "rarity": "Common",
  "category": "decorative",
  "maxStack": 0,
  "foodValue": 0.0,
  "rottingMultiplier": 0.0,
  "printable": true,
  "colonyTags": [
    "outpost",
    "mechanical"
  ],
  "race": "generic",
  "description": "A handy power generator.",
  "apexDescription": "A power generator.",
  "avianDescription": "It\u0027s a power generator.",
  "floranDescription": "This makess power.",
  "glitchDescription": "Cheery. This generates enough power for everybody.",
  "humanDescription": "A generator. Hope there\u0027s a back-up one too.",
  "hylotlDescription": "A crude power generator.",
  "novakidDescription": "This thing generates power."
}