{
  "itemKey": "painttool",
  "itemName": "Paint Mode",
  "iconFile": "painttool.png",
  "price": 0,
  "rarity": "Essential",
  "category": "Tool",
  "maxStack": 1,
  "foodValue": 0.0,
  "rottingMultiplier": 0.0,
  "printable": true,
  "description": "Primary fire applies paint, secondary changes colour. ^green;Quick select with [Y] key."
}