{
  "itemKey": "paintgunyellow",
  "itemName": "Yellow Paintgun",
  "iconFile": "paintgunyellow.png",
  "price": 500,
  "rarity": "Uncommon",
  "category": "toy",
  "maxStack": 1,
  "foodValue": 0.0,
  "rottingMultiplier": 0.0,
  "printable": true,
  "description": "Makes it clear how yellow your targets are."
}