{
  "itemKey": "paintingapescream",
  "itemName": "Howler Monkey Painting",
  "iconFile": "paintingapescream.png",
  "price": 700,
  "rarity": "Rare",
  "category": "decorative",
  "maxStack": 0,
  "foodValue": 0.0,
  "rottingMultiplier": 0.0,
  "printable": false,
  "colonyTags": [
    "apex",
    "pretty",
    "valuable"
  ],
  "race": "apex",
  "description": "A haunting painting of a screaming Apex.",
  "apexDescription": "Is this another Miniknog forgery?",
  "avianDescription": "This is how it feels not to know about Kluex.",
  "floranDescription": "Floran sssee this face from everyone we hunt!",
  "glitchDescription": "Nervous. This Apex painting is disturbing.",
  "humanDescription": "Well this is definitely not the original.",
  "hylotlDescription": "This Apex painting should be calmer.",
  "novakidDescription": "This here Apex is freakin\u0027 out."
}