{
  "itemKey": "paintingapexpearlearring",
  "itemName": "Subtle Ape Painting",
  "iconFile": "paintingapexpearlearring.png",
  "price": 600,
  "rarity": "Rare",
  "category": "decorative",
  "maxStack": 0,
  "foodValue": 0.0,
  "rottingMultiplier": 0.0,
  "printable": false,
  "colonyTags": [
    "apex",
    "pretty",
    "valuable"
  ],
  "race": "apex",
  "description": "A portrait of an Apex with an earring.",
  "apexDescription": "A masterpiece, but this Apex appears to be wearing human clothing.",
  "avianDescription": "This Apex appears to be looking over her shoulder.",
  "floranDescription": "Apex looking over sshoulder, sssurprised! ",
  "glitchDescription": "Observant. This painting\u0027s style doesn\u0027t appear to match its age.",
  "humanDescription": "This painting seems familar, but somehow bothers me.",
  "hylotlDescription": "Beautiful technique, but I don\u0027t know about the subject matter.",
  "novakidDescription": "Nice paintin\u0027, but that\u0027s one strange lookin\u0027 dame."
}