{
  "itemKey": "paintgungreen",
  "itemName": "Green Paintgun",
  "iconFile": "paintgungreen.png",
  "price": 500,
  "rarity": "Uncommon",
  "category": "toy",
  "maxStack": 1,
  "foodValue": 0.0,
  "rottingMultiplier": 0.0,
  "printable": true,
  "description": "This paintgun will make others green with envy."
}