{
  "itemKey": "paintingapexpixellisa",
  "itemName": "Classic Ape Painting",
  "iconFile": "paintingapexpixellisa.png",
  "price": 700,
  "rarity": "Rare",
  "category": "decorative",
  "maxStack": 0,
  "foodValue": 0.0,
  "rottingMultiplier": 0.0,
  "printable": false,
  "colonyTags": [
    "apex",
    "pretty",
    "valuable"
  ],
  "race": "apex",
  "description": "A very famous portrait of a mysterious lady.",
  "apexDescription": "A classic portrait. So beautiful.",
  "avianDescription": "Wow, she\u0027s certainly something alright.",
  "floranDescription": "Floran want to sssteal painting and sssell on black market.",
  "glitchDescription": "Observant. This forgery is masterful.",
  "humanDescription": "She looks familiar, yet somehow... not.",
  "hylotlDescription": "Why would anyone want to immortalize this creature\u0027s hideous facade?",
  "novakidDescription": "Now that\u0027s one strange lookin\u0027 dame."
}