{
  "itemKey": "paperwingsback",
  "itemName": "Paper Wings",
  "iconFile": "paperwingsback.png",
  "price": 5000,
  "rarity": "Legendary",
  "category": "backwear",
  "maxStack": 1,
  "foodValue": 0.0,
  "rottingMultiplier": 0.0,
  "printable": true,
  "description": "Ornamental wings handmade from paper and wood. They\u0027re impractically heavy!"
}