{
  "itemKey": "paperplane",
  "itemName": "Paper Plane",
  "iconFile": "paperplane.png",
  "price": 400,
  "rarity": "Common",
  "category": "throwableItem",
  "maxStack": 0,
  "foodValue": 0.0,
  "rottingMultiplier": 0.0,
  "printable": true,
  "description": "A paper plane! Will it fly?"
}