{
  "itemKey": "parachutepackback",
  "itemName": "Parachute",
  "iconFile": "parachutepackback.png",
  "price": 5000,
  "rarity": "Legendary",
  "category": "backwear",
  "maxStack": 1,
  "foodValue": 0.0,
  "rottingMultiplier": 0.0,
  "printable": true,
  "description": "A parachute. No more freefalling!-NOT USED-"
}