{
  "itemKey": "paraspriteaf",
  "itemName": "Parasprite Figurine",
  "iconFile": "paraspriteaf.png",
  "price": 5000,
  "rarity": "Legendary",
  "category": "actionFigure",
  "maxStack": 0,
  "foodValue": 0.0,
  "rottingMultiplier": 0.0,
  "printable": false,
  "colonyTags": [
    "pretty"
  ],
  "description": "The label reads, \"A braindead bioweapon created by irresponsible human scientists.\""
}