{
  "itemKey": "parcel",
  "itemName": "Parcel",
  "iconFile": "parcel.png",
  "price": 0,
  "rarity": "Common",
  "category": "quest",
  "maxStack": 0,
  "foodValue": 0.0,
  "rottingMultiplier": 0.0,
  "printable": true,
  "description": "Somebody else\u0027s parcel, wrapped up nicely with ribbon!"
}