{
  "itemKey": "pastelchair",
  "itemName": "Pastel Chair",
  "iconFile": "pastelchair.png",
  "price": 90,
  "rarity": "Common",
  "category": "furniture",
  "maxStack": 0,
  "foodValue": 0.0,
  "rottingMultiplier": 0.0,
  "printable": false,
  "colonyTags": [
    "pastel"
  ],
  "race": "generic",
  "description": "A pastel coloured chair with a heart-shaped backrest.",
  "apexDescription": "The backrest on this chair is shaped like a heart. That\u0027s creative.",
  "avianDescription": "What a charming little chair!",
  "floranDescription": "Chair is nice coloursss.",
  "glitchDescription": "Surprised. The backrest on this chair is a heart... With a smaller heart on top!",
  "humanDescription": "This chair sure has a lot of hearts on it!",
  "hylotlDescription": "This chair features some very tropical colours. I like it.",
  "novakidDescription": "I ain\u0027t sure this chair is my thing, but I appreciate the attention t\u0027 detail on it."
}