{
  "itemKey": "pastelbunnyplush",
  "itemName": "Pastel Bunny Plushie",
  "iconFile": "pastelbunnyplush.png",
  "price": 60,
  "rarity": "Common",
  "category": "decorative",
  "maxStack": 0,
  "foodValue": 0.0,
  "rottingMultiplier": 0.0,
  "printable": false,
  "colonyTags": [
    "pastel"
  ],
  "race": "generic",
  "description": "A scented pink bunny plush toy.",
  "apexDescription": "This sickenly cute plush toy is also rose-scented.",
  "avianDescription": "This cute plush toy is actually rose-scented as well.",
  "floranDescription": "Tiny thing smellsss like rosessss. Floran approvesss.",
  "glitchDescription": "Enamoured. This plush toy is utterly adorable.",
  "humanDescription": "This pink bunny toy is so sickenly cute I want to punch it.",
  "hylotlDescription": "This plush toy actually smells like roses. That\u0027s a nice touch.",
  "novakidDescription": "Well ain\u0027t this the cutest thing?"
}