{
  "itemKey": "pathfinderchest",
  "itemName": "Pathfinder\u0027s Chestpiece",
  "iconFile": "pathfinderchest.png",
  "price": 4000,
  "rarity": "Uncommon",
  "category": "chestwear",
  "maxStack": 1,
  "foodValue": 0.0,
  "rottingMultiplier": 0.0,
  "printable": true,
  "description": "This armour is typically worn by scouts, tasked with exploring inhospitable environments."
}