{
  "itemKey": "peacekeeperstore1",
  "itemName": "Peacekeeper Store",
  "iconFile": "peacekeeperstore1.png",
  "price": 0,
  "rarity": "Uncommon",
  "category": "other",
  "maxStack": 0,
  "foodValue": 0.0,
  "rottingMultiplier": 0.0,
  "printable": false,
  "colonyTags": [
    "peacekeeper",
    "commerce"
  ],
  "race": "generic",
  "description": "A store for Peacekeeper supplies.",
  "apexDescription": "It would be wise to peruse the contents of this supply store.",
  "avianDescription": "A fellow Avian, helping the local community! Such a delight.",
  "floranDescription": "Floran wantssss new stuff.",
  "glitchDescription": "Eager. I wonder what supplies this store has?",
  "humanDescription": "I am glad that scrolling neon signs never went out of fashion.",
  "hylotlDescription": "This assistant appears to offer supplies.",
  "novakidDescription": "This lady seems mighty helpful!"
}