{
  "itemKey": "peacekeepertable",
  "itemName": "Peacekeeper Table",
  "iconFile": "peacekeepertable.png",
  "price": 40,
  "rarity": "Uncommon",
  "category": "furniture",
  "maxStack": 0,
  "foodValue": 0.0,
  "rottingMultiplier": 0.0,
  "printable": false,
  "colonyTags": [
    "commerce",
    "peacekeeper"
  ],
  "race": "generic",
  "description": "A very heavy, sturdy table made from metal.",
  "apexDescription": "This reinforced table could make for effective firefight cover in a pinch.",
  "avianDescription": "Someone has attempted to brighten up this table with a yellow stripe. I\u0027m not sure it has succeeded.",
  "floranDescription": "Floran could put hunting trophies on table. Ussseful.",
  "glitchDescription": "Curious. I wonder if this strong table could withstand the blow of an executioner\u0027s axe?",
  "humanDescription": "I have seen many tables in my time, and this certainly is one of them.",
  "hylotlDescription": "This is a rather unaesthetically pleasing table.",
  "novakidDescription": "This table looks mighty heavy to move around a place!"
}