{
  "itemKey": "peacekeepervendingmachine",
  "itemName": "Peacekeeper Vending Machine",
  "iconFile": "peacekeepervendingmachine.png",
  "price": 300,
  "rarity": "Common",
  "category": "other",
  "maxStack": 0,
  "foodValue": 0.0,
  "rottingMultiplier": 0.0,
  "printable": false,
  "colonyTags": [
    "peacekeeper",
    "mechanical",
    "commerce"
  ],
  "race": "generic",
  "description": "A vending machine that appears to cook and dispense only donuts.",
  "apexDescription": "These pastry products are so unhealthy. I should probably not have too many.",
  "avianDescription": "Donuts? How lovely!",
  "floranDescription": "Floran doessn\u0027t like any treats that aren\u0027t made of meat.",
  "glitchDescription": "Excited. Such treasures lie within!",
  "humanDescription": "Donuts! Mankind\u0027s most beloved food. There sure is a variety of them in here!",
  "hylotlDescription": "This unhealthy treats are not worth polluting my body with. Well... Maybe just one.",
  "novakidDescription": "Y\u0027know, I ain\u0027t even sure if these are bad for the health o\u0027 someone like me."
}