{
  "itemKey": "peacekeeperpants",
  "itemName": "Peacekeeper Trousers",
  "iconFile": "peacekeeperpants.png",
  "price": 75,
  "rarity": "Common",
  "category": "legwear",
  "maxStack": 1,
  "foodValue": 0.0,
  "rottingMultiplier": 0.0,
  "printable": true,
  "description": "Standard issue uniform for all Peacekeepers."
}