{
  "itemKey": "peacekeeperposter1",
  "itemName": "Peacekeeper Tall Poster",
  "iconFile": "peacekeeperposter1.png",
  "price": 400,
  "rarity": "Uncommon",
  "category": "decorative",
  "maxStack": 0,
  "foodValue": 0.0,
  "rottingMultiplier": 0.0,
  "printable": true,
  "colonyTags": [
    "peacekeeper"
  ],
  "race": "generic",
  "description": "A poster with some faded photographs of criminals printed on it.",
  "apexDescription": "This poster is a request for information on a local crime organisation.",
  "avianDescription": "This poster shows pictures of some recently seen criminals.",
  "floranDescription": "Floran uninterested in wall paper.",
  "glitchDescription": "Intrigued. This poster shows some local brigands who have so far averted justice.",
  "humanDescription": "A classic \"wanted\" poster. Apparently there are some local criminals on the run and up to no good!",
  "hylotlDescription": "Hmm - it seems that the Peacekeepers are currently tracking some local criminal who has averted justice.",
  "novakidDescription": "This poster is sayin\u0027 that there\u0027s some real varmints on the run right now."
}