{
  "itemKey": "peacekeeperemblem",
  "itemName": "Peacekeeper Emblem",
  "iconFile": "peacekeeperemblem.png",
  "price": 2500,
  "rarity": "Uncommon",
  "category": "decorative",
  "maxStack": 0,
  "foodValue": 0.0,
  "rottingMultiplier": 0.0,
  "printable": true,
  "colonyTags": [
    "peacekeeper"
  ],
  "race": "generic",
  "description": "A golden wall plaque, embossed with the Peacekeeper\u0027s emblem.",
  "apexDescription": "This emblem is very well polished.",
  "avianDescription": "This polished emblem signs like the sun!",
  "floranDescription": "Too shiny for Floran. Floran does not trussst.",
  "glitchDescription": "Impressed. Someone has kept this emblem very well polished.",
  "humanDescription": "What a giant emblem. It looks very official.",
  "hylotlDescription": "What an elegantly crafted shield.",
  "novakidDescription": "This emblem is purty well polished."
}