{
  "itemKey": "penguinbarbottom",
  "itemName": "Penguin Bar",
  "iconFile": "penguinbarbottom.png",
  "price": 0,
  "rarity": "Common",
  "category": "furniture",
  "maxStack": 0,
  "foodValue": 0.0,
  "rottingMultiplier": 0.0,
  "printable": false,
  "colonyTags": [
    "commerce"
  ],
  "description": "A bar fit for a penguin.",
  "apexDescription": "This bar has no doubt seen better days.",
  "avianDescription": "This bar might have looked nice once.",
  "floranDescription": "Thisss bar is made from cheap wood.",
  "glitchDescription": "Unimpressed. This bar is scratched and grubby.",
  "humanDescription": "This bar is as cheap as they come. It adds character!",
  "hylotlDescription": "This bar is in such poor shape I\u0027m surprised it\u0027s still standing.",
  "novakidDescription": "This bar ain\u0027t run down, it\u0027s just well loved!."
}