{
  "itemKey": "penguinhelmet",
  "itemName": "Penguin Helmet",
  "iconFile": "penguinhelmet.png",
  "price": 0,
  "rarity": "Rare",
  "category": "legwear",
  "maxStack": 1,
  "foodValue": 0.0,
  "rottingMultiplier": 0.0,
  "printable": true,
  "description": "A military helmet, mostly used by Dreadwing\u0027s crew."
}