{
  "itemKey": "penguinscanner",
  "itemName": "Penguin Scanner",
  "iconFile": "penguinscanner.png",
  "price": 0,
  "rarity": "Rare",
  "category": "legwear",
  "maxStack": 1,
  "foodValue": 0.0,
  "rottingMultiplier": 0.0,
  "printable": true,
  "description": "An interface scanner, for Penguins."
}