{
  "itemKey": "penguinweaponshopclosed",
  "itemName": "Closed Biggy\u0027s Reputable Weapons",
  "iconFile": "penguinweaponshopclosed.png",
  "price": 0,
  "rarity": "Common",
  "category": "other",
  "maxStack": 0,
  "foodValue": 0.0,
  "rottingMultiplier": 0.0,
  "printable": false,
  "colonyTags": [
    "outpost",
    "pretty"
  ],
  "description": "This would be a neat venue for a shop.",
  "apexDescription": "This appears to be some sort of trading post.",
  "avianDescription": "A trading post of some kind. It\u0027s closed right now.",
  "floranDescription": "Floran\u0027s not sssure what kind of shop this will be.",
  "glitchDescription": "Disappointed. This trading post is currently closed.",
  "humanDescription": "Probably a trading post, yet to be occupied.",
  "hylotlDescription": "A stall where goods or services will be peddled.",
  "novakidDescription": "An empty shop is a sorry sight to behold."
}