{
  "itemKey": "petalblue",
  "itemName": "Blue Petal",
  "iconFile": "petalblue.png",
  "price": 0,
  "rarity": "Common",
  "category": "craftingMaterial",
  "maxStack": 0,
  "foodValue": 0.0,
  "rottingMultiplier": 0.0,
  "printable": true,
  "description": "A blue petal, could be turned into dye."
}