{
  "itemKey": "phoenixhat",
  "itemName": "Phoenix Circlet",
  "iconFile": "phoenixhat.png",
  "price": 5000,
  "rarity": "Legendary",
  "category": "headwear",
  "maxStack": 1,
  "foodValue": 0.0,
  "rottingMultiplier": 0.0,
  "printable": true,
  "description": "This circlet represents a legendary firebird that\u0027s fabled to roam the stars."
}