{
  "itemKey": "phrygiancaphead",
  "itemName": "Phrygian Cap",
  "iconFile": "phrygiancaphead.png",
  "price": 5000,
  "rarity": "Legendary",
  "category": "headwear",
  "maxStack": 1,
  "foodValue": 0.0,
  "rottingMultiplier": 0.0,
  "printable": true,
  "description": "This phrygian cap is a blast from the past."
}