{
  "itemKey": "pickaxe",
  "itemName": "Pickaxe",
  "iconFile": "pickaxe.png",
  "price": 50,
  "rarity": "Common",
  "category": "Tool",
  "maxStack": 1,
  "foodValue": 0.0,
  "rottingMultiplier": 0.0,
  "printable": true,
  "description": "Pickaxes are so last millennium!"
}