{
  "itemKey": "pilotchest",
  "itemName": "Pilot\u0027s Jacket",
  "iconFile": "pilotchest.png",
  "price": 5000,
  "rarity": "Legendary",
  "category": "chestwear",
  "maxStack": 1,
  "foodValue": 0.0,
  "rottingMultiplier": 0.0,
  "printable": true,
  "description": "The armpits are a little frayed, this coat must have seen a lot of flapping."
}