{
  "itemKey": "pineapplejuice",
  "itemName": "Pineapple Juice",
  "iconFile": "pineapplejuice.png",
  "price": 200,
  "rarity": "Common",
  "category": "drink",
  "maxStack": 1,
  "foodValue": 20.0,
  "rottingMultiplier": 1.0,
  "printable": true,
  "description": "Sweet, tasty pineapple juice."
}