{
  "itemKey": "pineapple",
  "itemName": "Pineapple",
  "iconFile": "pineapple.png",
  "price": 160,
  "rarity": "Common",
  "category": "food",
  "maxStack": 1,
  "foodValue": 10.0,
  "rottingMultiplier": 1.0,
  "printable": true,
  "description": "A tropical treat!"
}