{
  "itemKey": "pinkeyeparasitehead",
  "itemName": "Pink-Eye Parasite",
  "iconFile": "pinkeyeparasitehead.png",
  "price": 5000,
  "rarity": "Legendary",
  "category": "headwear",
  "maxStack": 1,
  "foodValue": 0.0,
  "rottingMultiplier": 0.0,
  "printable": true,
  "description": "This pesky parasite gives you pink-eye."
}