{
  "itemKey": "piratelegs",
  "itemName": "Pirate Pantaloons",
  "iconFile": "piratelegs.png",
  "price": 2500,
  "rarity": "Rare",
  "category": "legwear",
  "maxStack": 1,
  "foodValue": 0.0,
  "rottingMultiplier": 0.0,
  "printable": true,
  "description": "A pirate\u0027s pantaloons, with holes for legs (peg or otherwise)."
}