{
  "itemKey": "pixelherodemochest",
  "itemName": "Pixel Hero Shirt",
  "iconFile": "pixelherodemochest.png",
  "price": 5000,
  "rarity": "Legendary",
  "category": "chestwear",
  "maxStack": 1,
  "foodValue": 0.0,
  "rottingMultiplier": 0.0,
  "printable": true,
  "description": "A heroic chest with a hero\u0027s crest."
}