{
  "itemKey": "pizza",
  "itemName": "Pizza",
  "iconFile": "pizza.png",
  "price": 1125,
  "rarity": "Legendary",
  "category": "preparedFood",
  "maxStack": 1,
  "foodValue": 200.0,
  "rottingMultiplier": 1.0,
  "printable": true,
  "description": "A whole pizza! Are you going to eat all that?"
}