{
  "itemKey": "plaguedoctorhead",
  "itemName": "Plague Doctor Mask",
  "iconFile": "plaguedoctorhead.png",
  "price": 2500,
  "rarity": "Rare",
  "category": "headwear",
  "maxStack": 1,
  "foodValue": 0.0,
  "rottingMultiplier": 0.0,
  "printable": true,
  "description": "An old plague doctor\u0027s mask. Wear it and creep out your friends!"
}