{
  "itemKey": "plainhoodhead",
  "itemName": "Plain Hood",
  "iconFile": "plainhoodhead.png",
  "price": 5000,
  "rarity": "Legendary",
  "category": "headwear",
  "maxStack": 1,
  "foodValue": 0.0,
  "rottingMultiplier": 0.0,
  "printable": true,
  "description": "Useful for those who want to hide their identity."
}