{
  "itemKey": "plantcabinet1",
  "itemName": "Small Cabinet",
  "iconFile": "plantcabinet1.png",
  "price": 70,
  "rarity": "Common",
  "category": "storage",
  "maxStack": 0,
  "foodValue": 0.0,
  "rottingMultiplier": 0.0,
  "printable": true,
  "colonyTags": [
    "floran",
    "floranprison",
    "storage"
  ],
  "race": "floran",
  "description": "A small cabinet with a table top.",
  "apexDescription": "A small cabinet of Floran design.",
  "avianDescription": "This small cabinet has a tabletop surface.",
  "floranDescription": "Floran put thingss insside and place thingss on top.",
  "glitchDescription": "Displeased. The storage space in this cabinet is very limited.",
  "humanDescription": "This looks like it\u0027s about the size of a bedside table.",
  "hylotlDescription": "A typical looking small Floran cabinet.",
  "novakidDescription": "It\u0027s only big \u0027nough to hold a couple things inside."
}