{
  "itemKey": "plantcage2",
  "itemName": "Small Wooden Cage",
  "iconFile": "plantcage2.png",
  "price": 80,
  "rarity": "Common",
  "category": "decorative",
  "maxStack": 0,
  "foodValue": 0.0,
  "rottingMultiplier": 0.0,
  "printable": true,
  "colonyTags": [
    "floran",
    "floranprison"
  ],
  "race": "floran",
  "description": "A study small Floran prison cage made from wood.",
  "apexDescription": "A well constructed cage.",
  "avianDescription": "A small cage, perhaps for holding Floran prisoners?",
  "floranDescription": "This cage iss too ssmall for Floran prissoner.",
  "glitchDescription": "Concerned. Prisoners held in this cage would have barely any room to move.",
  "humanDescription": "Would I even fit in this cage? It doesn\u0027t allow much room to move around.",
  "hylotlDescription": "Perhaps prisoners are punished by being held in this tiny cage.",
  "novakidDescription": "A fella couldn\u0027t even stand up inside this cage."
}