{
  "itemKey": "planturn3",
  "itemName": "Small Urn",
  "iconFile": "planturn3.png",
  "price": 30,
  "rarity": "Common",
  "category": "breakable",
  "maxStack": 0,
  "foodValue": 0.0,
  "rottingMultiplier": 0.0,
  "printable": true,
  "colonyTags": [
    "floran",
    "floranprison",
    "pretty"
  ],
  "race": "floran",
  "description": "A fragile small urn made from clay.",
  "apexDescription": "A small urn, I\u0027ll doubt it holds much inside.",
  "avianDescription": "Some sort of urn.  It\u0027s not as elegant as those found inside Avian tombs.",
  "floranDescription": "Sssmash all the urnss.",
  "glitchDescription": "Philosophical. Is the urn half full, or half empty?",
  "humanDescription": "There\u0027s a quick way to find out what\u0027s inside this urn. Smash it.",
  "hylotlDescription": "A well crafted urn, it\u0027s almost a shame to break it.",
  "novakidDescription": "This urn is beggin\u0027 to be smashed."
}