{
  "itemKey": "plantvolcano1",
  "itemName": "Small Volcanic Geyser",
  "iconFile": "plantvolcano1.png",
  "price": 60,
  "rarity": "Common",
  "category": "light",
  "maxStack": 0,
  "foodValue": 0.0,
  "rottingMultiplier": 0.0,
  "printable": true,
  "colonyTags": [
    "floran",
    "floranprison",
    "evil"
  ],
  "race": "floran",
  "description": "A small volcanic geyser. It looks hot.",
  "apexDescription": "This geyser looks contained, there\u0027s nothing to fear.",
  "avianDescription": "This volcanic geyser glows with fiery intensity.",
  "floranDescription": "Floran disslike hot geyser.",
  "glitchDescription": "Confident. This volcanic fissure poses no threat.",
  "humanDescription": "It looks safe, but I\u0027d better not step on it.",
  "hylotlDescription": "It\u0027s not uncommon to see fissures like this deep underwater.",
  "novakidDescription": "The lava seepin\u0027 from this fissure is lightin\u0027 the way."
}