{
  "itemKey": "plantlog",
  "itemName": "Sitting Log",
  "iconFile": "plantlog.png",
  "price": 90,
  "rarity": "Common",
  "category": "decorative",
  "maxStack": 0,
  "foodValue": 0.0,
  "rottingMultiplier": 0.0,
  "printable": true,
  "colonyTags": [
    "floran",
    "floranprison"
  ],
  "race": "floran",
  "description": "A log, smoothed for sitting on.",
  "apexDescription": "This log seems an ideal height for sitting.",
  "avianDescription": "An old log, looks like it\u0027s been used as a seat.",
  "floranDescription": "Who needs fancy chairss? Ssit on log.",
  "glitchDescription": "Surprised. This simple log makes an effective seat.",
  "humanDescription": "It\u0027s a log. Yessir I like it.",
  "hylotlDescription": "Most of the logs I\u0027ve sat on have been floating.",
  "novakidDescription": "Looks perfect for sittin\u0027 on round a campfire."
}