{
  "itemKey": "plantbiolight",
  "itemName": "Organic Biolight",
  "iconFile": "plantbiolight.png",
  "price": 45,
  "rarity": "Common",
  "category": "light",
  "maxStack": 0,
  "foodValue": 0.0,
  "rottingMultiplier": 0.0,
  "printable": true,
  "colonyTags": [
    "floran",
    "floranprison",
    "light"
  ],
  "race": "generic",
  "description": "This organic light flickers softly.",
  "apexDescription": "A little glowing plant.",
  "avianDescription": "A delightfully soft glowing plant.",
  "floranDescription": "Floran like plant lightss.",
  "glitchDescription": "Facinated. These glowing plants seem to emit natural light.",
  "humanDescription": "A glowing plant, it\u0027s pretty handy to grow your own lights.",
  "hylotlDescription": "Nature can bring about such reverence.",
  "novakidDescription": "This plant is givin\u0027 off a glow!"
}