{
  "itemKey": "platform2",
  "itemName": "Wood Platform",
  "iconFile": "platform2.png",
  "price": 0,
  "rarity": "Common",
  "category": "platform",
  "maxStack": 0,
  "foodValue": 0.0,
  "rottingMultiplier": 0.0,
  "printable": true,
  "description": "A nondescript wood platform."
}