{
  "itemKey": "platematerial",
  "itemName": "Smooth Plated Block",
  "iconFile": "platematerial.png",
  "price": 0,
  "rarity": "Common",
  "category": "block",
  "maxStack": 0,
  "foodValue": 0.0,
  "rottingMultiplier": 0.0,
  "printable": true,
  "description": "Reminds me of the inside of a medical centre."
}