{
  "itemKey": "platinumsample",
  "itemName": "Platinum Sample",
  "iconFile": "platinumsample.png",
  "price": 5000,
  "rarity": "Legendary",
  "category": "decorative",
  "maxStack": 0,
  "foodValue": 0.0,
  "rottingMultiplier": 0.0,
  "printable": false,
  "colonyTags": [
    "pretty"
  ],
  "description": "\"A perfect sample of a platinum ore.\""
}