{
  "itemKey": "pleaseget",
  "itemName": "Please Get Sign",
  "iconFile": "pleaseget.png",
  "price": 0,
  "rarity": "Common",
  "category": "decorative",
  "maxStack": 0,
  "foodValue": 0.0,
  "rottingMultiplier": 0.0,
  "printable": true,
  "colonyTags": [
    "misc"
  ],
  "race": "generic",
  "description": "..."
}