{
  "itemKey": "plumeknighthead",
  "itemName": "Plume Knight Helm",
  "iconFile": "plumeknighthead.png",
  "price": 5000,
  "rarity": "Legendary",
  "category": "headwear",
  "maxStack": 1,
  "foodValue": 0.0,
  "rottingMultiplier": 0.0,
  "printable": true,
  "description": "A fancy knight\u0027s helmet. It has a large, fancy plume!"
}