{
  "itemKey": "plutoniumore",
  "itemName": "Plutonium Ore",
  "iconFile": "plutoniumore.png",
  "price": 20,
  "rarity": "Uncommon",
  "category": "craftingMaterial",
  "maxStack": 0,
  "foodValue": 0.0,
  "rottingMultiplier": 0.0,
  "printable": true,
  "description": "It\u0027s pretty, but extremely radioactive."
}