{
  "itemKey": "poisonblockaugment",
  "itemName": "Poison Resist Augment",
  "iconFile": "poisonblockaugment.png",
  "price": 10000,
  "rarity": "Rare",
  "category": "eppAugment",
  "maxStack": 0,
  "foodValue": 0.0,
  "rottingMultiplier": 0.0,
  "printable": true,
  "description": "An EPP module that makes you highly resistant to poison."
}