{
  "itemKey": "polarmoth",
  "itemName": "Polarmoth",
  "iconFile": "polarmoth.png",
  "price": 50,
  "rarity": "Common",
  "category": "bug",
  "maxStack": 0,
  "foodValue": 0.0,
  "rottingMultiplier": 0.0,
  "printable": false,
  "colonyTags": [
    "nature"
  ],
  "race": "generic",
  "description": "This little bug\u0027s legs are covered in see-through hairs."
}