{
  "itemKey": "pollenpump",
  "itemName": "Pollen Pump",
  "iconFile": "pollenpump.png",
  "price": 1500,
  "rarity": "Legendary",
  "category": "uniqueWeapon",
  "maxStack": 1,
  "foodValue": 0.0,
  "rottingMultiplier": 0.0,
  "printable": true,
  "description": "Perfect pest control."
}