{
  "itemKey": "polygonplatform",
  "itemName": "Polygon Platform",
  "iconFile": "polygonplatform.png",
  "price": 0,
  "rarity": "Common",
  "category": "platform",
  "maxStack": 0,
  "foodValue": 0.0,
  "rottingMultiplier": 0.0,
  "printable": true,
  "description": "A smooth platform made from \"Hard Light\"."
}