{
  "itemKey": "poop",
  "itemName": "Poop",
  "iconFile": "poop.png",
  "price": 0,
  "rarity": "Common",
  "category": "decorative",
  "maxStack": 0,
  "foodValue": 0.0,
  "rottingMultiplier": 0.0,
  "printable": false,
  "colonyTags": [
    "misc"
  ],
  "race": "generic",
  "description": "A revolting pile of poop. The stench is foul!",
  "apexDescription": "Faeces. What is this doing here?",
  "avianDescription": "I\u0027d rather not get too close.",
  "floranDescription": "Ssssmells bad.",
  "glitchDescription": "Resolute. Biological entities are disgusting.",
  "humanDescription": "Please tell me this is fake.",
  "hylotlDescription": "All part of a natural process.",
  "novakidDescription": "Ain\u0027t got nothin\u0027 decent to say on the matter."
}