{
  "itemKey": "porthole",
  "itemName": "Porthole",
  "iconFile": "porthole.png",
  "price": 60,
  "rarity": "Common",
  "category": "decorative",
  "maxStack": 0,
  "foodValue": 0.0,
  "rottingMultiplier": 0.0,
  "printable": true,
  "colonyTags": [
    "hylotl",
    "hylotloceancity"
  ],
  "race": "hylotl",
  "description": "It\u0027s a round window.",
  "apexDescription": "A porthole.",
  "avianDescription": "It\u0027s a porthole.",
  "floranDescription": "Round window.",
  "glitchDescription": "Indifferent. A porthole.",
  "humanDescription": "It\u0027s a porthole.",
  "hylotlDescription": "A round porthole.",
  "novakidDescription": "A round window."
}