{
  "itemKey": "potato",
  "itemName": "Potato",
  "iconFile": "potato.png",
  "price": 80,
  "rarity": "Common",
  "category": "food",
  "maxStack": 1,
  "foodValue": 10.0,
  "rottingMultiplier": 5.0,
  "printable": true,
  "description": "Po-ta-to."
}