{
  "itemKey": "premierhead",
  "itemName": "Premier Helmet",
  "iconFile": "premierhead.png",
  "price": 5000,
  "rarity": "Legendary",
  "category": "headwear",
  "maxStack": 1,
  "foodValue": 0.0,
  "rottingMultiplier": 0.0,
  "printable": true,
  "description": "A decorative helmet fit for a figure of exceeding importance."
}