{
  "itemKey": "premierchest",
  "itemName": "Premier Chestpiece",
  "iconFile": "premierchest.png",
  "price": 5000,
  "rarity": "Legendary",
  "category": "chestwear",
  "maxStack": 1,
  "foodValue": 0.0,
  "rottingMultiplier": 0.0,
  "printable": true,
  "description": "Chest armour, often used for people of great importance."
}