{
  "itemKey": "present2",
  "itemName": "Red Present",
  "iconFile": "present2.png",
  "price": 125,
  "rarity": "Uncommon",
  "category": "storage",
  "maxStack": 0,
  "foodValue": 0.0,
  "rottingMultiplier": 0.0,
  "printable": false,
  "colonyTags": [
    "christmas",
    "storage"
  ],
  "race": "generic",
  "description": "A present! It\u0027s wrapped in red paper with a gold ribbon!",
  "apexDescription": "A present! Is it for me?",
  "avianDescription": "I wonder who this present is for.",
  "floranDescription": "Floran want present! Ssstab everything!",
  "glitchDescription": "Thoughtful. The contents of this present elude me.",
  "humanDescription": "Presents! Gifts! Wrapping! Yeah!",
  "hylotlDescription": "A delightfully-wrapped gift.",
  "novakidDescription": "Someone put a lot of effort into wrappin\u0027 this."
}