{
  "itemKey": "pressuredoor",
  "itemName": "Pressurised Door",
  "iconFile": "pressuredoor.png",
  "price": 125,
  "rarity": "Common",
  "category": "door",
  "maxStack": 0,
  "foodValue": 0.0,
  "rottingMultiplier": 0.0,
  "printable": true,
  "colonyTags": [
    "hylotl",
    "hylotloceancity",
    "door"
  ],
  "race": "hylotl",
  "description": "A door that\u0027s good under pressure.",
  "apexDescription": "A sturdy pressurised door.",
  "avianDescription": "A very heavy metal door.",
  "floranDescription": "Big heavy door worksss besst underwater.",
  "glitchDescription": "Relieved. This door is very heavy, it should be watertight.",
  "humanDescription": "It\u0027s a big, sturdy door that copes well with high pressure.",
  "hylotlDescription": "A well-crafted pressurised door.",
  "novakidDescription": "A hefty pressurised door."
}