{
  "itemKey": "prisoncorner",
  "itemName": "Decorative Support Beam",
  "iconFile": "prisoncorner.png",
  "price": 60,
  "rarity": "Common",
  "category": "decorative",
  "maxStack": 0,
  "foodValue": 0.0,
  "rottingMultiplier": 0.0,
  "printable": true,
  "colonyTags": [
    "human",
    "humanprison",
    "pretty"
  ],
  "race": "human",
  "description": "A decorative gothic corner.",
  "apexDescription": "Humans at least have pleasant architecture to look at.",
  "avianDescription": "I can\u0027t decide if this is pretty or foreboding.",
  "floranDescription": "Ssspiky architecture.",
  "glitchDescription": "Pleased. Human and Glitch architecture seem to share certain similarities.",
  "humanDescription": "This would go great with my spooky interior decorating skills.",
  "hylotlDescription": "It is simple but there is something to be admired in the crafting.",
  "novakidDescription": "Pretty or terrifying?"
}