{
  "itemKey": "prisondoor",
  "itemName": "Barred Door",
  "iconFile": "prisondoor.png",
  "price": 95,
  "rarity": "Common",
  "category": "door",
  "maxStack": 0,
  "foodValue": 0.0,
  "rottingMultiplier": 0.0,
  "printable": true,
  "colonyTags": [
    "human",
    "humanprison",
    "door"
  ],
  "race": "human",
  "description": "A door made of thick metal bars.",
  "apexDescription": "Strong metal bars. Somehow, they\u0027re quite pretty.",
  "avianDescription": "These bars look pretty sturdy.",
  "floranDescription": "Sssturdy bars.",
  "glitchDescription": "Impressed. A remarkably strong set of bars.",
  "humanDescription": "Bars. No matter which side we\u0027re on, aren\u0027t we always behind them? And now I have a headache.",
  "hylotlDescription": "Even in a cage, a mind can travel freely.",
  "novakidDescription": "You\u0027d need some good tools to break outta here."
}