{
  "itemKey": "prismbed",
  "itemName": "Prism Bed",
  "iconFile": "prismbed.png",
  "price": 145,
  "rarity": "Common",
  "category": "furniture",
  "maxStack": 0,
  "foodValue": 0.0,
  "rottingMultiplier": 0.0,
  "printable": false,
  "colonyTags": [
    "prism"
  ],
  "race": "generic",
  "description": "A minimalist bed made from a refractive glass.",
  "apexDescription": "I am impressed with the smoothness of this refined material.",
  "avianDescription": "The rainbow of lights within is wonderful.",
  "floranDescription": "Floran confused. Isss light trapped inside?",
  "glitchDescription": "Transfixed. My gaze is caught in the dancing lights within this bed.",
  "humanDescription": "Sure it looks cool, but how comfortable is it?",
  "hylotlDescription": "This glass is so clear, it is like a still pool of water.",
  "novakidDescription": "Like starin\u0027 into a clear sky after rain."
}