{
  "itemKey": "prismchair",
  "itemName": "Prism Chair",
  "iconFile": "prismchair.png",
  "price": 90,
  "rarity": "Common",
  "category": "furniture",
  "maxStack": 0,
  "foodValue": 0.0,
  "rottingMultiplier": 0.0,
  "printable": false,
  "colonyTags": [
    "prism"
  ],
  "race": "generic",
  "description": "A cleanly cut chair made from refractive glass.",
  "apexDescription": "While not very comfortable, this chair is impressively crafted.",
  "avianDescription": "How does such a simple piece of furniture manage to be so entrancing?",
  "floranDescription": "Floran wondersss if sharp chair would be good weapon...",
  "glitchDescription": "Impressed. The angles on this chair are mathematically perfect.",
  "humanDescription": "A block of weird glass doesn\u0027t make for the comfiest chair...",
  "hylotlDescription": "This chair manages to constantly catch the light shining within it.",
  "novakidDescription": "Ain\u0027t this pretty..."
}