{
  "itemKey": "prisonpaper1",
  "itemName": "Notice",
  "iconFile": "prisonpaper1.png",
  "price": 20,
  "rarity": "Common",
  "category": "decorative",
  "maxStack": 0,
  "foodValue": 0.0,
  "rottingMultiplier": 0.0,
  "printable": true,
  "colonyTags": [
    "human",
    "humanprison"
  ],
  "race": "human",
  "description": "A notice written in ink.",
  "apexDescription": "I cannot read this handwriting.",
  "avianDescription": "I can\u0027t read this handwriting, it\u0027s chicken scratch.",
  "floranDescription": "Ssome kind of notice... Floran finds the writing hard to read.",
  "glitchDescription": "Baffled. It\u0027s really quite difficult to read this handwriting.",
  "humanDescription": "If you\u0027re going to put a notice up, at least make it legible.",
  "hylotlDescription": "The person who wrote this note has very attractive handwriting... Illegible, but attractive.",
  "novakidDescription": "Some kinda notice... Darned if I can read the handwritin\u0027 though."
}