{
  "itemKey": "prismlamp3",
  "itemName": "Prism Cyan Lamp",
  "iconFile": "prismlamp3.png",
  "price": 100,
  "rarity": "Common",
  "category": "light",
  "maxStack": 0,
  "foodValue": 0.0,
  "rottingMultiplier": 0.0,
  "printable": false,
  "colonyTags": [
    "prism",
    "light",
    "pretty"
  ],
  "race": "generic",
  "description": "A lamp made from a smoothly carved glowing crystal.",
  "apexDescription": "The blue glow given off by this lamp is calming.",
  "avianDescription": "The soft blue glow reminds me of a brilliant summer sky.",
  "floranDescription": "Floran wondersss if lamp can be thrown at people...",
  "glitchDescription": "Calm. This blue crystal lamp puts my fears at ease.",
  "humanDescription": "There\u0027s something calming about this glowing blue crystal lamp.",
  "hylotlDescription": "This blue lamp glows like a living ocean. I could stare at it for hours.",
  "novakidDescription": "The light from this thing is like a blue sky at high noon."
}