{
  "itemKey": "prisonfile2",
  "itemName": "Wide Rusty Filing Cabinet",
  "iconFile": "prisonfile2.png",
  "price": 160,
  "rarity": "Common",
  "category": "storage",
  "maxStack": 0,
  "foodValue": 0.0,
  "rottingMultiplier": 0.0,
  "printable": true,
  "colonyTags": [
    "human",
    "humanprison",
    "storage"
  ],
  "race": "human",
  "description": "There were some office supplies and inmate files in this filing cabinet.",
  "apexDescription": "Apparently public nudity is illegal for humans. Who knew?",
  "avianDescription": "A woman was arrested for wearing overly large glasses. Apparently they were a fire hazard.",
  "floranDescription": "This file cabinet is full of documented crimesss. Humans are a dangerousss bunch!",
  "glitchDescription": "Subdued. A large number of humans go to prison for punching each other in the face.",
  "humanDescription": "Oh hey, this woman\u0027s a pretty famous smuggler. Says here she broke out.",
  "hylotlDescription": "This man has \u0027criminal\u0027 written all over his face. Quite literally. He seems proud of his accomplishments.",
  "novakidDescription": "Inmate files. We all have our dark secrets n\u0027 regrets. I won\u0027t snoop."
}