{
  "itemKey": "prisongirderv",
  "itemName": "Vertical Rusted Girder",
  "iconFile": "prisongirderv.png",
  "price": 70,
  "rarity": "Common",
  "category": "decorative",
  "maxStack": 0,
  "foodValue": 0.0,
  "rottingMultiplier": 0.0,
  "printable": true,
  "colonyTags": [
    "human",
    "humanprison"
  ],
  "race": "human",
  "description": "Rusty old girder beams - can\u0027t be too safe.",
  "apexDescription": "A rusted girder.",
  "avianDescription": "An unsafe-looking girder.",
  "floranDescription": "Big metal!",
  "glitchDescription": "Cautious. The likelihood of this girder collapsing is high.",
  "humanDescription": "Looks perfectly safe to climb on.",
  "hylotlDescription": "A rusty metal girder.",
  "novakidDescription": "A rusty girder."
}