{
  "itemKey": "prisontoilet",
  "itemName": "Dirty Toilet",
  "iconFile": "prisontoilet.png",
  "price": 85,
  "rarity": "Common",
  "category": "furniture",
  "maxStack": 0,
  "foodValue": 0.0,
  "rottingMultiplier": 0.0,
  "printable": true,
  "colonyTags": [
    "human",
    "humanprison",
    "evil"
  ],
  "race": "human",
  "description": "Looks like someone had a rough night.",
  "apexDescription": "We Apex are used to horrific conditions such as this.",
  "avianDescription": "I think I\u0027ll go elsewhere.",
  "floranDescription": "Stinky ssseat! Yuck!",
  "glitchDescription": "Disgusted. I have no words.",
  "humanDescription": "Nothing a bit of bleach and napalm won\u0027t sort.",
  "hylotlDescription": "Never in my life have I seen such a grotesque disregard for basic hygiene.",
  "novakidDescription": "No one likes cleanin\u0027 but this is beyond reasonable."
}