{
  "itemKey": "prisonmirror2",
  "itemName": "Small Broken Mirror",
  "iconFile": "prisonmirror2.png",
  "price": 50,
  "rarity": "Common",
  "category": "decorative",
  "maxStack": 0,
  "foodValue": 0.0,
  "rottingMultiplier": 0.0,
  "printable": true,
  "colonyTags": [
    "human",
    "humanprison"
  ],
  "race": "human",
  "description": "Looks like someone had a case of the Mondays.",
  "apexDescription": "A broken mirror. Have to be careful not to cut myself.",
  "avianDescription": "I won\u0027t be preening my feathers here any time soon.",
  "floranDescription": "Sharp mirror shards make for good throwing daggersss.",
  "glitchDescription": "Observant. There are at least four hundred and six shards of glass here.",
  "humanDescription": "Looks like someone\u0027s due for seven years bad luck. And for once it\u0027s not me!",
  "hylotlDescription": "Such a breakage can only have been done in anger.",
  "novakidDescription": "I can see my distorted reflection in the few remainin\u0027 pieces of mirror."
}