{
  "itemKey": "prisoncamerastation",
  "itemName": "Security Camera Station",
  "iconFile": "prisoncamerastation.png",
  "price": 150,
  "rarity": "Common",
  "category": "light",
  "maxStack": 0,
  "foodValue": 0.0,
  "rottingMultiplier": 0.0,
  "printable": true,
  "colonyTags": [
    "human",
    "humanprison",
    "electronic"
  ],
  "race": "human",
  "description": "A set of monitors displaying the feeds from security cameras. Watch out for paranormal activity.",
  "apexDescription": "I\u0027m sure I saw someone disappearing around a corner on one of the screens.",
  "avianDescription": "I feel like a voyeur.",
  "floranDescription": "Ssso many ssscreens. They\u0027re all equally uninteresssting.",
  "glitchDescription": "Inspecting. I am certain one of these cameras is on a loop.",
  "humanDescription": "One of these screens is displaying a feed of me watching the screens.",
  "hylotlDescription": "What an intrusive set-up.",
  "novakidDescription": "A spyin\u0027 station."
}