{
  "itemKey": "prismrock5",
  "itemName": "Prism Crystal",
  "iconFile": "prismrock5.png",
  "price": 0,
  "rarity": "Common",
  "category": "decorative",
  "maxStack": 0,
  "foodValue": 0.0,
  "rottingMultiplier": 0.0,
  "printable": false,
  "colonyTags": [
    "prism"
  ],
  "race": "generic",
  "description": "A highly refractive prism.",
  "apexDescription": "Light is refracted as it passes through this prism.",
  "avianDescription": "This crystal refracts light into pretty patterns.",
  "floranDescription": "Colours burssst out of this rock. Makes Floran curious.",
  "glitchDescription": "Bewildered. I find these prism rocks to be quite mesmerising.",
  "humanDescription": "These rocks are responsible for the impressive light show.",
  "hylotlDescription": "Prisms are a true wonder of the natural world.",
  "novakidDescription": "I enjoy a good light show!"
}