{
  "itemKey": "propeller",
  "itemName": "Propeller",
  "iconFile": "propeller.png",
  "price": 180,
  "rarity": "Common",
  "category": "trap",
  "maxStack": 0,
  "foodValue": 0.0,
  "rottingMultiplier": 0.0,
  "printable": true,
  "colonyTags": [
    "avian",
    "avianairship",
    "mechanical"
  ],
  "race": "avian",
  "description": "A beautifully crafted propeller.",
  "apexDescription": "An enormous propeller.",
  "avianDescription": "They may not be wings, but propellers like these keep Avian airships aloft.",
  "floranDescription": "Ssspinny machine make ships fly.",
  "glitchDescription": "Observant. These propellers must spin very quickly to keep an entire ship in the air.",
  "humanDescription": "The propeller is very loud.",
  "hylotlDescription": "Loud and obnoxious but fit for purpose.",
  "novakidDescription": "That\u0027s one massive propeller. I guess it\u0027s for keepin\u0027 airships runnin\u0027."
}