{
  "itemKey": "protectoratebeamaxe",
  "itemName": "Matter Manipulator",
  "iconFile": "protectoratebeamaxe.png",
  "price": 0,
  "rarity": "Common",
  "category": "decorative",
  "maxStack": 0,
  "foodValue": 0.0,
  "rottingMultiplier": 0.0,
  "printable": false,
  "race": "protectorate",
  "description": "This Matter Manipulator was meant for me... And I may need it to get out of here alive.",
  "apexDescription": "I need to pick up this Matter Manipulator and find a way to escape.",
  "avianDescription": "I have to pick this Matter Manipulator up and flee!",
  "floranDescription": "Floran better pick the Matter Manipulater up and hurry to sssafety!",
  "glitchDescription": "Stressed. I should take this Matter Manipulator and get out of here.",
  "humanDescription": "I should take this Matter Manipulator... I might need it to get out of here alive.",
  "hylotlDescription": "This Matter Manipulator might be my only help in getting out of here alive.",
  "novakidDescription": "No time to think about this. I gotta pick the Matter Manipulator up and make a run for it."
}