{
  "itemKey": "protectoratehallcurtain",
  "itemName": "Protectorate Stage Curtain",
  "iconFile": "protectoratehallcurtain.png",
  "price": 50,
  "rarity": "Common",
  "category": "decorative",
  "maxStack": 0,
  "foodValue": 0.0,
  "rottingMultiplier": 0.0,
  "printable": false,
  "race": "protectorate",
  "description": "A stage curtain from the Protectorate Academy.",
  "apexDescription": "A wonderful curtain. Luxurious.",
  "avianDescription": "Oh wow, this curtain feels like fluffy clouds.",
  "floranDescription": "Sssoft curtains. Floran likes ssstroking.",
  "glitchDescription": "Impressed. This material is exclusive to say the least.",
  "humanDescription": "These curtains are so soft! I could sleep right here, leaning up against them.",
  "hylotlDescription": "A lushious curtain made from the finest silk.",
  "novakidDescription": "These curtains are fancy lookin\u0027. I wonder what they\u0027re made from."
}