{
  "itemKey": "protectoratelight",
  "itemName": "Broken Fluorescent Light",
  "iconFile": "protectoratelight.png",
  "price": 0,
  "rarity": "Common",
  "category": "light",
  "maxStack": 0,
  "foodValue": 0.0,
  "rottingMultiplier": 0.0,
  "printable": false,
  "race": "protectorate",
  "description": "This fluorescent light has seen better days.",
  "apexDescription": "This light has only the faintest flicker of power. Perhaps it can be repaired.",
  "avianDescription": "This light is almost completely broken.",
  "floranDescription": "Buzzy flickery light.",
  "glitchDescription": "Displeased. This fluorescent light is almost non-functional.",
  "humanDescription": "A broken light that flickers faintly.",
  "hylotlDescription": "This light appears to not be functioning correctly.",
  "novakidDescription": "This busted light ain\u0027t flickerin\u0027 more\u0027n a candle."
}