{
  "itemKey": "protectoratelobbychair",
  "itemName": "Protectorate Lobby Chair",
  "iconFile": "protectoratelobbychair.png",
  "price": 95,
  "rarity": "Common",
  "category": "furniture",
  "maxStack": 0,
  "foodValue": 0.0,
  "rottingMultiplier": 0.0,
  "printable": false,
  "race": "protectorate",
  "description": "A nice looking chair for cool Protectorate students.",
  "apexDescription": "A chair with a cool design.",
  "avianDescription": "This chair is egg shaped!",
  "floranDescription": "Floran fell asssleep here once.",
  "glitchDescription": "Neutral. It\u0027s an egg shaped chair.",
  "humanDescription": "Anyone looks cool sitting in this chair.",
  "hylotlDescription": "A chair shaped like an egg. You feel safe when you sit in it.",
  "novakidDescription": "It\u0027s a nice chair. It\u0027s comfortable too."
}