{
  "itemKey": "protectoratebrokenportrait5",
  "itemName": "Grand Protector Portrait",
  "iconFile": "protectoratebrokenportrait5.png",
  "price": 50,
  "rarity": "Common",
  "category": "decorative",
  "maxStack": 0,
  "foodValue": 0.0,
  "rottingMultiplier": 0.0,
  "printable": false,
  "race": "protectorate",
  "description": "Leda Portia, The Grand Protector.",
  "apexDescription": "Leda Portia. I just saw her meet a grisly end.",
  "avianDescription": "Leda Portia, the... Former Grand Protector. I don\u0027t want to think about it.",
  "floranDescription": "Awful thing jussst happened to Grand Protector Leda Portia.",
  "glitchDescription": "Grieving. I don\u0027t want to think about it...",
  "humanDescription": "Leda Portia was just about to graduate me. I don\u0027t want to talk about it.",
  "hylotlDescription": "She gave me this Matter Manipulator, just before...",
  "novakidDescription": "The late Grand Protector, Leda Portia. I wish I could have done somethin\u0027."
}