{
  "itemKey": "protectorateinfobooth",
  "itemName": "Info Booth",
  "iconFile": "protectorateinfobooth.png",
  "price": 0,
  "rarity": "Common",
  "maxStack": 0,
  "foodValue": 0.0,
  "rottingMultiplier": 0.0,
  "printable": false,
  "colonyTags": [
    "protectorate",
    "commerce"
  ],
  "race": "protectorate",
  "description": "A good source of information.",
  "apexDescription": "If I\u0027m ever lost, I can always ask the info booth lady for help.",
  "avianDescription": "Mami, the info booth lady, is super helpful.",
  "floranDescription": "Despite being a ssslimy Hylotl, info booth lady is nice and helpful.",
  "glitchDescription": "Appreciative. Mami at the info booth desk is lovely and helpful.",
  "humanDescription": "The info booth lady always has a useful tip.",
  "hylotlDescription": "Mami at the info desk helped me endlessly when I was a new and confused student.",
  "novakidDescription": "Whenever I\u0027m in need o\u0027 some friendly help, I come here."
}