{
  "itemKey": "protectoratelobbylockers2",
  "itemName": "My Locker",
  "iconFile": "protectoratelobbylockers2.png",
  "price": 50,
  "rarity": "Common",
  "category": "storage",
  "maxStack": 0,
  "foodValue": 0.0,
  "rottingMultiplier": 0.0,
  "printable": false,
  "race": "protectorate",
  "description": "A bank of protectorate lockers, including yours.",
  "apexDescription": "One of these lockers is mine.",
  "avianDescription": "Student lockers, including my own.",
  "floranDescription": "Floran ownsss thisss locker.",
  "glitchDescription": "Familiar. This has been my locker for several years.",
  "humanDescription": "My locker, where I keep all of my textbooks and pictures of bands.",
  "hylotlDescription": "This humble student locker has been kind to me.",
  "novakidDescription": "Yep, that\u0027s my locker. Not a whole lot in it, though."
}