{
  "itemKey": "protectoratebooks",
  "itemName": "Protectorate Books",
  "iconFile": "protectoratebooks.png",
  "price": 50,
  "rarity": "Common",
  "category": "decorative",
  "maxStack": 0,
  "foodValue": 0.0,
  "rottingMultiplier": 0.0,
  "printable": false,
  "race": "protectorate",
  "description": "Time to study...",
  "apexDescription": "Some light reading.",
  "avianDescription": "Course literature. I\u0027ve read these!",
  "floranDescription": "Books with words and words and wordsss.",
  "glitchDescription": "Neutral. Some books about the history of the Protectorate.",
  "humanDescription": "I read these last term!",
  "hylotlDescription": "I enjoy a good book and a hot drink.",
  "novakidDescription": "Ain\u0027t a big reader, but I read these course books."
}