{
  "itemKey": "protectoratestorage2",
  "itemName": "Status Pod Storage Unit",
  "iconFile": "protectoratestorage2.png",
  "price": 50,
  "rarity": "Common",
  "category": "decorative",
  "maxStack": 0,
  "foodValue": 0.0,
  "rottingMultiplier": 0.0,
  "printable": false,
  "race": "protectorate",
  "description": "It\u0027s a large rack of status pods.",
  "apexDescription": "The protectorate launch these pods into the cosmos. They tend to malfunction sometimes.",
  "avianDescription": "These status pods can sometimes malfunction after years of laying dormant.",
  "floranDescription": "Ssshiny podss. Good resource, but sssometimes dangerouss.",
  "glitchDescription": "Interested. These pods are launched into space and land on the nearest world.",
  "humanDescription": "These pods get launched into space to colonise worlds. They can sometimes malfunction though.",
  "hylotlDescription": "A method of automated colonisation. Explorers often find they\u0027ve been beaten to it by these things.",
  "novakidDescription": "A mighty fine collection of pods. Useful if you ignore the occasional malfunction!"
}