{
  "itemKey": "protectorateplatform",
  "itemName": "Protectorate Platform",
  "iconFile": "protectorateplatform.png",
  "price": 0,
  "rarity": "Rare",
  "category": "platform",
  "maxStack": 0,
  "foodValue": 0.0,
  "rottingMultiplier": 0.0,
  "printable": true,
  "description": "A simple looking platform."
}