{
  "itemKey": "protectoratemanipulator",
  "itemName": "Protectorate Matter Manipulator",
  "iconFile": "protectoratemanipulator.png",
  "price": 50,
  "rarity": "Common",
  "category": "decorative",
  "maxStack": 0,
  "foodValue": 0.0,
  "rottingMultiplier": 0.0,
  "printable": false,
  "race": "protectorate",
  "description": "A replica of a Matter Manipulator",
  "apexDescription": "This replica of a Matter Manipulator is pretty accurate.",
  "avianDescription": "The Matter Manipulator. A powerful tool.",
  "floranDescription": "Matter Manipulator. Floran can\u0027t wait to get one!",
  "glitchDescription": "Appreciative. The Matter Manipulator is a powerful tool. This is just a replica.",
  "humanDescription": "Soon I\u0027ll have my own Matter Manipulator! I\u0027m excited.",
  "hylotlDescription": "The Matter Manipulator is a Protectors trademark tool.",
  "novakidDescription": "At today\u0027s ceremony I\u0027m gettin\u0027 my very own Matter Manipulator. It\u0027s a big day."
}