{
  "itemKey": "protectorateroofdetail05",
  "itemName": "Protectorate Roof Top Vent",
  "iconFile": "protectorateroofdetail05.png",
  "price": 50,
  "rarity": "Common",
  "category": "decorative",
  "maxStack": 0,
  "foodValue": 0.0,
  "rottingMultiplier": 0.0,
  "printable": false,
  "race": "protectorate",
  "description": "A roof top vent from the Protectorate Academy.",
  "apexDescription": "Some sort of ventilation.",
  "avianDescription": "This is a vent.",
  "floranDescription": "Thisss thing is ventilation.",
  "glitchDescription": "Uninterested. A standard ventilation system.",
  "humanDescription": "I think it\u0027s a vent. But who cares?",
  "hylotlDescription": "A vent.",
  "novakidDescription": "Looks like a vent."
}