{
  "itemKey": "protectoraterobe",
  "itemName": "Protectorate Robe Prop",
  "iconFile": "protectoraterobe.png",
  "price": 50,
  "rarity": "Common",
  "category": "decorative",
  "maxStack": 0,
  "foodValue": 0.0,
  "rottingMultiplier": 0.0,
  "printable": false,
  "race": "protectorate",
  "description": "The robe of a previous Grand Protector. Fancy!",
  "apexDescription": "This robe must be made from a luxurious material.",
  "avianDescription": "The robe of a previous Grand Protector. It looks comfortable.",
  "floranDescription": "Big red robe. Looks clumsy!",
  "glitchDescription": "Observant. Our current Grand Protector doesn\u0027t wear robes like these.",
  "humanDescription": "An old fashioned robe used by Grand Protectors a long time ago.",
  "hylotlDescription": "An elegant, scarlet robe. Modern Grand Protectors don\u0027t wear these.",
  "novakidDescription": "Fancy people clothes."
}