{
  "itemKey": "protectorateposter2",
  "itemName": "Poster",
  "iconFile": "protectorateposter2.png",
  "price": 70,
  "rarity": "Common",
  "category": "decorative",
  "maxStack": 0,
  "foodValue": 0.0,
  "rottingMultiplier": 0.0,
  "printable": false,
  "race": "protectorate",
  "description": "A retro poster.",
  "apexDescription": "A retro movie poster for a movie I haven\u0027t seen.",
  "avianDescription": "It\u0027s a dramatic looking movie poster.",
  "floranDescription": "Ssspace ship movie! Floran ssseen it five times.",
  "glitchDescription": "Bored. People still care about this old movie? Personally, I was never a fan.",
  "humanDescription": "Ah, this old movie. Classic.",
  "hylotlDescription": "An old movie poster.",
  "novakidDescription": "I never watched this movie, but the poster is lookin\u0027 cool."
}