{
  "itemKey": "protectorateincap6",
  "itemName": "Protectorate Body",
  "iconFile": "protectorateincap6.png",
  "price": 50,
  "rarity": "Common",
  "category": "decorative",
  "maxStack": 0,
  "foodValue": 0.0,
  "rottingMultiplier": 0.0,
  "printable": false,
  "race": "protectorate",
  "description": "A Protector...",
  "apexDescription": "I don\u0027t want to look...",
  "avianDescription": "Good lord...",
  "floranDescription": "So sssad...",
  "glitchDescription": "Devastated. I have no words...",
  "humanDescription": "I\u0027m so sorry...",
  "hylotlDescription": "I can\u0027t look...",
  "novakidDescription": "No! This can\u0027t be happenin\u0027."
}