{
  "itemKey": "protectorateposter1",
  "itemName": "Poster",
  "iconFile": "protectorateposter1.png",
  "price": 55,
  "rarity": "Common",
  "category": "decorative",
  "maxStack": 0,
  "foodValue": 0.0,
  "rottingMultiplier": 0.0,
  "printable": false,
  "race": "protectorate",
  "description": "A poster of a Matter Manipulator.",
  "apexDescription": "A rather dramatic poster of a Matter Manipulator.",
  "avianDescription": "The Matter Manipulator is the prize possession of a Protectorate Graduate.",
  "floranDescription": "A poster of the Protectors most vital tool!",
  "glitchDescription": "Inspired. This poster makes me want to adventure across the universe.",
  "humanDescription": "This poster features the Matter Manipulator, prized multi-tool of the Protectorate.",
  "hylotlDescription": "The Matter Manipulator, a tool of many capabilities. How inspiring.",
  "novakidDescription": "Folks like me could do with a tool like a Matter Manipulator."
}