{
  "itemKey": "protectoratechest",
  "itemName": "Protectorate Shirt",
  "iconFile": "protectoratechest.png",
  "price": 125,
  "rarity": "Common",
  "category": "chestwear",
  "maxStack": 1,
  "foodValue": 0.0,
  "rottingMultiplier": 0.0,
  "printable": true,
  "description": "Standard issue uniform for all members of the Terrene Protectorate."
}