{
  "itemKey": "protectorateguidelines",
  "itemName": "Protectorate Old Book",
  "iconFile": "protectorateguidelines.png",
  "price": 50,
  "rarity": "Common",
  "category": "decorative",
  "maxStack": 0,
  "foodValue": 0.0,
  "rottingMultiplier": 0.0,
  "printable": false,
  "race": "protectorate",
  "description": "An old book full of guidelines for Protectors.",
  "apexDescription": "This book contains the original, slightly outdated, guidelines for being a Protector.",
  "avianDescription": "A book written a long time ago containing guidelines for being a Protector.",
  "floranDescription": "Dusssty book with old rules.",
  "glitchDescription": "Impressed. This book is well preserved.",
  "humanDescription": "And old and dusty book. It contains outdated guidelines.",
  "hylotlDescription": "This book contains the first guidelines written for being a Protector.",
  "novakidDescription": "An ancient lookin\u0027 book."
}