{
  "itemKey": "protectoratebrokenvending",
  "itemName": "Broken Vending Machine",
  "iconFile": "protectoratebrokenvending.png",
  "price": 50,
  "rarity": "Common",
  "category": "decorative",
  "maxStack": 0,
  "foodValue": 0.0,
  "rottingMultiplier": 0.0,
  "printable": false,
  "race": "protectorate",
  "description": "A broken vending machine.",
  "apexDescription": "This vending machine once sold delicious drinks.",
  "avianDescription": "I remember buying drinks from this machine... those were better days.",
  "floranDescription": "Floran will mourn for dead vending machine later.",
  "glitchDescription": "Wistful. I hope I fare better than this poor vending machine.",
  "humanDescription": "I could go for an energy drink, but this machine is definitely out of order.",
  "hylotlDescription": "If I don\u0027t escape this place soon, I could share this vending machine\u0027s fate.",
  "novakidDescription": "This machine\u0027s busted up real good."
}