{
  "itemKey": "protectoratetentacle",
  "itemName": "Protectorate Tentacle",
  "iconFile": "protectoratetentacle.png",
  "price": 70,
  "rarity": "Common",
  "maxStack": 0,
  "foodValue": 0.0,
  "rottingMultiplier": 0.0,
  "printable": false,
  "race": "protectorate",
  "description": "An invading tentacle."
}