{
  "itemKey": "protectoratewindbanner2",
  "itemName": "Protectorate Wall Banner",
  "iconFile": "protectoratewindbanner2.png",
  "price": 70,
  "rarity": "Common",
  "maxStack": 0,
  "foodValue": 0.0,
  "rottingMultiplier": 0.0,
  "printable": false,
  "race": "protectorate",
  "description": "A Protectorate wallbanner from the Protectorate academy.",
  "apexDescription": "A yellow protectorate banner. Wonderful.",
  "avianDescription": "Bright like the beaming sun. This colour represents the protectorate well.",
  "floranDescription": "Yellow Protectorate banner makesss Floran feel happy.",
  "glitchDescription": "Proud. The iconic Protectorate banner. I\u0027m glad to be a part of this.",
  "humanDescription": "A big bright Protectorate banner! I wish I could fit one in my dorm.",
  "hylotlDescription": "The Protectorate banner represents so much. It means a lot to us all.",
  "novakidDescription": "I love the bright colour of the protectorate banner."
}