{
  "itemKey": "protectoraterubble",
  "itemName": "Impassable Rubble",
  "iconFile": "protectoraterubble.png",
  "price": 0,
  "rarity": "Common",
  "category": "decorative",
  "maxStack": 0,
  "foodValue": 0.0,
  "rottingMultiplier": 0.0,
  "printable": false,
  "race": "protectorate",
  "description": "There\u0027s no way back. Even a Matter Manipulator couldn\u0027t break up this reinforced debris."
}