{
  "itemKey": "proximitysensor",
  "itemName": "Pressure Plate",
  "iconFile": "proximitysensor.png",
  "price": 15,
  "rarity": "Common",
  "category": "wire",
  "maxStack": 0,
  "foodValue": 0.0,
  "rottingMultiplier": 0.0,
  "printable": false,
  "colonyTags": [
    "wired"
  ],
  "race": "generic",
  "description": "This pressure plate activates when stepped on.",
  "apexDescription": "This will go off if I get too close.",
  "avianDescription": "Don\u0027t get too close!",
  "floranDescription": "Floran know to be careful around thisss!",
  "glitchDescription": "Cautious. A proximity sensor.",
  "humanDescription": "A proximity sensor.",
  "hylotlDescription": "A sensor.",
  "novakidDescription": "Tread carefully."
}