{
  "itemKey": "purplegumdrop1",
  "itemName": "Big Purple Gumdrop",
  "iconFile": "purplegumdrop1.png",
  "price": 250,
  "rarity": "Uncommon",
  "category": "decorative",
  "maxStack": 0,
  "foodValue": 0.0,
  "rottingMultiplier": 0.0,
  "printable": false,
  "colonyTags": [
    "christmas"
  ],
  "race": "generic",
  "description": "A big, delicious purple gumdrop! Yummy!",
  "apexDescription": "A tasty purple gumdrop.",
  "avianDescription": "A big purple gumdrop. Tasty.",
  "floranDescription": "Floran eat big purple sweet!",
  "glitchDescription": "Thrilled. A tasty purple gumdrop.",
  "humanDescription": "Sweets! Yes!",
  "hylotlDescription": "This looks tasty.",
  "novakidDescription": "A tasty lookin\u0027 gumdrop!"
}