{
  "itemKey": "pussplum",
  "itemName": "Pussplum",
  "iconFile": "pussplum.png",
  "price": 150,
  "rarity": "Common",
  "category": "food",
  "maxStack": 1,
  "foodValue": 7.5,
  "rottingMultiplier": 1.0,
  "printable": true,
  "description": "Pussplum, some claim it is delicious!"
}