{
  "itemKey": "pyramidhead",
  "itemName": "Pyramid Head",
  "iconFile": "pyramidhead.png",
  "price": 2500,
  "rarity": "Rare",
  "category": "headwear",
  "maxStack": 1,
  "foodValue": 0.0,
  "rottingMultiplier": 0.0,
  "printable": true,
  "description": "Somehow not as terrifying as you might expect."
}