{
  "itemKey": "raggedcapeback",
  "itemName": "Ragged Cape",
  "iconFile": "raggedcapeback.png",
  "price": 2500,
  "rarity": "Rare",
  "category": "backwear",
  "maxStack": 1,
  "foodValue": 0.0,
  "rottingMultiplier": 0.0,
  "printable": true,
  "description": "A ragged cape, perfect for an adventure!"
}