{
  "itemKey": "rainbowtable",
  "itemName": "Rainbow Table",
  "iconFile": "rainbowtable.png",
  "price": 85,
  "rarity": "Common",
  "category": "furniture",
  "maxStack": 0,
  "foodValue": 0.0,
  "rottingMultiplier": 0.0,
  "printable": false,
  "colonyTags": [
    "colourful",
    "commerce"
  ],
  "race": "generic",
  "description": "A rainbow table makes every meal a joy.",
  "apexDescription": "Sitting here to eat will make every meal an experience.",
  "avianDescription": "A stunning rainbow table, bright as a peacock!",
  "floranDescription": "Floran not even sssully pretty table with blood.",
  "glitchDescription": "Desire. To sit and eat at this table will raise my mood considerably.",
  "humanDescription": "I can\u0027t wait to eat at this table.",
  "hylotlDescription": "A wonderful, colourful table.",
  "novakidDescription": "All these colours would surly drive you loopy."
}