{
  "itemKey": "rainbowwoodbed",
  "itemName": "Rainbow Wood Bed",
  "iconFile": "rainbowwoodbed.png",
  "price": 110,
  "rarity": "Common",
  "category": "furniture",
  "maxStack": 0,
  "foodValue": 0.0,
  "rottingMultiplier": 0.0,
  "printable": false,
  "colonyTags": [
    "colourful"
  ],
  "race": "generic",
  "description": "A bed made of rainbow wood.",
  "apexDescription": "This bed is only suitable for a child\u0027s room.",
  "avianDescription": "A bed with a rainbow on it! Built to inspire happy dreams.",
  "floranDescription": "Bed is bright and colourful.",
  "glitchDescription": "Amused. This bed has a childlike appeal.",
  "humanDescription": "Waking up under a rainbow would be fun, I think.",
  "hylotlDescription": "Our inner child tends to surface when it comes to rainbows.",
  "novakidDescription": "Sleeping under a rainbow is bound to bring you luck."
}