{
  "itemKey": "rainbowchest",
  "itemName": "Rainbow Chest",
  "iconFile": "rainbowchest.png",
  "price": 55,
  "rarity": "Common",
  "category": "storage",
  "maxStack": 0,
  "foodValue": 0.0,
  "rottingMultiplier": 0.0,
  "printable": false,
  "colonyTags": [
    "colourful",
    "storage"
  ],
  "race": "generic",
  "description": "A chest decorated with beautiful rainbow markings.",
  "apexDescription": "A rainbow chest. The contents are surely enjoyable.",
  "avianDescription": "A colourful chest. Can\u0027t wait to see what\u0027s inside.",
  "floranDescription": "Floran needs to see inssside pretty chessst.",
  "glitchDescription": "Pleased. A beautiful chest no doubt contains beautiful items.",
  "humanDescription": "I hope there\u0027s a pot of gold inside.",
  "hylotlDescription": "Such a beautiful method of storage.",
  "novakidDescription": "Is this the chest at the end of the rainbow?"
}