{
  "itemKey": "rarepistol",
  "itemName": "Rare Pistol",
  "price": 720,
  "rarity": "Rare",
  "category": "pistol",
  "maxStack": 1,
  "foodValue": 0.0,
  "rottingMultiplier": 0.0,
  "printable": true,
  "description": "A small handgun."
}