{
  "itemKey": "rawbacon",
  "itemName": "Raw Bacon",
  "iconFile": "rawbacon.png",
  "price": 20,
  "rarity": "Common",
  "category": "food",
  "maxStack": 1,
  "foodValue": 10.0,
  "rottingMultiplier": 0.5,
  "printable": true,
  "description": "Raw strips of bacon. I should cook them first, right?"
}