{
  "itemKey": "redball",
  "itemName": "Red Ball Holiday Ornament",
  "iconFile": "redball.png",
  "price": 1000,
  "rarity": "Uncommon",
  "category": "decorative",
  "maxStack": 0,
  "foodValue": 0.0,
  "rottingMultiplier": 0.0,
  "printable": false,
  "colonyTags": [
    "christmas",
    "pretty"
  ],
  "race": "generic",
  "description": "A red ball adorned with a big white star! These are popular as holiday ornaments.",
  "apexDescription": "A shiny red ball. Pretty.",
  "avianDescription": "A majestic red ball.",
  "floranDescription": "Floran kick shiny ball!",
  "glitchDescription": "Happy. A lovely decoration.",
  "humanDescription": "Gotta be careful not to smash this bauble.",
  "hylotlDescription": "There\u0027s something hypnotising about this shiny ball.",
  "novakidDescription": "A pretty red ball, great for decoration."
}