{
  "itemKey": "redgumdrop1",
  "itemName": "Big Red Gumdrop",
  "iconFile": "redgumdrop1.png",
  "price": 250,
  "rarity": "Uncommon",
  "category": "decorative",
  "maxStack": 0,
  "foodValue": 0.0,
  "rottingMultiplier": 0.0,
  "printable": false,
  "colonyTags": [
    "christmas"
  ],
  "race": "generic",
  "description": "A big, delicious red gumdrop! Yummy!",
  "apexDescription": "A tasty red gumdrop.",
  "avianDescription": "A big red gumdrop. Tasty.",
  "floranDescription": "Floran eat big red sweet!",
  "glitchDescription": "Statement. A tasty red gumdrop.",
  "humanDescription": "Sweets! Yes!",
  "hylotlDescription": "This looks tasty.",
  "novakidDescription": "A tasty lookin\u0027 gumdrop"
}