{
  "itemKey": "reeddoor",
  "itemName": "Reed Door",
  "iconFile": "reeddoor.png",
  "price": 60,
  "rarity": "Common",
  "category": "door",
  "maxStack": 0,
  "foodValue": 0.0,
  "rottingMultiplier": 0.0,
  "printable": false,
  "colonyTags": [
    "oasis",
    "nature",
    "door"
  ],
  "race": "generic",
  "description": "A door made of wood and reed.",
  "apexDescription": "A door made of wood and reeds.",
  "avianDescription": "A door made of wood and reeds.",
  "floranDescription": "Reed door.",
  "glitchDescription": "Observant. A door made of wood and reeds.",
  "humanDescription": "A door made of wood and reeds.",
  "hylotlDescription": "A door made of wood and reeds.",
  "novakidDescription": "A door made of wood and reeds."
}