{
  "itemKey": "reedseed2",
  "itemName": "Reed Seed",
  "iconFile": "reedseed2.png",
  "price": 0,
  "rarity": "Common",
  "category": "breakable",
  "maxStack": 0,
  "foodValue": 0.0,
  "rottingMultiplier": 0.0,
  "printable": false,
  "colonyTags": [
    "oasis",
    "nature"
  ],
  "race": "avian",
  "description": "Tall, leafy reeds.",
  "apexDescription": "Reeds.",
  "avianDescription": "Just reeds.",
  "floranDescription": "Reedsss.",
  "glitchDescription": "Disinterested. Just reeds.",
  "humanDescription": "Reeds.",
  "hylotlDescription": "Tall, leafy reeds.",
  "novakidDescription": "It\u0027s just some reeds."
}