{
  "itemKey": "reedlamp",
  "itemName": "Reed Lamp",
  "iconFile": "reedlamp.png",
  "price": 55,
  "rarity": "Common",
  "category": "light",
  "maxStack": 0,
  "foodValue": 0.0,
  "rottingMultiplier": 0.0,
  "printable": false,
  "colonyTags": [
    "oasis",
    "nature",
    "light"
  ],
  "race": "floran",
  "description": "It looks like reed, but it\u0027s actually a lamp.",
  "apexDescription": "This lamp is cleverly disguised as a reed.",
  "avianDescription": "A reed that\u0027s been fashioned into a lamp.",
  "floranDescription": "Isss glowing reed.",
  "glitchDescription": "Observant. It is a lamp disguised as a reed.",
  "humanDescription": "It looks like a reed, but it\u0027s actually a lamp.",
  "hylotlDescription": "This is no mere reed - it\u0027s a lamp! How very clever.",
  "novakidDescription": "It\u0027s a glowin\u0027 reed."
}