{
  "itemKey": "reefcola",
  "itemName": "Reef-Cola",
  "iconFile": "reefcola.png",
  "price": 40,
  "rarity": "Common",
  "category": "drink",
  "maxStack": 1,
  "foodValue": 0.0,
  "rottingMultiplier": 0.0,
  "printable": true,
  "description": "Taste the ocean, with Reef-Cola."
}