{
  "itemKey": "reefpod",
  "itemName": "Reefpod",
  "iconFile": "reefpod.png",
  "price": 150,
  "rarity": "Common",
  "category": "food",
  "maxStack": 1,
  "foodValue": 7.5,
  "rottingMultiplier": 1.0,
  "printable": true,
  "description": "Fruit of the ocean."
}