{
  "itemKey": "refinedaegisalt",
  "itemName": "Refined Aegisalt",
  "iconFile": "refinedaegisalt.png",
  "price": 120,
  "rarity": "Rare",
  "category": "craftingMaterial",
  "maxStack": 0,
  "foodValue": 0.0,
  "rottingMultiplier": 0.0,
  "printable": true,
  "description": "Ore for refined aegisalt is primarily found on planets orbiting frozen stars."
}