{
  "itemKey": "remotegrenadelauncher",
  "itemName": "Remote Grenade Launcher",
  "iconFile": "remotegrenadelauncher.png",
  "price": 1500,
  "rarity": "Legendary",
  "category": "grenadeLauncher",
  "maxStack": 1,
  "foodValue": 0.0,
  "rottingMultiplier": 0.0,
  "printable": true,
  "description": "Fires grenades that can be manually triggered to explode."
}