{
  "itemKey": "remoteteleporter",
  "itemName": "Outpost Teleporter",
  "iconFile": "remoteteleporter.png",
  "price": 3000,
  "rarity": "Legendary",
  "category": "teleporter",
  "maxStack": 0,
  "foodValue": 0.0,
  "rottingMultiplier": 0.0,
  "printable": false,
  "colonyTags": [
    "misc"
  ],
  "description": "A personal teleporter, connects to bookmarked locations.",
  "apexDescription": "A personal teleporter. A functional but fun piece of equipment.",
  "avianDescription": "I love the whoosh of my feathers when I teleport!",
  "floranDescription": "Perssonal teleporter is fancy!",
  "glitchDescription": "Enticed. A personal teleporter, with a custom design.",
  "humanDescription": "A personal teleporter! Now this is travelling in style.",
  "hylotlDescription": "A personal teleporter, it sports a custom design.",
  "novakidDescription": "As teleporters go, this sure is fancy lookin\u0027!"
}