{
  "itemKey": "ricecake",
  "itemName": "Rice Cake",
  "iconFile": "ricecake.png",
  "price": 75,
  "rarity": "Common",
  "category": "preparedFood",
  "maxStack": 1,
  "foodValue": 20.0,
  "rottingMultiplier": 1.0,
  "printable": true,
  "description": "A simple snack formed of rice, held together by seaweed."
}