{
  "itemKey": "ridgebrick",
  "itemName": "Ridged Block",
  "iconFile": "ridgebrick.png",
  "price": 0,
  "rarity": "Common",
  "category": "block",
  "maxStack": 0,
  "foodValue": 0.0,
  "rottingMultiplier": 0.0,
  "printable": true,
  "description": "Stone bricks with a ridge carved near the top."
}