{
  "itemKey": "ringramaf",
  "itemName": "Ringram Figurine",
  "iconFile": "ringramaf.png",
  "price": 5000,
  "rarity": "Legendary",
  "category": "actionFigure",
  "maxStack": 0,
  "foodValue": 0.0,
  "rottingMultiplier": 0.0,
  "printable": false,
  "colonyTags": [
    "pretty"
  ],
  "description": "The label reads, \"The Ringram\u0027s horns start growing from birth and never stop.\""
}