{
  "itemKey": "riotshield",
  "itemName": "Riot Shield",
  "iconFile": "riotshield.png",
  "price": 720,
  "rarity": "Uncommon",
  "category": "shield",
  "maxStack": 1,
  "foodValue": 0.0,
  "rottingMultiplier": 0.0,
  "printable": true,
  "description": "A bastion of order in an uncertain world."
}