{
  "itemKey": "robotchest",
  "itemName": "Robot Chest",
  "iconFile": "robotchest.png",
  "price": 0,
  "rarity": "Common",
  "category": "craftingMaterial",
  "maxStack": 0,
  "foodValue": 0.0,
  "rottingMultiplier": 0.0,
  "printable": true,
  "description": "A robot chest, strong as steel."
}