{
  "itemKey": "robotlegs",
  "itemName": "Robot Legs",
  "iconFile": "robotlegs.png",
  "price": 0,
  "rarity": "Common",
  "category": "craftingMaterial",
  "maxStack": 0,
  "foodValue": 0.0,
  "rottingMultiplier": 0.0,
  "printable": true,
  "description": "Robot legs, for mobility!"
}