{
  "itemKey": "rock12",
  "itemName": "Rough Stone",
  "iconFile": "rock12.png",
  "price": 0,
  "rarity": "Common",
  "category": "block",
  "maxStack": 0,
  "foodValue": 0.0,
  "rottingMultiplier": 0.0,
  "printable": true,
  "description": "Rough, unrefined stone."
}