{
  "itemKey": "rockhat",
  "itemName": "Rock Hat",
  "iconFile": "rockhat.png",
  "price": 2500,
  "rarity": "Rare",
  "category": "headwear",
  "maxStack": 1,
  "foodValue": 0.0,
  "rottingMultiplier": 0.0,
  "printable": true,
  "description": "You can put these rocks on your head."
}