{
  "itemKey": "rockbrickmaterial",
  "itemName": "Rock Bricks",
  "iconFile": "rockbrickmaterial.png",
  "price": 0,
  "rarity": "Common",
  "category": "block",
  "maxStack": 0,
  "foodValue": 0.0,
  "rottingMultiplier": 0.0,
  "printable": true,
  "description": "A crudely produced set of rock bricks."
}