{
  "itemKey": "root2",
  "itemName": "Roots",
  "iconFile": "root2.png",
  "price": 0,
  "rarity": "Common",
  "category": "decorative",
  "maxStack": 0,
  "foodValue": 0.0,
  "rottingMultiplier": 0.0,
  "printable": false,
  "colonyTags": [],
  "race": "generic",
  "description": "There are small roots protruding from the ceiling.",
  "apexDescription": "Roots are pushing through the ceiling.",
  "avianDescription": "Roots are growing from the ceiling. Maybe one day this place will be covered in them.",
  "floranDescription": "Roots grow for many years. Like Floran.",
  "glitchDescription": "Observant. There are roots protruding from the ceiling.",
  "humanDescription": "These roots look like brown tentacles.",
  "hylotlDescription": "How far have these roots travelled? And to what plant do they belong?",
  "novakidDescription": "It\u0027s just roots."
}