{
  "itemKey": "rottenfood",
  "itemName": "Rotten Food",
  "iconFile": "rottenfood.png",
  "price": 0,
  "rarity": "Common",
  "category": "foodJunk",
  "maxStack": 0,
  "foodValue": 0.0,
  "rottingMultiplier": 0.0,
  "printable": true,
  "description": "Gross. There\u0027s absolutely no way this is still edible."
}