{
  "itemKey": "royalbed",
  "itemName": "Ornate Royal Bed",
  "iconFile": "royalbed.png",
  "price": 245,
  "rarity": "Common",
  "category": "furniture",
  "maxStack": 0,
  "foodValue": 0.0,
  "rottingMultiplier": 0.0,
  "printable": true,
  "colonyTags": [
    "glitch",
    "glitchcastle",
    "valuable"
  ],
  "race": "glitch",
  "description": "A beautiful bed made of shiny gold.",
  "apexDescription": "A bed of silk and gold. Fit for a king.",
  "avianDescription": "A bed forged from precious metals. Who sleeps amongst such precious materials?",
  "floranDescription": "Floran want to try out shiny bed.",
  "glitchDescription": "Identify. A bed built for royalty.",
  "humanDescription": "I suspect this was built for royalty.",
  "hylotlDescription": "Does a king require such splendour? Does it make him a better king?",
  "novakidDescription": "Sure is a fancy bed, fit for a king almost!"
}