{
  "itemKey": "rusticoven",
  "itemName": "Rustic Oven",
  "iconFile": "rusticoven.png",
  "price": 70,
  "rarity": "Common",
  "category": "crafting",
  "maxStack": 0,
  "foodValue": 0.0,
  "rottingMultiplier": 0.0,
  "printable": true,
  "colonyTags": [
    "cooking",
    "light"
  ],
  "race": "generic",
  "description": "Crackling quietly, the smell of hickory smoke is delightful.",
  "apexDescription": "A delightful little oven.",
  "avianDescription": "The grounded love to cook on little ovens like these.",
  "floranDescription": "Ssstone oven cook meat good.",
  "glitchDescription": "Informative. The bricks reflect the heat, cooking quickly and evenly.",
  "humanDescription": "An adorable oven. ",
  "hylotlDescription": "So much charm.",
  "novakidDescription": "Well if that ain\u0027t the cutest little oven I ever saw!"
}