{
  "itemKey": "rustbush3",
  "itemName": "Rusty Bush",
  "iconFile": "rustbush3.png",
  "price": 0,
  "rarity": "Common",
  "category": "breakable",
  "maxStack": 0,
  "foodValue": 0.0,
  "rottingMultiplier": 0.0,
  "printable": false,
  "colonyTags": [
    "rust"
  ],
  "race": "generic",
  "description": "A cluster of rusted metal. Watch out for sharp edges.",
  "apexDescription": "This piece of debris has long since rusted over.",
  "avianDescription": "An abandoned piece of old rusty metal.",
  "floranDescription": "Floran could ussse metal asss weapon.",
  "glitchDescription": "Nervous. The sight of rust makes me feel faint.",
  "humanDescription": "This appears to be a piece of rusted metal. Did nature make this? How is that possible?",
  "hylotlDescription": "It is simply a piece of unpleasant, rusting metal.",
  "novakidDescription": "I\u0027m sure this ol\u0027 metal could be put to some good use if you cleaned it up."
}