{
  "itemKey": "rustdoor",
  "itemName": "Rusty Door",
  "iconFile": "rustdoor.png",
  "price": 60,
  "rarity": "Common",
  "category": "door",
  "maxStack": 0,
  "foodValue": 0.0,
  "rottingMultiplier": 0.0,
  "printable": false,
  "colonyTags": [
    "rust",
    "door"
  ],
  "race": "generic",
  "description": "A rusty door. Looks like it should lead to a creepy basement.",
  "apexDescription": "A sinister, rusty door.",
  "avianDescription": "A door like this could never lead to somewhere remarkable.",
  "floranDescription": "For once, Floran have nothing sssmart to sssay.",
  "glitchDescription": "Disgusted. A rusted door.",
  "humanDescription": "A rusty door.",
  "hylotlDescription": "This door has not been well maintained."
}