{
  "itemKey": "rustbed",
  "itemName": "Rusty Bed",
  "iconFile": "rustbed.png",
  "price": 75,
  "rarity": "Common",
  "category": "furniture",
  "maxStack": 0,
  "foodValue": 0.0,
  "rottingMultiplier": 0.0,
  "printable": false,
  "colonyTags": [
    "rust"
  ],
  "race": "generic",
  "description": "A rusty bed. Looks cheap and fragile.",
  "apexDescription": "A cheap, rusty bed. Reminds me of Miniknog cells.",
  "avianDescription": "An old, unloved bed. It\u0027s going rusty.",
  "floranDescription": "Floran not sssleep in gritty bed.",
  "glitchDescription": "Paranoid. The smell of rust will give me nightmares.",
  "humanDescription": "An old, rusty bed. Nothing remarkable.",
  "hylotlDescription": "A crude bed. It\u0027s practically falling apart.",
  "novakidDescription": "This bed is practically fallin\u0027 apart."
}