{
  "itemKey": "saloontumbler",
  "itemName": "Saloon Tumbler",
  "iconFile": "saloontumbler.png",
  "price": 30,
  "rarity": "Common",
  "category": "decorative",
  "maxStack": 0,
  "foodValue": 0.0,
  "rottingMultiplier": 0.0,
  "printable": true,
  "colonyTags": [
    "novakid",
    "novakidvillage",
    "cooking"
  ],
  "race": "novakid",
  "description": "A dirty-looking glass tumbler.",
  "apexDescription": "A small glass for drinking from.",
  "avianDescription": "A small drinking glass.",
  "floranDescription": "Floran wantsss to see glasss smash.",
  "glitchDescription": "Observant. A small glass.",
  "humanDescription": "A small glass. There\u0027s years of chips and scratches on its surface.",
  "hylotlDescription": "A small, simple glass.",
  "novakidDescription": "This glass looks a little dirty, but I\u0027d still use it."
}