{
  "itemKey": "saloontable",
  "itemName": "Saloon Table",
  "iconFile": "saloontable.png",
  "price": 105,
  "rarity": "Common",
  "category": "furniture",
  "maxStack": 0,
  "foodValue": 0.0,
  "rottingMultiplier": 0.0,
  "printable": true,
  "colonyTags": [
    "novakid",
    "novakidvillage",
    "saloon"
  ],
  "race": "novakid",
  "description": "A richly-stained table fit for an old Western.",
  "apexDescription": "This table\u0027s littered with playing cards.",
  "avianDescription": "There\u0027s a bunch of coloured chips scattered across it.",
  "floranDescription": "Pretty desssk.",
  "glitchDescription": "Amused. A very simple table adorned with gaming paraphernalia.",
  "humanDescription": "This table\u0027s straight out of the old west!",
  "hylotlDescription": "A table designed for playing cards and starting fights.",
  "novakidDescription": "A stem-winder! Mighty fine!"
}