{
  "itemKey": "salvagetier4",
  "itemName": "Salvaged Interface Chip",
  "iconFile": "salvagetier4.png",
  "price": 25,
  "rarity": "Common",
  "category": "salvageComponent",
  "maxStack": 0,
  "foodValue": 0.0,
  "rottingMultiplier": 0.0,
  "printable": true,
  "description": "This component could be useful for crafting simple mech parts."
}