{
  "itemKey": "salvagetier6",
  "itemName": "Salvaged Nano Receptacle",
  "iconFile": "salvagetier6.png",
  "price": 75,
  "rarity": "Common",
  "category": "salvageComponent",
  "maxStack": 0,
  "foodValue": 0.0,
  "rottingMultiplier": 0.0,
  "printable": true,
  "description": "This component could be useful for crafting high-tech mech parts."
}