{
  "itemKey": "salve",
  "itemName": "Salve",
  "iconFile": "salve.png",
  "price": 10,
  "rarity": "Common",
  "category": "medicine",
  "maxStack": 0,
  "foodValue": 0.0,
  "rottingMultiplier": 0.0,
  "printable": true,
  "description": "A salve for healing minor wounds. Restores 50 health over 10 seconds."
}