{
  "itemKey": "sandstonetorch",
  "itemName": "Sandstone Torch",
  "iconFile": "sandstonetorch.png",
  "price": 35,
  "rarity": "Common",
  "category": "light",
  "maxStack": 0,
  "foodValue": 0.0,
  "rottingMultiplier": 0.0,
  "printable": false,
  "colonyTags": [
    "sandstone",
    "light"
  ],
  "race": "generic",
  "description": "This torch flickers softly.",
  "apexDescription": "A torch.",
  "avianDescription": "A burning torch.",
  "floranDescription": "A burny torch. Dangerous.",
  "glitchDescription": "Neutral. It\u0027s simply a torch.",
  "humanDescription": "A simple sandstone torch.",
  "hylotlDescription": "It\u0027s a simple torch.",
  "novakidDescription": "It\u0027s a flickerin\u0027 torch."
}