{
  "itemKey": "sandstonestatueavian",
  "itemName": "Avian Sandstone Statue",
  "iconFile": "sandstonestatueavian.png",
  "price": 400,
  "rarity": "Rare",
  "category": "decorative",
  "maxStack": 0,
  "foodValue": 0.0,
  "rottingMultiplier": 0.0,
  "printable": false,
  "colonyTags": [
    "sandstone",
    "pretty"
  ],
  "race": "generic",
  "description": "An Avian statue. Not likely to fly away.",
  "apexDescription": "A curious-looking Avian. He looks regal.",
  "avianDescription": "This Avian is known for uniting the grounded and encouraging us to spread our wings.",
  "floranDescription": "Ssilly pecky birdman made of sssand ssstone.",
  "glitchDescription": "Knowledgeable. The Avian depicted here had great historical importance.",
  "humanDescription": "This Avian looks like a cool dude. I\u0027ll bet nobody messed with him.",
  "hylotlDescription": "The Avian\u0027s comical features have been captured well here.",
  "novakidDescription": "Looks like a carvin\u0027 of some Avian."
}