{
  "itemKey": "sawblade",
  "itemName": "Sawblade Trap",
  "iconFile": "sawblade.png",
  "price": 90,
  "rarity": "Common",
  "category": "trap",
  "maxStack": 0,
  "foodValue": 0.0,
  "rottingMultiplier": 0.0,
  "printable": true,
  "colonyTags": [
    "avian",
    "aviantemple",
    "evil"
  ],
  "race": "avian",
  "description": "Wow, this looks sharp!",
  "apexDescription": "Looks sharp.",
  "avianDescription": "Avian protect their tombs well.",
  "floranDescription": "Sssharp. Floran must avoid.",
  "glitchDescription": "Worried. This appears to be spinning at four thousand RPM.",
  "humanDescription": "Woah, I have to be careful here.",
  "hylotlDescription": "I\u0027m not keen to become sushi.",
  "novakidDescription": "That doesn\u0027t look friendly."
}