{
  "itemKey": "saxophone",
  "itemName": "Saxophone",
  "iconFile": "saxophone.png",
  "price": 3000,
  "rarity": "Common",
  "category": "musicalInstrument",
  "maxStack": 1,
  "foodValue": 0.0,
  "rottingMultiplier": 0.0,
  "printable": true,
  "description": "A saxophone. For when you\u0027ve got the space blues."
}