{
  "itemKey": "scandroidaf",
  "itemName": "Scandroid Figurine",
  "iconFile": "scandroidaf.png",
  "price": 5000,
  "rarity": "Legendary",
  "category": "actionFigure",
  "maxStack": 0,
  "foodValue": 0.0,
  "rottingMultiplier": 0.0,
  "printable": false,
  "colonyTags": [
    "pretty"
  ],
  "description": "The label reads, \"The scandroid is on an endless search. No one knows what for.\""
}