{
  "itemKey": "scanclue2",
  "itemName": "Scan Clue 2",
  "iconFile": "scanclue2.png",
  "price": 0,
  "rarity": "Common",
  "category": "decorative",
  "maxStack": 0,
  "foodValue": 0.0,
  "rottingMultiplier": 0.0,
  "printable": false,
  "colonyTags": [
    "misc"
  ],
  "race": "generic",
  "description": "A clue for a bounty.",
  "apexDescription": "A handprint!",
  "avianDescription": "Someone left this handprint behind, but my scanner can pick up its trace!",
  "floranDescription": "Floran can sssee hand!",
  "glitchDescription": "Intriguing. The scan can pick up the faint trace of someone who was here recently.",
  "humanDescription": "This weirdly large handprint must have been left here somewhat recently.",
  "hylotlDescription": "This handprint here is practically invisible to the naked eye. Fortunately, I am rather observant.",
  "novakidDescription": "This handprint couldn\u0027t have been made too long ago, I\u0027m reckonin\u0027!"
}