{
  "itemKey": "scientistlegs",
  "itemName": "Scientist Pants",
  "iconFile": "scientistlegs.png",
  "price": 5000,
  "rarity": "Legendary",
  "category": "legwear",
  "maxStack": 1,
  "foodValue": 0.0,
  "rottingMultiplier": 0.0,
  "printable": true,
  "description": "Protects your legs while doing science."
}