{
  "itemKey": "scorchedcityarrowsign",
  "itemName": "Tire Arrow Sign",
  "iconFile": "scorchedcityarrowsign.png",
  "price": 110,
  "rarity": "Common",
  "category": "decorative",
  "maxStack": 0,
  "foodValue": 0.0,
  "rottingMultiplier": 0.0,
  "printable": true,
  "colonyTags": [
    "scorched"
  ],
  "race": "generic",
  "description": "An arrow sign.",
  "apexDescription": "An arrow sign. I wonder if it points to something useful.",
  "avianDescription": "An arrow sign, what does it point to?",
  "floranDescription": "Arrow sssign.",
  "glitchDescription": "Cunning. An arrow sign. Following it would be all too predictable.",
  "humanDescription": "An arrow sign. Nothing bad could ever come of following a random sign.",
  "hylotlDescription": "An arrow sign. Should I follow, or make my own path?",
  "novakidDescription": "What\u0027s the point of this here arrow anywho?"
}