{
  "itemKey": "scorchedcitybrokenbed",
  "itemName": "Broken Stylish Bed",
  "iconFile": "scorchedcitybrokenbed.png",
  "price": 45,
  "rarity": "Common",
  "category": "decorative",
  "maxStack": 0,
  "foodValue": 0.0,
  "rottingMultiplier": 0.0,
  "printable": false,
  "colonyTags": [
    "scorched"
  ],
  "race": "generic",
  "description": "A broken bed.",
  "apexDescription": "A broken bed. It is useless now.",
  "avianDescription": "A broken bed, it looks forgotten about.",
  "floranDescription": "Thisss bed is broken.",
  "glitchDescription": "Sad. This bed is broken.",
  "humanDescription": "A broken bed, sleeping on it now would be a terrible idea.",
  "hylotlDescription": "A broken bed. It is not even functional now.",
  "novakidDescription": "This bed sure is broken."
}