{
  "itemKey": "scorchedbench",
  "itemName": "Scorched Bench",
  "iconFile": "scorchedbench.png",
  "price": 110,
  "rarity": "Common",
  "category": "furniture",
  "maxStack": 0,
  "foodValue": 0.0,
  "rottingMultiplier": 0.0,
  "printable": true,
  "colonyTags": [
    "scorched"
  ],
  "race": "generic",
  "description": "A scorched bench.",
  "apexDescription": "There\u0027s been some damage done to this bench.",
  "avianDescription": "This bench looks rusted and worn.",
  "floranDescription": "Old russty bench.",
  "glitchDescription": "Unsettled. This bench proves even the strongest metal can be corroded.",
  "humanDescription": "This bench has seen better days.",
  "hylotlDescription": "If it could talk, I wonder what stories this bench could tell.",
  "novakidDescription": "This bench is lookin\u0027 pretty worn."
}