{
  "itemKey": "scorchedcitybed",
  "itemName": "Stylish Bed",
  "iconFile": "scorchedcitybed.png",
  "price": 45,
  "rarity": "Common",
  "category": "furniture",
  "maxStack": 0,
  "foodValue": 0.0,
  "rottingMultiplier": 0.0,
  "printable": false,
  "colonyTags": [
    "scorched"
  ],
  "race": "generic",
  "description": "A clean and sturdy bed.",
  "apexDescription": "A fresh, clean looking bed.",
  "avianDescription": "A plain looking bed. The sheets are fresh.",
  "floranDescription": "Clean bed isss good for a resstful sleep.",
  "glitchDescription": "Calm. A bed with an appealingly high level of sterility.",
  "humanDescription": "A clean looking bed, it seems comfy enough.",
  "hylotlDescription": "A simple bed, it will serve it\u0027s purpose.",
  "novakidDescription": "This bed looks a little too clean, if you ask me."
}