{
  "itemKey": "scorchedcitysmallcrate",
  "itemName": "Small Rusty Crate",
  "iconFile": "scorchedcitysmallcrate.png",
  "price": 75,
  "rarity": "Common",
  "category": "storage",
  "maxStack": 0,
  "foodValue": 0.0,
  "rottingMultiplier": 0.0,
  "printable": true,
  "colonyTags": [
    "scorched",
    "storage",
    "commerce"
  ],
  "race": "generic",
  "description": "A small rusty looking crate.",
  "apexDescription": "A rusty looking crate.",
  "avianDescription": "A rusty storage box.",
  "floranDescription": "Russsty box.",
  "glitchDescription": "Cautious. A rusty looking crate.",
  "humanDescription": "It\u0027s just a crate. A little rusty but still intact.",
  "hylotlDescription": "A crate that appears to have rusted.",
  "novakidDescription": "A rusty lookin\u0027 crate."
}