{
  "itemKey": "scorchedcitybrokenroundsign1",
  "itemName": "Neglected Rusty Sign",
  "iconFile": "scorchedcitybrokenroundsign1.png",
  "price": 75,
  "rarity": "Common",
  "category": "decorative",
  "maxStack": 0,
  "foodValue": 0.0,
  "rottingMultiplier": 0.0,
  "printable": true,
  "colonyTags": [
    "scorched"
  ],
  "race": "generic",
  "description": "A road sign, it is bent and rusted.",
  "apexDescription": "This sign is broken, it has little use now anyway.",
  "avianDescription": "A sign once used in a city, sadly it is rusting away.",
  "floranDescription": "Sssign is russted.",
  "glitchDescription": "Sad. A neglected sign that lost its use many years ago.",
  "humanDescription": "It looks like an old stop sign, but it\u0027s rusted and breaking.",
  "hylotlDescription": "A sign that has rusted away, it is slowly breaking.",
  "novakidDescription": "I never paid much attention to signs, sure not gonna start now."
}