{
  "itemKey": "scorchedcitychestdrawersmall",
  "itemName": "Small Stylish Drawers",
  "iconFile": "scorchedcitychestdrawersmall.png",
  "price": 110,
  "rarity": "Common",
  "category": "storage",
  "maxStack": 0,
  "foodValue": 0.0,
  "rottingMultiplier": 0.0,
  "printable": true,
  "colonyTags": [
    "scorched"
  ],
  "race": "generic",
  "description": "A small contemporary chest of drawers.",
  "apexDescription": "A small chest of drawers.",
  "avianDescription": "A small chest of drawers.",
  "floranDescription": "Small chest of drawersss, good for hiding ssmall thingss.",
  "glitchDescription": "Content. A small chest of drawers.",
  "humanDescription": "A small chest of drawers, useful for storing small things.",
  "hylotlDescription": "A small chest of drawers. Useful if not very beautiful.",
  "novakidDescription": "Storage is always useful!"
}