{
  "itemKey": "screen4",
  "itemName": "Glyph Screen",
  "iconFile": "screen4.png",
  "price": 45,
  "rarity": "Common",
  "category": "decorative",
  "maxStack": 0,
  "foodValue": 0.0,
  "rottingMultiplier": 0.0,
  "printable": true,
  "colonyTags": [
    "avian",
    "aviantemple",
    "electronic"
  ],
  "race": "avian",
  "description": "Glyphs pulse ominously... what do they mean?",
  "apexDescription": "Glyphs. I can\u0027t read them.",
  "avianDescription": "Only the stargazers can truly read these. I recognise the glyph of sacrifice.",
  "floranDescription": "Sssilly pictures. Floran can not recognisse.",
  "glitchDescription": "Disappointed. I can\u0027t translate these.",
  "humanDescription": "Glyphs. My translator can\u0027t read them.",
  "hylotlDescription": "Ancient symbols. My translator can not decipher them.",
  "novakidDescription": "These symbols are foreign to me. Ain\u0027t no point tryin\u0027 to interpret them."
}