{
  "itemKey": "seabed",
  "itemName": "Seashell Bed",
  "iconFile": "seabed.png",
  "price": 190,
  "rarity": "Common",
  "category": "furniture",
  "maxStack": 0,
  "foodValue": 0.0,
  "rottingMultiplier": 0.0,
  "printable": false,
  "colonyTags": [
    "sea"
  ],
  "race": "generic",
  "description": "A seashell-shaped bed.",
  "apexDescription": "Guaranteed to enduce sub-aquatic slumber.",
  "avianDescription": "This bed is made from a giant clamshell, it looks cosy.",
  "floranDescription": "Easssy to sleep in bed made of ssseaweed.",
  "glitchDescription": "Proud. A bed fit for a Hylotl king.",
  "humanDescription": "This bed is fancy, it even has a water mattress.",
  "hylotlDescription": "There is nothing more comfortable than sleeping between sheets of seaweed.",
  "novakidDescription": "This bed sure is fancy lookin\u0027. And it smells like tasty shrimp."
}