{
  "itemKey": "seahornet",
  "itemName": "Seahornet",
  "iconFile": "seahornet.png",
  "price": 50,
  "rarity": "Common",
  "category": "bug",
  "maxStack": 0,
  "foodValue": 0.0,
  "rottingMultiplier": 0.0,
  "printable": false,
  "colonyTags": [
    "nature"
  ],
  "race": "generic",
  "description": "This bug has a snout like a seahorse."
}