{
  "itemKey": "seashellshield",
  "itemName": "Seashell Shield",
  "iconFile": "seashellshield.png",
  "price": 660,
  "rarity": "Uncommon",
  "category": "shield",
  "maxStack": 1,
  "foodValue": 0.0,
  "rottingMultiplier": 0.0,
  "printable": true,
  "description": "Enemies will break against you like crashing waves."
}