{
  "itemKey": "seaweedpot",
  "itemName": "Seaweed Pot",
  "iconFile": "seaweedpot.png",
  "price": 70,
  "rarity": "Common",
  "category": "decorative",
  "maxStack": 0,
  "foodValue": 0.0,
  "rottingMultiplier": 0.0,
  "printable": false,
  "colonyTags": [
    "sea",
    "nature"
  ],
  "race": "generic",
  "description": "A seaweed in a flower pot.",
  "apexDescription": "Seaweeds. I don\u0027t see the appeal.",
  "avianDescription": "A wet plant.",
  "floranDescription": "Good plant. Ssseaweedsss.",
  "glitchDescription": "Curious. Seaweed in a pot. Weird taste.",
  "humanDescription": "Seaweeds can\u0027t live out of the sea.",
  "hylotlDescription": "Seaweeds need the sea. Otherwise they are just weeds.",
  "novakidDescription": "What a funny lookin\u0027 plant to have in your house."
}