{
  "itemKey": "secrettrapdoor",
  "itemName": "Secret Trapdoor",
  "iconFile": "secrettrapdoor.png",
  "price": 200,
  "rarity": "Common",
  "category": "door",
  "maxStack": 0,
  "foodValue": 0.0,
  "rottingMultiplier": 0.0,
  "printable": false,
  "colonyTags": [
    "door"
  ],
  "race": "generic",
  "description": "A cleverly concealed entrance.",
  "apexDescription": "There\u0027s something odd about this ground...",
  "avianDescription": "There\u0027s something odd about this ground...",
  "floranDescription": "Ground is ssstrange...",
  "glitchDescription": "Suspicious. This ground does not appear natural...",
  "humanDescription": "There\u0027s something odd about this ground...",
  "hylotlDescription": "There is something odd about this ground...",
  "novakidDescription": "Somethin ain\u0027t right about this ground..."
}