{
  "itemKey": "secretsign2",
  "itemName": "Secret Symbol 2",
  "iconFile": "secretsign2.png",
  "price": 0,
  "rarity": "Uncommon",
  "category": "light",
  "maxStack": 0,
  "foodValue": 0.0,
  "rottingMultiplier": 0.0,
  "printable": false,
  "colonyTags": [
    "ancient"
  ],
  "race": "ancient",
  "description": "A mysterious symbol.",
  "apexDescription": "These symbols are mysterious indeed.",
  "avianDescription": "What triggers this mysterious symbol?",
  "floranDescription": "Sssymbol!",
  "glitchDescription": "Curious. I can\u0027t parse the meaning of this symbol.",
  "humanDescription": "I wonder if this actually means anything, or just looks neat?",
  "hylotlDescription": "This sigil could signify something.",
  "novakidDescription": "Writing in a foreign tongue. I ain\u0027t familiar with it."
}