{
  "itemKey": "secretsign3",
  "itemName": "Secret Symbol 3",
  "iconFile": "secretsign3.png",
  "price": 0,
  "rarity": "Uncommon",
  "category": "light",
  "maxStack": 0,
  "foodValue": 0.0,
  "rottingMultiplier": 0.0,
  "printable": false,
  "colonyTags": [
    "ancient"
  ],
  "race": "ancient",
  "description": "A mysterious symbol.",
  "apexDescription": "These symbols are mysterious indeed.",
  "avianDescription": "Is this meant to represent something?",
  "floranDescription": "Sssymbol!",
  "glitchDescription": "Thoughtful. I wonder if this sigil represents a digit.",
  "humanDescription": "If you squint, it kind of looks like a happy face.",
  "hylotlDescription": "This sigil could signify something.",
  "novakidDescription": "Writing in a foreign tongue. I ain\u0027t familiar with it."
}