{
  "itemKey": "separatoraddon",
  "itemName": "Separator Addon",
  "iconFile": "separatoraddon.png",
  "price": 1250,
  "rarity": "Legendary",
  "category": "crafting",
  "maxStack": 0,
  "foodValue": 0.0,
  "rottingMultiplier": 0.0,
  "printable": false,
  "colonyTags": [
    "crafting"
  ],
  "race": "generic",
  "description": "A module that adds additional melee equipment and armour to the replicator.",
  "apexDescription": "How useful, this will add additional melee equipment and armour to the replicator.",
  "avianDescription": "I can use this to add extra equipment and armour to the replicator.",
  "floranDescription": "Floran ussse thisss to add more thingss to replicator.",
  "glitchDescription": "Excited. Using this module will add additional melee equipment and armour to the replicator.",
  "humanDescription": "Using this adds extra melee equipment and armour to the replicator!",
  "hylotlDescription": "This useful module will add additional melee equipment and armour to the replicator.",
  "novakidDescription": "This handy ol\u0027 module will add even more to the replicator."
}