{
  "itemKey": "serenechair",
  "itemName": "Serene Chair",
  "iconFile": "serenechair.png",
  "price": 115,
  "rarity": "Common",
  "category": "furniture",
  "maxStack": 0,
  "foodValue": 0.0,
  "rottingMultiplier": 0.0,
  "printable": false,
  "colonyTags": [
    "misc",
    "serene"
  ],
  "race": "generic",
  "description": "A very comfortable serene chair.",
  "apexDescription": "A very comfortable chair. I\u0027m happy with it.",
  "avianDescription": "A highly decent place to sit.",
  "floranDescription": "Floran sssit on chair and think about hunting.",
  "glitchDescription": "Relaxed. This chair is exceptionally comfortable for the Glitch.",
  "humanDescription": "A very comfy chair. Reminds me of being at home.",
  "hylotlDescription": "Almost the luxury Hylotl are used to. There\u0027s plenty of satisfaction to be gained here.",
  "novakidDescription": "I can rest easy in this."
}