{
  "itemKey": "sereneswitch",
  "itemName": "Serene Console",
  "iconFile": "sereneswitch.png",
  "price": 135,
  "rarity": "Common",
  "category": "wire",
  "maxStack": 0,
  "foodValue": 0.0,
  "rottingMultiplier": 0.0,
  "printable": false,
  "colonyTags": [
    "wired",
    "serene"
  ],
  "race": "generic",
  "description": "An serene console. Using it is calming.",
  "apexDescription": "This console offers a large degree of control.",
  "avianDescription": "A useful console.",
  "floranDescription": "Floran push buttons. Make thingsss happen!",
  "glitchDescription": "Impressed. A single console can control so many different mechanisms at once.",
  "humanDescription": "A control console. It\u0027s just gotta be played with.",
  "hylotlDescription": "A control console.",
  "novakidDescription": "I wanna push all the buttons!"
}