{
  "itemKey": "sewervalve",
  "itemName": "Sewer Valve",
  "iconFile": "sewervalve.png",
  "price": 90,
  "rarity": "Common",
  "category": "wire",
  "maxStack": 0,
  "foodValue": 0.0,
  "rottingMultiplier": 0.0,
  "printable": true,
  "colonyTags": [
    "glitch",
    "glitchsewer",
    "mechanical",
    "wired"
  ],
  "race": "human",
  "description": "A sewer valve. It\u0027s had a funny turn.",
  "apexDescription": "A valve. It functions as expected.",
  "avianDescription": "A valve. It spins well.",
  "floranDescription": "Ssspinny wheel.",
  "glitchDescription": "Amused. This valve spins.",
  "humanDescription": "A valve. If I spin this I wonder what will happen?",
  "hylotlDescription": "A valve. A simple but functional item.",
  "novakidDescription": "I wanna turn this here valve and see what happens!"
}