{
  "itemKey": "sewerflooddoor",
  "itemName": "Sewer Flood Door",
  "iconFile": "sewerflooddoor.png",
  "price": 125,
  "rarity": "Common",
  "category": "door",
  "maxStack": 0,
  "foodValue": 0.0,
  "rottingMultiplier": 0.0,
  "printable": true,
  "colonyTags": [
    "glitch",
    "glitchsewer",
    "door"
  ],
  "race": "glitch",
  "description": "A cheaply made flood door.",
  "apexDescription": "A flood door. It seems ineffective.",
  "avianDescription": "I don\u0027t think this flood door will keep my feathers dry.",
  "floranDescription": "Thiss door doesn\u0027t sseem ssstable",
  "glitchDescription": "Thoughtful. The structure of this door doesn\u0027t seem adequate.",
  "humanDescription": "This flood door looks a bit useless.",
  "hylotlDescription": "What is the point of a flood door this flimsy?",
  "novakidDescription": "This thing don\u0027t look like it could stop anythin\u0027!"
}