{
  "itemKey": "sewerwallgrate",
  "itemName": "Sewer Wall Grate",
  "iconFile": "sewerwallgrate.png",
  "price": 150,
  "rarity": "Common",
  "category": "decorative",
  "maxStack": 0,
  "foodValue": 0.0,
  "rottingMultiplier": 0.0,
  "printable": true,
  "colonyTags": [
    "glitch",
    "glitchsewer"
  ],
  "race": "glitch",
  "description": "A wall grate. Great.",
  "apexDescription": "A wall grate.",
  "avianDescription": "A grate in the wall.",
  "floranDescription": "Barss in wall. Floran can\u0027t get through!",
  "glitchDescription": "Thoughtful. Does something lurk behind these bars?",
  "humanDescription": "Well this is just grate.",
  "hylotlDescription": "This grate is simple but stops anything unexpected getting through.",
  "novakidDescription": "Sure hope no critters are lurking behind this grate."
}