{
  "itemKey": "sewertank",
  "itemName": "Sewer Tank",
  "iconFile": "sewertank.png",
  "price": 140,
  "rarity": "Common",
  "category": "decorative",
  "maxStack": 0,
  "foodValue": 0.0,
  "rottingMultiplier": 0.0,
  "printable": true,
  "colonyTags": [
    "glitch",
    "glitchsewer",
    "mechanical"
  ],
  "race": "glitch",
  "description": "A tank filled with an unknown substance. Probably very lethal.",
  "apexDescription": "A large tank. Is there something inside?",
  "avianDescription": "I\u0027m sure I can hear banging coming from inside.",
  "floranDescription": "Floran puzzled by large drink.",
  "glitchDescription": "Startled. Heat signatures indicate a living being is inside this tank.",
  "humanDescription": "I bet there\u0027s a horrifying creature in here. Cool.",
  "hylotlDescription": "There is a float inside, knocking against the tank wall.",
  "novakidDescription": "Looks like somethin\u0027 is inside this, but I sure ain\u0027t gonna check."
}