{
  "itemKey": "shadowmoth",
  "itemName": "Shadowmoth",
  "iconFile": "shadowmoth.png",
  "price": 50,
  "rarity": "Common",
  "category": "bug",
  "maxStack": 0,
  "foodValue": 0.0,
  "rottingMultiplier": 0.0,
  "printable": false,
  "colonyTags": [
    "nature"
  ],
  "race": "generic",
  "description": "Hard to spot, these bugs are as black as night."
}