{
  "itemKey": "shadowurnmedium1",
  "itemName": "Medium Shadow Urn",
  "iconFile": "shadowurnmedium1.png",
  "price": 45,
  "rarity": "Common",
  "category": "breakable",
  "maxStack": 0,
  "foodValue": 0.0,
  "rottingMultiplier": 0.0,
  "printable": false,
  "colonyTags": [
    "dark"
  ],
  "race": "generic",
  "description": "A dark vase. Looks pretty smashable.",
  "apexDescription": "I think I hear something inside...",
  "avianDescription": "This urn looks cursed...",
  "floranDescription": "Ssmash it and tear out its dark inssidess!",
  "glitchDescription": "Destructive. I believe there may be something even darker inside.",
  "humanDescription": "I\u0027m almost scared to smash this creepy urn.",
  "hylotlDescription": "Breaking an urn of any kind is said to bring bad luck. I dread to think what fate comes from breaking this.",
  "novakidDescription": "Urns like that are best left alone."
}