{
  "itemKey": "sharpenedclaw",
  "itemName": "Sharpened Claw",
  "iconFile": "sharpenedclaw.png",
  "price": 50,
  "rarity": "Uncommon",
  "category": "craftingMaterial",
  "maxStack": 0,
  "foodValue": 0.0,
  "rottingMultiplier": 0.0,
  "printable": true,
  "description": "A razor sharp monster claw. Can be used for crafting."
}