{
  "itemKey": "shieldgenerator",
  "itemName": "Shield Generator",
  "iconFile": "shieldgenerator.png",
  "price": 20,
  "rarity": "Common",
  "category": "wire",
  "maxStack": 0,
  "foodValue": 0.0,
  "rottingMultiplier": 0.0,
  "printable": false,
  "colonyTags": [
    "wired"
  ],
  "race": "generic",
  "description": "It sure doesn\u0027t look like this could generate a shield.",
  "apexDescription": "A switch. It activates the shield generator.",
  "avianDescription": "This switch generates the shield.",
  "floranDescription": "Ssswitch!",
  "glitchDescription": "Surprised. This small switch doesn\u0027t look that powerful.",
  "humanDescription": "If I flip this switch it will turn the shield generator on and off.",
  "hylotlDescription": "A basic switch. It can be used to activate the shield generator.",
  "novakidDescription": "I can flip this here switch to toggle the shield generator."
}