{
  "itemKey": "shipgreeble3",
  "itemName": "Ship Greeble 3",
  "iconFile": "shipgreeble3.png",
  "price": 0,
  "rarity": "Common",
  "category": "decorative",
  "maxStack": 0,
  "foodValue": 0.0,
  "rottingMultiplier": 0.0,
  "printable": true,
  "colonyTags": [
    "misc"
  ],
  "race": "generic",
  "description": "A strange piece of ship. Looks like it might serve a purpose, but who really knows?"
}