{
  "itemKey": "shipwheel",
  "itemName": "Wooden Ship Wheel",
  "iconFile": "shipwheel.png",
  "price": 80,
  "rarity": "Common",
  "category": "decorative",
  "maxStack": 0,
  "foodValue": 0.0,
  "rottingMultiplier": 0.0,
  "printable": true,
  "colonyTags": [
    "avian",
    "avianairship",
    "explorer"
  ],
  "race": "avian",
  "description": "Yarrrr, me hearties!",
  "apexDescription": "A control device.",
  "avianDescription": "For steering an Avian airship.",
  "floranDescription": "Ssspin wheel, ssteer sship.",
  "glitchDescription": "Critical. An inaccurate method of ship control.",
  "humanDescription": "A captain\u0027s wheel!",
  "hylotlDescription": "Looks suited for steering a ship on the waves, not the air.",
  "novakidDescription": "A ship wheel. I\u0027ve seen a few before."
}