{
  "itemKey": "shiplight",
  "itemName": "Ship Light",
  "iconFile": "shiplight.png",
  "price": 45,
  "rarity": "Common",
  "category": "light",
  "maxStack": 0,
  "foodValue": 0.0,
  "rottingMultiplier": 0.0,
  "printable": true,
  "colonyTags": [
    "light"
  ],
  "race": "floran",
  "description": "Strip lighting, for use on a spaceship.",
  "apexDescription": "Lights.",
  "avianDescription": "Lights.",
  "floranDescription": "Bright lightss.",
  "glitchDescription": "Observative. Lights.",
  "humanDescription": "Lights.",
  "hylotlDescription": "Lights.",
  "novakidDescription": "Just some lights."
}