{
  "itemKey": "shipT8",
  "itemName": "Thing",
  "iconFile": "shipT8.png",
  "price": 0,
  "rarity": "Legendary",
  "category": "Upgrade Component",
  "maxStack": 0,
  "foodValue": 0.0,
  "rottingMultiplier": 0.0,
  "printable": true,
  "description": "Does things"
}