{
  "itemKey": "shroomhead",
  "itemName": "Agaran Waxcap Hat",
  "iconFile": "shroomhead.png",
  "price": 75,
  "rarity": "Common",
  "category": "headwear",
  "maxStack": 1,
  "foodValue": 0.0,
  "rottingMultiplier": 0.0,
  "printable": true,
  "description": "Look like an Agaran with this waxcap mushroom hat!"
}