{
  "itemKey": "signstore",
  "itemName": "EASEL",
  "iconFile": "signstore.png",
  "price": 0,
  "rarity": "Common",
  "category": "decorative",
  "maxStack": 0,
  "foodValue": 0.0,
  "rottingMultiplier": 0.0,
  "printable": false,
  "colonyTags": [
    "outpost",
    "commerce"
  ],
  "race": "generic",
  "description": "The Elegantly Automatic Sign Engineering Lithographer.",
  "apexDescription": "I can print all kinds of signs here.",
  "avianDescription": "It\u0027s a place I can make and print signs.",
  "floranDescription": "How many words is too many wordss? Three. Three wordsss.",
  "glitchDescription": "Astounded. Gutenbergbot would be entranced by this contraption.",
  "humanDescription": "I can craft specialised signs here!",
  "hylotlDescription": "Signs to inform and enlighten.",
  "novakidDescription": "I could make all kinda signs if I wasn\u0027t so busy adventurin\u0027."
}