{
  "itemKey": "signproduce",
  "itemName": "Produce Shop Sign",
  "iconFile": "signproduce.png",
  "price": 55,
  "rarity": "Common",
  "category": "decorative",
  "maxStack": 0,
  "foodValue": 0.0,
  "rottingMultiplier": 0.0,
  "printable": true,
  "colonyTags": [
    "glitch",
    "glitchvillage",
    "commerce",
    "cooking"
  ],
  "race": "glitch",
  "description": "A shop that sells freshly farmed produce.",
  "apexDescription": "This might indicate a grocery store.",
  "avianDescription": "Fruit and vegetables must be available here.",
  "floranDescription": "Fruitss and vegetabless for sssale.",
  "glitchDescription": "Excited. Fresh produce will be available at this shop.",
  "humanDescription": "The sign for a farm shop.",
  "hylotlDescription": "A farm food store.",
  "novakidDescription": "Some sorta food store."
}