{
  "itemKey": "signlibrary",
  "itemName": "Library Sign",
  "iconFile": "signlibrary.png",
  "price": 55,
  "rarity": "Common",
  "category": "decorative",
  "maxStack": 0,
  "foodValue": 0.0,
  "rottingMultiplier": 0.0,
  "printable": true,
  "colonyTags": [
    "glitch",
    "glitchvillage",
    "commerce",
    "knowledge"
  ],
  "race": "glitch",
  "description": "A library sign. This way to the library!",
  "apexDescription": "This building must be a library.",
  "avianDescription": "A book? This could be a library.",
  "floranDescription": "A place to read booksss.",
  "glitchDescription": "Pleased. The sign for a library.",
  "humanDescription": "A library sign.",
  "hylotlDescription": "Ah, the familiar sign for a library.",
  "novakidDescription": "Books. Maybe it\u0027s a library."
}