{
  "itemKey": "signstoreclosed",
  "itemName": "Closed Sign Store",
  "iconFile": "signstoreclosed.png",
  "price": 0,
  "rarity": "Common",
  "category": "other",
  "maxStack": 0,
  "foodValue": 0.0,
  "rottingMultiplier": 0.0,
  "printable": false,
  "colonyTags": [
    "outpost",
    "pretty"
  ],
  "description": "This would be a neat venue for a stall.",
  "apexDescription": "The display says the stall is opening soon.",
  "avianDescription": "I wonder what it will be when it\u0027s open.",
  "floranDescription": "Floran doesn\u0027t know what this will be once it\u0027ss open.",
  "glitchDescription": "Excited. The lit display on this stall says it will open soon!",
  "humanDescription": "This is a curious looking stall. I wonder what its purpose is?",
  "hylotlDescription": "The side of this stall is painted with the mark of the Hylotl.",
  "novakidDescription": "What a curious lookin\u0027 stand."
}