{
  "itemKey": "siliconboard",
  "itemName": "Silicon Board",
  "iconFile": "siliconboard.png",
  "price": 50,
  "rarity": "Uncommon",
  "category": "craftingMaterial",
  "maxStack": 0,
  "foodValue": 0.0,
  "rottingMultiplier": 0.0,
  "printable": true,
  "description": "A silicon board. Can be used to craft electronics."
}