{
  "itemKey": "silk",
  "itemName": "Silk",
  "iconFile": "silk.png",
  "price": 100,
  "rarity": "Uncommon",
  "category": "craftingMaterial",
  "maxStack": 0,
  "foodValue": 0.0,
  "rottingMultiplier": 0.0,
  "printable": true,
  "description": "A square of soft, lustrous silk"
}