{
  "itemKey": "silverdrill",
  "itemName": "Silver Drill",
  "iconFile": "silverdrill.png",
  "price": 225,
  "rarity": "Uncommon",
  "category": "Tool",
  "maxStack": 1,
  "foodValue": 0.0,
  "rottingMultiplier": 0.0,
  "printable": true,
  "description": "Drills fast but breaks quickly. A temporary alternative to the matter manipulator."
}