{
  "itemKey": "simplecapeback",
  "itemName": "Simple Cape",
  "iconFile": "simplecapeback.png",
  "price": 150,
  "rarity": "Common",
  "category": "backwear",
  "maxStack": 1,
  "foodValue": 0.0,
  "rottingMultiplier": 0.0,
  "printable": true,
  "description": "A basic cape. One solid colour is all you need!"
}