{
  "itemKey": "skullmaskhead",
  "itemName": "Skull Mask",
  "iconFile": "skullmaskhead.png",
  "price": 5000,
  "rarity": "Legendary",
  "category": "headwear",
  "maxStack": 1,
  "foodValue": 0.0,
  "rottingMultiplier": 0.0,
  "printable": true,
  "description": "A cloth skull mask. The creepiest way to hide your face."
}