{
  "itemKey": "sleepingbaggreen",
  "itemName": "Green Sleeping Bag",
  "iconFile": "sleepingbaggreen.png",
  "price": 105,
  "rarity": "Common",
  "category": "furniture",
  "maxStack": 0,
  "foodValue": 0.0,
  "rottingMultiplier": 0.0,
  "printable": true,
  "colonyTags": [
    "human",
    "explorer"
  ],
  "race": "generic",
  "description": "It\u0027s a sleeping bag. It\u0027s not the comfiest, but it\u0027ll do.",
  "apexDescription": "Rebel Apex spend many nights sleeping in these.",
  "avianDescription": "Sleeping here would be uncomfortable on the feathers.",
  "floranDescription": "Floran does not like sssleeping in bag.",
  "glitchDescription": "Sarcasm. Oh how wonderful.",
  "humanDescription": "A sleeping bag. Good protection against the elements in a pinch.",
  "hylotlDescription": "Do these work underwater?",
  "novakidDescription": "It won\u0027t get me the best night\u0027s sleep, but it\u0027ll do in a pinch."
}