{
  "itemKey": "slimechair",
  "itemName": "Slime Chair",
  "iconFile": "slimechair.png",
  "price": 85,
  "rarity": "Common",
  "category": "furniture",
  "maxStack": 0,
  "foodValue": 0.0,
  "rottingMultiplier": 0.0,
  "printable": false,
  "colonyTags": [
    "slime",
    "odd"
  ],
  "race": "generic",
  "description": "A sticky, slimy spot to sit.",
  "apexDescription": "This chair is nonsensical.",
  "avianDescription": "Will I sink through this chair?",
  "floranDescription": "Such a sssilly chair.",
  "glitchDescription": "Fascinated. While the material is unpleasant, it\u0027s natural curvature is pleasing to the eye.",
  "humanDescription": "How does this work, do I just hope it\u0027s a chair?",
  "hylotlDescription": "Once you get past it\u0027s unpleasant texture, this slime chair is quite comfortable.",
  "novakidDescription": "Not so sure this is really a chair."
}