{
  "itemKey": "slimeblob1",
  "itemName": "Slime Blob",
  "iconFile": "slimeblob1.png",
  "price": 0,
  "rarity": "Common",
  "category": "breakable",
  "maxStack": 0,
  "foodValue": 0.0,
  "rottingMultiplier": 0.0,
  "printable": false,
  "colonyTags": [
    "slime"
  ],
  "race": "apex",
  "description": "A vile bubble of slime. Yuck.",
  "apexDescription": "A putrid mound of slime. How am I meant to store this?",
  "avianDescription": "A large blob of slime. Why does this exist?",
  "floranDescription": "Like sssap.",
  "glitchDescription": "Disgusted. A vile mound of slime!",
  "humanDescription": "A huge glob of jelly. I kind of want to poke it.",
  "hylotlDescription": "Slime blobs are not unpleasant to handle when you have amphibian skin.",
  "novakidDescription": "I reckon this\u0027ll come in handy for something."
}