{
  "itemKey": "slopedhullpanel",
  "itemName": "Hull Panel",
  "iconFile": "slopedhullpanel.png",
  "price": 0,
  "rarity": "Common",
  "category": "block",
  "maxStack": 0,
  "foodValue": 0.0,
  "rottingMultiplier": 0.0,
  "printable": true,
  "description": "Cheap, resilient panelling widely used for ship and station construction."
}