{
  "itemKey": "smallwallswitch",
  "itemName": "Small Wall Switch",
  "iconFile": "smallwallswitch.png",
  "price": 20,
  "rarity": "Common",
  "category": "wire",
  "maxStack": 0,
  "foodValue": 0.0,
  "rottingMultiplier": 0.0,
  "printable": false,
  "colonyTags": [
    "wired"
  ],
  "race": "generic",
  "description": "Flippin\u0027 awesome.",
  "apexDescription": "A switch. It activates something.",
  "avianDescription": "This switch must activate something.",
  "floranDescription": "Ssswitch!",
  "glitchDescription": "Surprised. This small switch doesn\u0027t look that powerful.",
  "humanDescription": "How many times can I flip this switch on and off I wonder.",
  "hylotlDescription": "A basic switch. It can be used to activate something.",
  "novakidDescription": "I can flip this here switch!"
}