{
  "itemKey": "smallchurch",
  "itemName": "Tiny Building",
  "iconFile": "smallchurch.png",
  "price": 80,
  "rarity": "Common",
  "category": "breakable",
  "maxStack": 0,
  "foodValue": 0.0,
  "rottingMultiplier": 0.0,
  "printable": false,
  "colonyTags": [
    "gnome"
  ],
  "race": "apex",
  "description": "A tiny communal building. Who visits it?",
  "apexDescription": "This is the smallest house I\u0027ve ever seen.",
  "avianDescription": "A tiny little house.",
  "floranDescription": "Knock knock. Floran come in.",
  "glitchDescription": "Thoughtful. I do not believe a Glitch could live here.",
  "humanDescription": "I can\u0027t remember, is this eat me or drink me?",
  "hylotlDescription": "I wonder where the tiny inhabitants are?",
  "novakidDescription": "This must be a house for ants."
}