{
  "itemKey": "smalllamppost",
  "itemName": "Tiny Lamppost",
  "iconFile": "smalllamppost.png",
  "price": 80,
  "rarity": "Common",
  "category": "breakable",
  "maxStack": 0,
  "foodValue": 0.0,
  "rottingMultiplier": 0.0,
  "printable": false,
  "colonyTags": [
    "gnome"
  ],
  "race": "generic",
  "description": "A tiny lamppost. Try not to kick it over.",
  "apexDescription": "A tiny lamppost.",
  "avianDescription": "What a tiny lamppost.",
  "floranDescription": "Sssmall light on ssstick.",
  "glitchDescription": "Observant. A tiny lamppost.",
  "humanDescription": "A little lamppost.",
  "hylotlDescription": "So small and adorable.",
  "novakidDescription": "A small lamppost. What\u0027s it good for?"
}