{
  "itemKey": "smashabledrink1",
  "itemName": "Empty Cordial Bottle",
  "iconFile": "smashabledrink1.png",
  "price": 5,
  "rarity": "Common",
  "category": "breakable",
  "maxStack": 0,
  "foodValue": 0.0,
  "rottingMultiplier": 0.0,
  "printable": true,
  "colonyTags": [
    "hylotl",
    "hylotloceancity"
  ],
  "race": "hylotl",
  "description": "An empty bottle of avesmingo cordial.",
  "apexDescription": "The bottle is empty, so what\u0027s left to do but smash it?",
  "avianDescription": "The bottle is empty, so what\u0027s left to do but smash it?",
  "floranDescription": "Sssmash!",
  "glitchDescription": "Mischievous. There\u0027s nothing left in the bottle, so it\u0027s tempting to smash it.",
  "humanDescription": "The bottle is empty, so what\u0027s left to do but smash it?",
  "hylotlDescription": "A small part of me would very much like to smash this bottle...",
  "novakidDescription": "Yeehaw! Target practice!"
}