{
  "itemKey": "smokegen",
  "itemName": "Smoke",
  "iconFile": "smokegen.png",
  "price": 0,
  "rarity": "Common",
  "category": "breakable",
  "maxStack": 0,
  "foodValue": 0.0,
  "rottingMultiplier": 0.0,
  "printable": false,
  "race": "generic",
  "description": "Smoke Primer.",
  "apexDescription": "Smoke Primer.",
  "avianDescription": "Smoke Primer.",
  "floranDescription": "Smoke Primer.",
  "glitchDescription": "Smoke Primer.",
  "humanDescription": "Smoke Primer.",
  "hylotlDescription": "Smoke Primer.",
  "novakidDescription": "Smoke Primer."
}