{
  "itemKey": "snauntaf",
  "itemName": "Snaunt Figurine",
  "iconFile": "snauntaf.png",
  "price": 5000,
  "rarity": "Legendary",
  "category": "actionFigure",
  "maxStack": 0,
  "foodValue": 0.0,
  "rottingMultiplier": 0.0,
  "printable": false,
  "colonyTags": [
    "pretty"
  ],
  "description": "The label reads, \"It\u0027s notorious for stealing from vegetable patches.\""
}