{
  "itemKey": "snowdrift3",
  "itemName": "Snowdrift",
  "iconFile": "snowdrift3.png",
  "price": 0,
  "rarity": "Common",
  "category": "breakable",
  "maxStack": 0,
  "foodValue": 0.0,
  "rottingMultiplier": 0.0,
  "printable": false,
  "colonyTags": [
    "ice"
  ],
  "race": "generic",
  "description": "A snow drift.",
  "apexDescription": "A pile of snow. Snowball fight!",
  "avianDescription": "A pile of cold snow.",
  "floranDescription": "Floran hide in sssnow. Pop out. Ssstab sssnowman.",
  "glitchDescription": "Longing. Lying in this snow pile and making snow angels might be bad for my internal circuitry.",
  "humanDescription": "This snow is just begging to be kicked.",
  "hylotlDescription": "Cold, beautiful snow. Perhaps I shall gather it.",
  "novakidDescription": "It\u0027s a pile of snow."
}