{
  "itemKey": "snowglobe2",
  "itemName": "Penguin Snowglobe",
  "iconFile": "snowglobe2.png",
  "price": 75,
  "rarity": "Common",
  "category": "decorative",
  "maxStack": 0,
  "foodValue": 0.0,
  "rottingMultiplier": 0.0,
  "printable": true,
  "colonyTags": [
    "ice",
    "pretty"
  ],
  "race": "generic",
  "description": "A snowglobe with a penguin inside. The bird looks angry.",
  "apexDescription": "An adorable penguin inside a snowglobe.",
  "avianDescription": "Ah, the penguin. I feel for you, my flightless kin.",
  "floranDescription": "Floran like glassss with sssnack in.",
  "glitchDescription": "Alarm. There are faint lifesigns coming from inside this snowglobe.",
  "humanDescription": "Aww, a cute lil penguin. I want to cuddle it.",
  "hylotlDescription": "A tiny penguin trapped inside a glass prison. Barbaric.",
  "novakidDescription": "Penguins sure are cute, but I\u0027m not fooled. They\u0027re rascals, all of \u0027em!"
}