{
  "itemKey": "snowinfantrychest",
  "itemName": "Snow Infantry Chest",
  "iconFile": "snowinfantrychest.png",
  "price": 2500,
  "rarity": "Rare",
  "category": "chestwear",
  "maxStack": 1,
  "foodValue": 0.0,
  "rottingMultiplier": 0.0,
  "printable": true,
  "description": "Useful for when a planet is giving you the cold shoulder."
}