{
  "itemKey": "snowman",
  "itemName": "Snowman",
  "iconFile": "snowman.png",
  "price": 0,
  "rarity": "Common",
  "category": "breakable",
  "maxStack": 0,
  "foodValue": 0.0,
  "rottingMultiplier": 0.0,
  "printable": false,
  "colonyTags": [
    "ice"
  ],
  "race": "generic",
  "description": "A perfect little snowman.",
  "apexDescription": "An adorable snowman. How are you today?",
  "avianDescription": "A snowman. He feels like he\u0027s missing something.",
  "floranDescription": "Floran hunt sssnowman. Sssnowman not care. Sssnowman crumble.",
  "glitchDescription": "Jealous. Glitch bodies have too many corners for me to create an accurate snowglitch.",
  "humanDescription": "A snowman! Temptation to kick its head off... rising...",
  "hylotlDescription": "This snow effigy will one day melt, and return to the water from whence it came. It also has a cute carrot nose.",
  "novakidDescription": "Is this a snow sculpture? Or did someone stand around in a snow storm for too long?"
}