{
  "itemKey": "snowflake",
  "itemName": "Snowflake",
  "iconFile": "snowflake.png",
  "price": 0,
  "rarity": "Common",
  "category": "craftingMaterial",
  "maxStack": 0,
  "foodValue": 0.0,
  "rottingMultiplier": 0.0,
  "printable": true,
  "description": "A perfectly preserved snowflake. They say no two of these are ever the same."
}