{
  "itemKey": "snowglobe1",
  "itemName": "Snowman Snowglobe",
  "iconFile": "snowglobe1.png",
  "price": 75,
  "rarity": "Common",
  "category": "decorative",
  "maxStack": 0,
  "foodValue": 0.0,
  "rottingMultiplier": 0.0,
  "printable": true,
  "colonyTags": [
    "ice",
    "pretty"
  ],
  "race": "generic",
  "description": "A snowglobe with a snowman inside. Festive!",
  "apexDescription": "A glass sphere with a snowman inside. It\u0027s adorable.",
  "avianDescription": "A snowman is entombed inside, frozen in time.",
  "floranDescription": "Floran want to kick and sssmash snowglobe.",
  "glitchDescription": "Reading. According to my translator, \u0027made in China\u0027 is printed on the bottom. What does this mean?",
  "humanDescription": "Ooh, a snowglobe. Can\u0027t help but give it a shake!",
  "hylotlDescription": "This reminds me of a fish bowl. Even model snowmen should not be held captive.",
  "novakidDescription": "Aww, just look at that little snow guy in there."
}