{
  "itemKey": "snuffishaf",
  "itemName": "Snuffish Figurine",
  "iconFile": "snuffishaf.png",
  "price": 5000,
  "rarity": "Legendary",
  "category": "actionFigure",
  "maxStack": 0,
  "foodValue": 0.0,
  "rottingMultiplier": 0.0,
  "printable": false,
  "colonyTags": [
    "pretty"
  ],
  "description": "The label reads, \"They attack anyone that surprises them, and they\u0027re easily surprised.\""
}