{
  "itemKey": "soda",
  "itemName": "Soda",
  "iconFile": "soda.png",
  "price": 40,
  "rarity": "Common",
  "category": "drink",
  "maxStack": 1,
  "foodValue": 0.0,
  "rottingMultiplier": 0.0,
  "printable": true,
  "description": "A refreshing can of soda."
}