{
  "itemKey": "soggysack",
  "itemName": "Soggy Sack",
  "iconFile": "soggysack.png",
  "price": 250,
  "rarity": "Common",
  "category": "preparedFood",
  "maxStack": 1,
  "foodValue": 20.0,
  "rottingMultiplier": 1.0,
  "printable": true,
  "description": "Dirturchin innards stuffed into a coralcreep to make a dish that sounds terrible and tastes alright."
}