{
  "itemKey": "soldierchest",
  "itemName": "Soldier\u0027s Chestpiece",
  "iconFile": "soldierchest.png",
  "price": 2500,
  "rarity": "Rare",
  "category": "chestwear",
  "maxStack": 1,
  "foodValue": 0.0,
  "rottingMultiplier": 0.0,
  "printable": true,
  "description": "A soldier\u0027s padded uniform chestpiece."
}