{
  "itemKey": "spawnerwizard",
  "itemName": "Wizard Spawner",
  "iconFile": "spawnerwizard.png",
  "price": 100,
  "rarity": "Common",
  "category": "spawner",
  "maxStack": 0,
  "foodValue": 0.0,
  "rottingMultiplier": 0.0,
  "printable": false,
  "colonyTags": [
    "misc"
  ],
  "race": "human",
  "description": "Spawn your very own wizard!",
  "apexDescription": "Surely a wizard could just teleport here.",
  "avianDescription": "Magic and science. What a beautiful union.",
  "floranDescription": "Floran want wizard in party!",
  "glitchDescription": "Mistrust. The Glitch are not fond of magic.",
  "humanDescription": "Maybe I can become this sorcerer\u0027s apprentice.",
  "hylotlDescription": "Will this spawn a wizard, or yet another charlatan?"
}