{
  "itemKey": "spawneravian",
  "itemName": "Avian Spawner",
  "iconFile": "spawneravian.png",
  "price": 100,
  "rarity": "Common",
  "category": "spawner",
  "maxStack": 0,
  "foodValue": 0.0,
  "rottingMultiplier": 0.0,
  "printable": false,
  "colonyTags": [
    "misc"
  ],
  "race": "human",
  "description": "Spawn your very own Avian villager!",
  "apexDescription": "I could spawn some Avian friends.",
  "avianDescription": "Perhaps I can use this to summon fellow Grounded.",
  "floranDescription": "Floran bring birdmen to Floran!",
  "glitchDescription": "Pondering. What would Kluex think about this?",
  "humanDescription": "Neat, I could summon an army of birds.",
  "hylotlDescription": "I suppose summoning an Avian would be okay."
}