{
  "itemKey": "sportscarcontrollerred",
  "itemName": "Red Sports Car Controller",
  "iconFile": "sportscarcontrollerred.png",
  "price": 12500,
  "rarity": "Rare",
  "category": "vehicleController",
  "maxStack": 1,
  "foodValue": 0.0,
  "rottingMultiplier": 0.0,
  "printable": true,
  "description": "Create a red painted sports car from stored nanites."
}