{
  "itemKey": "standingturret",
  "itemName": "Defense Turret",
  "iconFile": "standingturret.png",
  "price": 150,
  "rarity": "Common",
  "category": "wire",
  "maxStack": 0,
  "foodValue": 0.0,
  "rottingMultiplier": 0.0,
  "printable": false,
  "colonyTags": [
    "wired",
    "combat"
  ],
  "race": "generic",
  "description": "Turret for your protection! Can only be placed once.",
  "apexDescription": "Always watchful.",
  "avianDescription": "The monsters don\u0027t stand a chance, unless they can fly.",
  "floranDescription": "Effective againssst living thingsss.",
  "glitchDescription": "Cautious. Must not disrupt my brother in his vigilance.",
  "humanDescription": "An automated security system.",
  "hylotlDescription": "Looks like a turret of some sort.",
  "novakidDescription": "Looks like this thing sure could do some damage!"
}