{
  "itemKey": "stationdoor",
  "itemName": "Station Door",
  "iconFile": "stationdoor.png",
  "price": 125,
  "rarity": "Common",
  "category": "door",
  "maxStack": 0,
  "foodValue": 0.0,
  "rottingMultiplier": 0.0,
  "printable": true,
  "colonyTags": [
    "station",
    "door"
  ],
  "race": "generic",
  "description": "A sleek automated door, made from the same materials found on the exterior of space stations.",
  "apexDescription": "A sleek metal door. I appreciate its pointed design.",
  "avianDescription": "This is a rather well-made metal door!",
  "floranDescription": "Door looksss sharp. Floran consssidering door as potential weapon.",
  "glitchDescription": "Reminiscent. The angled design of this door reminds me of traditional Glitch banners.",
  "humanDescription": "This door could probably take a few hits, to say the least.",
  "hylotlDescription": "A rather impressively made door. Surprisingly, I find myself approving of it.",
  "novakidDescription": "This here door looks like it could last through a storm or two."
}