{
  "itemKey": "stationchair",
  "itemName": "Station Chair",
  "iconFile": "stationchair.png",
  "price": 85,
  "rarity": "Common",
  "category": "furniture",
  "maxStack": 0,
  "foodValue": 0.0,
  "rottingMultiplier": 0.0,
  "printable": true,
  "colonyTags": [
    "misc",
    "station"
  ],
  "race": "generic",
  "description": "A curved, formal looking metal chair.",
  "apexDescription": "A simple chair, made entirely out of metallic alloys.",
  "avianDescription": "A shiny silver chair.",
  "floranDescription": "Floran hasss no time for sssitting.",
  "glitchDescription": "Impressed. This chair appears to be significantly stronger than the majority of chairs in the universe.",
  "humanDescription": "I\u0027ve seen a lot of chairs in my time, but this... Isn\u0027t my favourite.",
  "hylotlDescription": "A chair decorated with bands of colour that fit well together.",
  "novakidDescription": "Yessir, that\u0027s a chair alright."
}