{
  "itemKey": "stationbackgroundpassageglass",
  "itemName": "Glass passage piece background",
  "iconFile": "stationbackgroundpassageglass.png",
  "price": 125,
  "rarity": "Common",
  "category": "playerstation",
  "maxStack": 0,
  "foodValue": 0.0,
  "rottingMultiplier": 0.0,
  "printable": false,
  "colonyTags": [],
  "race": "generic",
  "description": "Glass passage piece background"
}