{
  "itemKey": "stationbackground2bend",
  "itemName": "2 bend piece background",
  "iconFile": "stationbackground2bend.png",
  "price": 125,
  "rarity": "Common",
  "category": "playerstation",
  "maxStack": 0,
  "foodValue": 0.0,
  "rottingMultiplier": 0.0,
  "printable": false,
  "colonyTags": [],
  "race": "generic",
  "description": "2 bend piece background"
}