{
  "itemKey": "stationbackgroundstart",
  "itemName": "Start piece background",
  "iconFile": "stationbackgroundstart.png",
  "price": 125,
  "rarity": "Common",
  "category": "playerstation",
  "maxStack": 0,
  "foodValue": 0.0,
  "rottingMultiplier": 0.0,
  "printable": false,
  "colonyTags": [],
  "race": "generic",
  "description": "Start piece background"
}