{
  "itemKey": "staticcell",
  "itemName": "Static Cell",
  "iconFile": "staticcell.png",
  "price": 50,
  "rarity": "Uncommon",
  "category": "craftingMaterial",
  "maxStack": 0,
  "foodValue": 0.0,
  "rottingMultiplier": 0.0,
  "printable": true,
  "description": "A cluster of electrically charged cell matter. Can be used for crafting."
}