{
  "itemKey": "stationtradesignelectronics",
  "itemName": "Electronics Station Sign",
  "iconFile": "stationtradesignelectronics.png",
  "price": 85,
  "rarity": "Common",
  "category": "decorative",
  "maxStack": 0,
  "foodValue": 0.0,
  "rottingMultiplier": 0.0,
  "printable": true,
  "colonyTags": [
    "station",
    "electronic"
  ],
  "race": "generic",
  "description": "A sign with an image of an electronic component, indicating an electronics station.",
  "apexDescription": "This sign is meant to indicate an electronics station.",
  "avianDescription": "This sign denotes an electronics station.",
  "floranDescription": "This electronicsss sign is bright.",
  "glitchDescription": "Informed. The image of this component is meant to indicate an electronics station.",
  "humanDescription": "A sign which marks an electronics station.",
  "hylotlDescription": "Signs like this usually mean there is a nearby electronics station.",
  "novakidDescription": "Reckon this sign means there\u0027s meant to be an electronics station \u0027round here."
}