{
  "itemKey": "stationbackgroundhugecorediagtop",
  "itemName": "Huge Core Diagonal Top Piece Background",
  "iconFile": "stationbackgroundhugecorediagtop.png",
  "price": 125,
  "rarity": "Common",
  "category": "playerstation",
  "maxStack": 0,
  "foodValue": 0.0,
  "rottingMultiplier": 0.0,
  "printable": false,
  "colonyTags": [],
  "race": "generic",
  "description": "Huge Core Diagonal Top Piece Background"
}