{
  "itemKey": "stationpylon",
  "itemName": "Station Pylon",
  "iconFile": "stationpylon.png",
  "price": 240,
  "rarity": "Common",
  "category": "decorative",
  "maxStack": 0,
  "foodValue": 0.0,
  "rottingMultiplier": 0.0,
  "printable": true,
  "colonyTags": [
    "station",
    "mechanical"
  ],
  "race": "generic",
  "description": "A large rotating generator, or radar, or perhaps an engine...",
  "apexDescription": "This seems to be an incredibly complex piece of machinery. I wonder what it actually does?",
  "avianDescription": "What a delightful machine! I cannot identify its purpose, however.",
  "floranDescription": "Floran not sssure what ssspinning thing is.",
  "glitchDescription": "Confused. This machine appears to be very important, but I cannot identify its purpose.",
  "humanDescription": "This piece of machinery is very big and important looking. Does it... Actually do anything?",
  "hylotlDescription": "This unkempt machine doesn\u0027t appear to do anything immediately useful.",
  "novakidDescription": "This certainly looks a splinter more complex than a steam engine, that\u0027s for sure..."
}