{
  "itemKey": "stationrailhatch",
  "itemName": "Station Rail Hatch",
  "iconFile": "stationrailhatch.png",
  "price": 150,
  "rarity": "Common",
  "category": "door",
  "maxStack": 0,
  "foodValue": 0.0,
  "rottingMultiplier": 0.0,
  "printable": true,
  "colonyTags": [
    "station",
    "door",
    "rails"
  ],
  "race": "generic",
  "description": "A large sleek hatch that has a built-in rail connector for use with elevators.",
  "apexDescription": "A sleek metal hatch. I appreciate its pointed design.",
  "avianDescription": "This is a rather well-made metal hatch!",
  "floranDescription": "Hatch looksss sharp. Floran consssidering hatch as potential weapon.",
  "glitchDescription": "Reminiscent. The angled design of this hatch reminds me of traditional Glitch banners.",
  "humanDescription": "This hatch could probably take a few hits, to say the least.",
  "hylotlDescription": "A rather impressively made hatch. Surprisingly, I find myself approving of it.",
  "novakidDescription": "This here hatch looks like it could last through a storm or two."
}