{
  "itemKey": "stationbackgroundpassage",
  "itemName": "Passage piece background",
  "iconFile": "stationbackgroundpassage.png",
  "price": 125,
  "rarity": "Common",
  "category": "playerstation",
  "maxStack": 0,
  "foodValue": 0.0,
  "rottingMultiplier": 0.0,
  "printable": false,
  "colonyTags": [],
  "race": "generic",
  "description": "Passage piece background"
}