{
  "itemKey": "stationbackgroundshaftglassbottom",
  "itemName": "Glass shaft bottom piece background",
  "iconFile": "stationbackgroundshaftglassbottom.png",
  "price": 125,
  "rarity": "Common",
  "category": "playerstation",
  "maxStack": 0,
  "foodValue": 0.0,
  "rottingMultiplier": 0.0,
  "printable": false,
  "colonyTags": [],
  "race": "generic",
  "description": "Glass shaft bottom piece background"
}