{
  "itemKey": "steampunkshelf",
  "itemName": "Steampunk Shelf",
  "iconFile": "steampunkshelf.png",
  "price": 130,
  "rarity": "Common",
  "category": "decorative",
  "maxStack": 0,
  "foodValue": 0.0,
  "rottingMultiplier": 0.0,
  "printable": false,
  "colonyTags": [
    "steampunk",
    "storage"
  ],
  "race": "generic",
  "description": "A set of shelves hung with pipes.",
  "apexDescription": "Pipes are a sturdy solution for making secure wall storage.aa",
  "avianDescription": "There is a true creative flair in this recycled looking shelf.",
  "floranDescription": "Floran doesssn\u0027t like booksss, but shelf is okay I guesss.",
  "glitchDescription": "Impressed. The pipes have been arranged to hold up shelves.",
  "humanDescription": "This is a pretty creative use of old piping.",
  "hylotlDescription": "This is a rather inelegant method of storing boxes, but I admire the effort.",
  "novakidDescription": "I wonder if that ol\u0027 clock is broken?"
}