{
  "itemKey": "steamgreylegs",
  "itemName": "Warm Grey Trousers",
  "iconFile": "steamgreylegs.png",
  "price": 2500,
  "rarity": "Rare",
  "category": "legwear",
  "maxStack": 1,
  "foodValue": 0.0,
  "rottingMultiplier": 0.0,
  "printable": true,
  "description": "These trousers are lined inside to provide extra protection and warmth."
}