{
  "itemKey": "steampunklamp",
  "itemName": "Steampunk Lamp",
  "iconFile": "steampunklamp.png",
  "price": 90,
  "rarity": "Common",
  "category": "light",
  "maxStack": 0,
  "foodValue": 0.0,
  "rottingMultiplier": 0.0,
  "printable": false,
  "colonyTags": [
    "steampunk",
    "light"
  ],
  "race": "generic",
  "description": "An electric wall lamp, filled with a flowing, glowing gas.",
  "apexDescription": "I suspect that lamp works by ionising xenon gases with an electric charge.",
  "avianDescription": "What a curious lamp. I wonder how it is made?",
  "floranDescription": "Floran can\u0027t ssstop looking at lamp.",
  "glitchDescription": "Mesmerised. The flowing substances within this lamp are entrancing.",
  "humanDescription": "The thick gases within move as they glow. It\u0027s almost hypnotic.",
  "hylotlDescription": "The rippling inside this lamp is admittedly rather calming.",
  "novakidDescription": "I guess I have some common ground with the glowing gases in this ol\u0027 lamp."
}