{
  "itemKey": "steamboiler2",
  "itemName": "Medium Steam Boiler",
  "iconFile": "steamboiler2.png",
  "price": 155,
  "rarity": "Common",
  "category": "decorative",
  "maxStack": 0,
  "foodValue": 0.0,
  "rottingMultiplier": 0.0,
  "printable": true,
  "colonyTags": [
    "mechanical"
  ],
  "race": "generic",
  "description": "A long dented boiler, for turning freezing water into steam.",
  "apexDescription": "It almost looks like a huge test tube.",
  "avianDescription": "I guess it is producing steam for some purpose.",
  "floranDescription": "Floran sssurprised at how hot thisss iss.",
  "glitchDescription": "Impressed. It manages to stay upright despite looking top heavy.",
  "humanDescription": "This steam boiler looks very outdated by modern standards, to say the least...",
  "hylotlDescription": "I don\u0027t think a Hylotl would have made something so unappealing.",
  "novakidDescription": "Stick one o\u0027 these in a train and we\u0027ll have ourselves a lotta fun."
}