{
  "itemKey": "steamspringlamp",
  "itemName": "Steamspring Lamp",
  "iconFile": "steamspringlamp.png",
  "price": 100,
  "rarity": "Common",
  "category": "light",
  "maxStack": 0,
  "foodValue": 0.0,
  "rottingMultiplier": 0.0,
  "printable": false,
  "colonyTags": [
    "steamspring",
    "light",
    "mechanical"
  ],
  "race": "generic",
  "description": "A strange lamp made from wood and brass.",
  "apexDescription": "This lamp is a very unique shape.",
  "avianDescription": "What an interestingly shaped lamp!",
  "floranDescription": "Lamp isss funny looking - Isss it sssecretly a weapon?",
  "glitchDescription": "Curious. A strangely assembled light source.",
  "humanDescription": "Who made this lamp? It\u0027s kind of strange.",
  "hylotlDescription": "The shape of this lamp gives it a strange charm.",
  "novakidDescription": "This here is an odd lookin\u0027 lamp if I ever saw one."
}