{
  "itemKey": "steamspringtable",
  "itemName": "Steamspring Table",
  "iconFile": "steamspringtable.png",
  "price": 125,
  "rarity": "Common",
  "category": "furniture",
  "maxStack": 0,
  "foodValue": 0.0,
  "rottingMultiplier": 0.0,
  "printable": false,
  "colonyTags": [
    "steamspring"
  ],
  "race": "generic",
  "description": "A neatly crafted table decorated with brass pipes.",
  "apexDescription": "The pipes on this table must make it very sturdy.",
  "avianDescription": "The brass pipes and wooden tabletop go well together.",
  "floranDescription": "Floran wondersss if hitting pipesss would make loud noissse.",
  "glitchDescription": "Observant. This wooden table is mostly supported with old pipes.",
  "humanDescription": "A table made of wood and pipes. Pretty cool.",
  "hylotlDescription": "I wonder if the pipes on this table actually help support it?",
  "novakidDescription": "I could play a game of cards off a table like this."
}