{
  "itemKey": "steampunkbed",
  "itemName": "Steampunk Bed",
  "iconFile": "steampunkbed.png",
  "price": 210,
  "rarity": "Common",
  "category": "furniture",
  "maxStack": 0,
  "foodValue": 0.0,
  "rottingMultiplier": 0.0,
  "printable": false,
  "colonyTags": [
    "steampunk"
  ],
  "race": "generic",
  "description": "A bed supported by a framework of pipes.",
  "apexDescription": "This bed has a frame made of old brass piping. Interesting.",
  "avianDescription": "A rather charming, fancy bed.",
  "floranDescription": "Floran want to pull apart pipesss, use them as weaponsss.",
  "glitchDescription": "Intrigued. Do these pipes have any function?",
  "humanDescription": "A bed made of pipes! How delightfully retro.",
  "hylotlDescription": "This bed is designed to look like it has more functions than it does.",
  "novakidDescription": "Now this here is a bed I could get used to."
}