{
  "itemKey": "steamspringbed",
  "itemName": "Steamspring Bed",
  "iconFile": "steamspringbed.png",
  "price": 170,
  "rarity": "Common",
  "category": "furniture",
  "maxStack": 0,
  "foodValue": 0.0,
  "rottingMultiplier": 0.0,
  "printable": false,
  "colonyTags": [
    "steamspring"
  ],
  "race": "generic",
  "description": "A comfy bed supported by a framework of pipes.",
  "apexDescription": "This bed uses repurposed brass pipes as a frame - A resourceful choice.",
  "avianDescription": "The brass pipes on this fancy bed glisten in the sun.",
  "floranDescription": "Floran confusssed. Why is this bed made of pipesss?",
  "glitchDescription": "Confused. Do the pipes on this bed make it more comfortable?",
  "humanDescription": "I feel like old brass pipes aren\u0027t the best foundation for a sturdy bed.",
  "hylotlDescription": "I guess this bed is made to look old fashioned. I\u0027m not very impressed.",
  "novakidDescription": "I could lie beneath the stars on a bed like this."
}