{
  "itemKey": "stonetable",
  "itemName": "Stone Table",
  "iconFile": "stonetable.png",
  "price": 35,
  "rarity": "Common",
  "category": "furniture",
  "maxStack": 0,
  "foodValue": 0.0,
  "rottingMultiplier": 0.0,
  "printable": false,
  "colonyTags": [
    "alpine"
  ],
  "race": "generic",
  "description": "A table made of cobblestone.",
  "apexDescription": "A simple table. It\u0027ll serve.",
  "avianDescription": "Someone has simply stacked two stone slabs.",
  "floranDescription": "Ssstony table.",
  "glitchDescription": "Unimpressed. Remedial craftsmanship.",
  "humanDescription": "I guess this counts as a table.",
  "hylotlDescription": "Function over form. This table is likely to weather time.",
  "novakidDescription": "A small rock with a larger rock on top."
}