{
  "itemKey": "stunglove",
  "itemName": "Stun Glove",
  "iconFile": "stunglove.png",
  "price": 1000,
  "rarity": "Legendary",
  "category": "fistWeapon",
  "maxStack": 1,
  "foodValue": 0.0,
  "rottingMultiplier": 0.0,
  "printable": true,
  "description": "Shockingly effective."
}