{
  "itemKey": "sulphur",
  "itemName": "Sulphur",
  "iconFile": "sulphur.png",
  "price": 0,
  "rarity": "Common",
  "category": "craftingMaterial",
  "maxStack": 0,
  "foodValue": 0.0,
  "rottingMultiplier": 0.0,
  "printable": true,
  "description": "Sulphur, a surprisingly useful compound."
}