{
  "itemKey": "superrewardbag",
  "itemName": "Special Reward",
  "iconFile": "superrewardbag.png",
  "price": 0,
  "rarity": "Legendary",
  "category": "mysteriousReward",
  "maxStack": 1,
  "foodValue": 0.0,
  "rottingMultiplier": 0.0,
  "printable": true,
  "description": "Use this to open it and reveal its contents. How exciting!"
}