{
  "itemKey": "swampchair",
  "itemName": "Swamp Chair",
  "iconFile": "swampchair.png",
  "price": 55,
  "rarity": "Common",
  "category": "furniture",
  "maxStack": 0,
  "foodValue": 0.0,
  "rottingMultiplier": 0.0,
  "printable": false,
  "colonyTags": [
    "swamp"
  ],
  "race": "generic",
  "description": "A small seat made from leaves and roots.",
  "apexDescription": "I presume this is for sitting. It doesn\u0027t look too comfortable.",
  "avianDescription": "This seat is simple. No need for extravagance.",
  "floranDescription": "Chair smellsss like ssswamps. Floran likesss.",
  "glitchDescription": "Uncomfortable. Sitting here would feel odd.",
  "humanDescription": "I guess this is a seat.",
  "hylotlDescription": "This isn\u0027t made with much finesse.",
  "novakidDescription": "It\u0027s a chair, I guess."
}