{
  "itemKey": "swimaugment",
  "itemName": "Swimming Augment",
  "iconFile": "swimaugment.png",
  "price": 10000,
  "rarity": "Rare",
  "category": "eppAugment",
  "maxStack": 0,
  "foodValue": 0.0,
  "rottingMultiplier": 0.0,
  "printable": true,
  "description": "A pluggable EPP module that boosts your mobility when swimming."
}