{
  "itemKey": "symbiotehead",
  "itemName": "Symbiote",
  "iconFile": "symbiotehead.png",
  "price": 2500,
  "rarity": "Rare",
  "category": "headwear",
  "maxStack": 1,
  "foodValue": 0.0,
  "rottingMultiplier": 0.0,
  "printable": true,
  "description": "Free will remover."
}