{
  "itemKey": "synthesisstim",
  "itemName": "Synthesis Stim",
  "iconFile": "synthesisstim.png",
  "price": 0,
  "rarity": "Common",
  "category": "medicine",
  "maxStack": 0,
  "foodValue": 0.0,
  "rottingMultiplier": 0.0,
  "printable": true,
  "description": "This stim is full of tree sap. It has beneficial healing properties."
}