{
  "itemKey": "t2helm1",
  "itemName": "Handy Space Helmet",
  "iconFile": "t2helm1.png",
  "price": 0,
  "rarity": "Common",
  "category": "headwear",
  "maxStack": 1,
  "foodValue": 0.0,
  "rottingMultiplier": 0.0,
  "printable": true,
  "description": "You\u0027ll never be doomed with this handy space helmet."
}