{
  "itemKey": "tallgrass2",
  "itemName": "Tall Grass",
  "iconFile": "tallgrass2.png",
  "price": 0,
  "rarity": "Common",
  "category": "breakable",
  "maxStack": 0,
  "foodValue": 0.0,
  "rottingMultiplier": 0.0,
  "printable": false,
  "colonyTags": [
    "oasis"
  ],
  "race": "generic",
  "description": "A patch of tall grass. Be sure to check for critters!",
  "apexDescription": "Tall grass. It rustles gently in the breeze.",
  "avianDescription": "Tall, feathery grass.",
  "floranDescription": "Floran hides in grasss, then jumps out to surprise prey! Never failsss.",
  "glitchDescription": "Stealthy. Floran often disguise themselves in tall grass to hunt their prey.",
  "humanDescription": "I just want to run barefoot through this grass.",
  "hylotlDescription": "Grass swaying in the wind, is there anything more peaceful?",
  "novakidDescription": "This grass is awful tall, no time for gardenin\u0027."
}