{
  "itemKey": "tar",
  "itemName": "Tar",
  "iconFile": "tar.png",
  "price": 0,
  "rarity": "Common",
  "category": "block",
  "maxStack": 0,
  "foodValue": 0.0,
  "rottingMultiplier": 0.0,
  "printable": true,
  "description": "Thick, rancid tar. Just looking at it feels sticky."
}