{
  "itemKey": "tarconsole",
  "itemName": "Tar Console",
  "iconFile": "tarconsole.png",
  "price": 60,
  "rarity": "Common",
  "category": "wire",
  "maxStack": 0,
  "foodValue": 0.0,
  "rottingMultiplier": 0.0,
  "printable": false,
  "colonyTags": [
    "tar",
    "odd",
    "wired"
  ],
  "race": "generic",
  "description": "A computer console made of tar.",
  "apexDescription": "So long as the console works who cares what it\u0027s made of.",
  "avianDescription": "Now to find a way to operate this console without touching it.",
  "floranDescription": "Floran push buttons. Make thingsss happen!",
  "glitchDescription": "Impressed. The technical applications of tar appear to be greater than Glitch once presumed.",
  "humanDescription": "A console made of tar. Ingenious.",
  "hylotlDescription": "The potential of a natural substance once again being pushed to its practical limits.",
  "novakidDescription": "It\u0027s a control console. Wait... is it made out of tar?"
}