{
  "itemKey": "tardoor",
  "itemName": "Tar Door",
  "iconFile": "tardoor.png",
  "price": 60,
  "rarity": "Common",
  "category": "door",
  "maxStack": 0,
  "foodValue": 0.0,
  "rottingMultiplier": 0.0,
  "printable": false,
  "colonyTags": [
    "tar",
    "odd",
    "door"
  ],
  "race": "generic",
  "description": "A tar door.",
  "apexDescription": "Just a door, only made from tar.",
  "avianDescription": "A normal looking door, but quite a feat of tar engineering.",
  "floranDescription": "Sssticky and ssslow to open. No good.",
  "glitchDescription": "Disapproving. A door made of tar could become stuck at any moment.",
  "humanDescription": "Fairly sturdy for a tar door.",
  "hylotlDescription": "A cascade of tar has been formed into a door.",
  "novakidDescription": "It seems to be a door made from dried tar. But it\u0027s still pretty sticky."
}