{
  "itemKey": "tarman",
  "itemName": "Tarman",
  "iconFile": "tarman.png",
  "price": 40,
  "rarity": "Common",
  "category": "decorative",
  "maxStack": 0,
  "foodValue": 0.0,
  "rottingMultiplier": 0.0,
  "printable": false,
  "colonyTags": [
    "tar",
    "odd"
  ],
  "race": "generic",
  "description": "Like a snowman, but sticky.",
  "apexDescription": "A rather unfortunate looking creation. I feel sorry for the tarman.",
  "avianDescription": "I didn\u0027t know tar could be used so creatively.",
  "floranDescription": "Tarman sssticky. Floran avoid sssticky thingss.",
  "glitchDescription": "Curious. Why make a tarman look like a snowman when it could look like a Glitch?",
  "humanDescription": "Who would make a man out this sticky stuff?",
  "hylotlDescription": "This tarman successfully resembles its snowy cousin. Quite impressive indeed.",
  "novakidDescription": "Whoever built this awful thing needs some snow in their life."
}