{
  "itemKey": "teacup1",
  "itemName": "Teacup",
  "iconFile": "teacup1.png",
  "price": 30,
  "rarity": "Common",
  "category": "decorative",
  "maxStack": 0,
  "foodValue": 0.0,
  "rottingMultiplier": 0.0,
  "printable": true,
  "colonyTags": [
    "cooking"
  ],
  "race": "generic",
  "description": "A steaming cup of Earl Grey.",
  "apexDescription": "A warm cup of tea.",
  "avianDescription": "A hot, smelly drink.",
  "floranDescription": "Floran not sssure if Floran like drink. Perhapss it grow on Floran.",
  "glitchDescription": "Delighted. Tea is a joy to the taste sensors.",
  "humanDescription": "There\u0027s nothing quite like a nice cup of tea and a sit-down.",
  "hylotlDescription": "The Hylotl brew similar drinks from ocean flora.",
  "novakidDescription": "Never understood what everyone likes so much \u0027bout tea."
}