{
  "itemKey": "techchest",
  "itemName": "Hi-Tech Chest",
  "iconFile": "techchest.png",
  "price": 70,
  "rarity": "Common",
  "category": "storage",
  "maxStack": 0,
  "foodValue": 0.0,
  "rottingMultiplier": 0.0,
  "printable": true,
  "colonyTags": [
    "storage"
  ],
  "race": "generic",
  "description": "A chest with bright glowing markings throughout.",
  "apexDescription": "A hi-tech chest. It looks as if it might contain something valuable.",
  "avianDescription": "A chest that looks like it stores something valuable.",
  "floranDescription": "Sspecial shiny chesst.",
  "glitchDescription": "Non-committal. This chest is of unknown origin.",
  "humanDescription": "Who made this? What\u0027s in it?",
  "hylotlDescription": "There is amazing technology built into the chest itself.",
  "novakidDescription": "Ooh, I bet it\u0027s chock full o\u0027 valuable technology."
}