{
  "itemKey": "techlabscientist",
  "itemName": "Tech Lab Scientist",
  "iconFile": "techlabscientist.png",
  "price": 0,
  "rarity": "Common",
  "category": "other",
  "maxStack": 0,
  "foodValue": 0.0,
  "rottingMultiplier": 0.0,
  "printable": false,
  "colonyTags": [
    "outpost"
  ],
  "race": "generic",
  "description": "Tech lab scientist."
}