{
  "itemKey": "teddyhead",
  "itemName": "Teddy Hat",
  "iconFile": "teddyhead.png",
  "price": 2500,
  "rarity": "Rare",
  "category": "headwear",
  "maxStack": 1,
  "foodValue": 0.0,
  "rottingMultiplier": 0.0,
  "printable": true,
  "description": "This teddy bear wants to rest on your head!"
}