{
  "itemKey": "telescope",
  "itemName": "Astronomy Telescope",
  "iconFile": "telescope.png",
  "price": 400,
  "rarity": "Uncommon",
  "category": "decorative",
  "maxStack": 0,
  "foodValue": 0.0,
  "rottingMultiplier": 0.0,
  "printable": false,
  "colonyTags": [
    "science",
    "space"
  ],
  "race": "generic",
  "description": "A scientific telescope, perfect for observing the stars.",
  "apexDescription": "This large telescope may allow me to see objects far away.",
  "avianDescription": "A telescope specially made for looking at the stars.",
  "floranDescription": "Telessscopes let Floran look closely at the stars.",
  "glitchDescription": "Excited. This telescope is the perfect tool for inspecting the stars from afar.",
  "humanDescription": "This big telescope looks specially designed for stargazing.",
  "hylotlDescription": "Mirrors on telescopes like this have to be very precisely positioned.",
  "novakidDescription": "A big ol\u0027 telescope, for lookin\u0027 at stars."
}