{
  "itemKey": "temple2",
  "itemName": "Temple Bricks",
  "iconFile": "temple2.png",
  "price": 0,
  "rarity": "Common",
  "category": "block",
  "maxStack": 0,
  "foodValue": 0.0,
  "rottingMultiplier": 0.0,
  "printable": true,
  "description": "Small, relatively old bricks with some Avian hieroglyphs carved in."
}