{
  "itemKey": "tenstudiesplaque",
  "itemName": "Nameplate",
  "iconFile": "tenstudiesplaque.png",
  "price": 70,
  "rarity": "Common",
  "category": "decorative",
  "maxStack": 0,
  "foodValue": 0.0,
  "rottingMultiplier": 0.0,
  "printable": true,
  "colonyTags": [
    "hylotl",
    "valuable",
    "pretty"
  ],
  "race": "apex",
  "description": "Tenth Study in Female Hylotlgy",
  "apexDescription": "This nameplate apparently describes some Hylotl art.",
  "avianDescription": "A study of Hylotl form... It says \u0027V: Ten Studies in Female",
  "floranDescription": "Plaque has boring wordss. Very sshiny though.",
  "glitchDescription": "Interested. This plaque has names and dates referencing art.",
  "humanDescription": "It reads something about Hylotlgy.",
  "hylotlDescription": "This little plate says \u0027Study in Female Hylotlgy\u0027."
}