{
  "itemKey": "tentacleegg",
  "itemName": "Tentacle Monster Egg",
  "iconFile": "tentacleegg.png",
  "price": 50,
  "rarity": "Common",
  "category": "decorative",
  "maxStack": 0,
  "foodValue": 0.0,
  "rottingMultiplier": 0.0,
  "printable": false,
  "race": "generic",
  "description": "Anyone for scrambled monster egg?"
}