{
  "itemKey": "tent2",
  "itemName": "Green Basic Tent",
  "iconFile": "tent2.png",
  "price": 65,
  "rarity": "Common",
  "category": "furniture",
  "maxStack": 0,
  "foodValue": 0.0,
  "rottingMultiplier": 0.0,
  "printable": true,
  "colonyTags": [
    "human",
    "explorer"
  ],
  "race": "generic",
  "description": "A basic tent. Watch out for spacebears!",
  "apexDescription": "A simple tent. Good enough.",
  "avianDescription": "A temporary house.",
  "floranDescription": "Little green houssse.",
  "glitchDescription": "Irritated. There isn\u0027t much room.",
  "humanDescription": "I enjoyed camping as a child.",
  "hylotlDescription": "I am not too proud to sleep in a tent.",
  "novakidDescription": "It ain\u0027t too spacious, but it\u0027ll do."
}