{
  "itemKey": "tentaclepart1",
  "itemName": "Tentacle part",
  "iconFile": "tentaclepart1.png",
  "price": 65,
  "rarity": "Common",
  "category": "breakable",
  "maxStack": 0,
  "foodValue": 0.0,
  "rottingMultiplier": 0.0,
  "printable": false,
  "colonyTags": [
    "tentacle"
  ],
  "race": "tentacle",
  "description": "Something organic and slimy...",
  "apexDescription": "This is unnerving.",
  "avianDescription": "How disgusting. Is it alive?",
  "floranDescription": "Ssslimy looking.",
  "glitchDescription": "Uncomfortable. It seems to be something organic.",
  "humanDescription": "Yuck. What even is that?",
  "hylotlDescription": "Some utterly repulsive, organic structure.",
  "novakidDescription": "Ain\u0027t sure what it is. Ain\u0027t sure I wanna know."
}