{
  "itemKey": "terraforge",
  "itemName": "Terraforge",
  "iconFile": "terraforge.png",
  "price": 0,
  "rarity": "Legendary",
  "category": "other",
  "maxStack": 0,
  "foodValue": 0.0,
  "rottingMultiplier": 0.0,
  "printable": false,
  "colonyTags": [
    "ancient"
  ],
  "race": "ancient",
  "description": "A massive ancient machine. What could it be used for?",
  "apexDescription": "This massive ancient machine hums with mysterious energy.",
  "avianDescription": "This ancient machine is still operational!",
  "floranDescription": "Ancient machine sparkss with energy.",
  "glitchDescription": "Astounded. This machine is ancient, yet still operational.",
  "humanDescription": "This ancient machine seems powered by some mysterious energy.",
  "hylotlDescription": "There\u0027s elegance in this ancient machine\u0027s design... Clearly master craftsmanship.",
  "novakidDescription": "This here machine looks ancient, and still seems to be workin\u0027."
}