{
  "itemKey": "terraformermidnight",
  "itemName": "Dark Terraformer",
  "iconFile": "terraformermidnight.png",
  "price": 5000,
  "rarity": "Legendary",
  "category": "terraformer",
  "maxStack": 0,
  "foodValue": 0.0,
  "rottingMultiplier": 0.0,
  "printable": false,
  "colonyTags": [],
  "race": "ancient",
  "description": "Transforms a planet\u0027s climate into a chill wasteland of perpetual night."
}