{
  "itemKey": "terramartclosed",
  "itemName": "Closed Terra Mart",
  "iconFile": "terramartclosed.png",
  "price": 0,
  "rarity": "Common",
  "category": "other",
  "maxStack": 0,
  "foodValue": 0.0,
  "rottingMultiplier": 0.0,
  "printable": false,
  "colonyTags": [
    "outpost",
    "pretty"
  ],
  "description": "This would be a neat venue for a shop.",
  "apexDescription": "A strange shipping crate - it appears to have uses beyond storage.",
  "avianDescription": "This storage crate has a tree growing out of the top!",
  "floranDescription": "Floran likesss tree box.",
  "glitchDescription": "Intrigued. This crate looks like someone is converting it into a shop.",
  "humanDescription": "It looks like someone\u0027s in the process of moving into this giant shipping crate.",
  "hylotlDescription": "This crate appears to have a large tree growing through it.",
  "novakidDescription": "Is somebody turnin\u0027 this crate into a store?"
}