{
  "itemKey": "thewayisblocked",
  "itemName": "thewayisblocked",
  "iconFile": "thewayisblocked.png",
  "price": 0,
  "rarity": "Common",
  "category": "decorative",
  "maxStack": 0,
  "foodValue": 0.0,
  "rottingMultiplier": 0.0,
  "printable": false,
  "colonyTags": [],
  "race": "generic",
  "description": "A graffiti message.",
  "apexDescription": "Blocked, eh? We\u0027ll see about that!",
  "avianDescription": "Uh oh, maybe I shouldn\u0027t ignore this.",
  "floranDescription": "Floran payss sign no attention.",
  "glitchDescription": "Concerned. Is the statment true or false?",
  "humanDescription": "When did graffiti ever turn out to be true?",
  "hylotlDescription": "The author of this message is unknown, rendering the reliability questionable.",
  "novakidDescription": "Whatever!"
}