{
  "itemKey": "thorns1",
  "itemName": "Thorns",
  "iconFile": "thorns1.png",
  "price": 0,
  "rarity": "Common",
  "category": "trap",
  "maxStack": 0,
  "foodValue": 0.0,
  "rottingMultiplier": 0.0,
  "printable": false,
  "colonyTags": [],
  "race": "generic",
  "description": "Don\u0027t wanna step in those...",
  "apexDescription": "Sharp. I\u0027d better avoid them.",
  "avianDescription": "If only I could fly.",
  "floranDescription": "Plant no friend of Floran.",
  "glitchDescription": "Cautious. These look dangerous.",
  "humanDescription": "Very sharp thorns.",
  "hylotlDescription": "These look deadly.",
  "novakidDescription": "These sure look sharp, I\u0027m ready to hightail it outta here!"
}