{
  "itemKey": "throwingboulder",
  "itemName": "Throwing Boulder",
  "iconFile": "throwingboulder.png",
  "price": 0,
  "rarity": "Common",
  "category": "throwableItem",
  "maxStack": 0,
  "foodValue": 0.0,
  "rottingMultiplier": 0.0,
  "printable": true,
  "description": "Useful for combat or just showing off."
}