{
  "itemKey": "throwingspear",
  "itemName": "Iron Hunting Spear",
  "iconFile": "throwingspear.png",
  "price": 0,
  "rarity": "Common",
  "category": "throwableItem",
  "maxStack": 0,
  "foodValue": 0.0,
  "rottingMultiplier": 0.0,
  "printable": true,
  "description": "A throwing spear which carves meat from monsters."
}