{
  "itemKey": "throwinggnome",
  "itemName": "Ball of Gnomes",
  "iconFile": "throwinggnome.png",
  "price": 0,
  "rarity": "Common",
  "category": "throwableItem",
  "maxStack": 0,
  "foodValue": 0.0,
  "rottingMultiplier": 0.0,
  "printable": true,
  "description": "Toss these little guys to do the fighting for you."
}