{
  "itemKey": "tier4door",
  "itemName": "Durasteel Door",
  "iconFile": "tier4door.png",
  "price": 110,
  "rarity": "Common",
  "category": "door",
  "maxStack": 0,
  "foodValue": 0.0,
  "rottingMultiplier": 0.0,
  "printable": false,
  "colonyTags": [
    "door",
    "tier4"
  ],
  "race": "generic",
  "description": "A secure durasteel door.",
  "apexDescription": "This door is rather secure.",
  "avianDescription": "Very sturdy for a basic door.",
  "floranDescription": "Floran hide behind door. Jump out. Ssstab!",
  "glitchDescription": "Approving. A useful door.",
  "humanDescription": "A sturdy durasteel door.",
  "hylotlDescription": "A robust durasteel door.",
  "novakidDescription": "Now this is a sturdy lookin\u0027 door!"
}