{
  "itemKey": "tier4light",
  "itemName": "Durasteel Light",
  "iconFile": "tier4light.png",
  "price": 55,
  "rarity": "Common",
  "category": "light",
  "maxStack": 0,
  "foodValue": 0.0,
  "rottingMultiplier": 0.0,
  "printable": false,
  "colonyTags": [
    "light",
    "tier4"
  ],
  "race": "generic",
  "description": "A glowing durasteel light.",
  "apexDescription": "A well-made light source.",
  "avianDescription": "This useful lantern will light up even the darkest room.",
  "floranDescription": "Lantern sssafe for Floran.",
  "glitchDescription": "Admiration. A robust lantern.",
  "humanDescription": "A neat, sturdy lantern.",
  "hylotlDescription": "A useful light source.",
  "novakidDescription": "This sure lights up the room well."
}