{
  "itemKey": "tier3door",
  "itemName": "Titanium Door",
  "iconFile": "tier3door.png",
  "price": 80,
  "rarity": "Common",
  "category": "door",
  "maxStack": 0,
  "foodValue": 0.0,
  "rottingMultiplier": 0.0,
  "printable": false,
  "colonyTags": [
    "door",
    "tier3"
  ],
  "race": "generic",
  "description": "A strong titanium door.",
  "apexDescription": "This door is rather secure.",
  "avianDescription": "Very sturdy for a basic door.",
  "floranDescription": "Floran hide behind door. Jump out. Ssstab!",
  "glitchDescription": "Approving. A useful door.",
  "humanDescription": "A sturdy titanium door.",
  "hylotlDescription": "A robust titanium door.",
  "novakidDescription": "Now this is a sturdy lookin\u0027 door!"
}