{
  "itemKey": "tier1table",
  "itemName": "Iron Table",
  "iconFile": "tier1table.png",
  "price": 40,
  "rarity": "Common",
  "category": "furniture",
  "maxStack": 0,
  "foodValue": 0.0,
  "rottingMultiplier": 0.0,
  "printable": false,
  "colonyTags": [
    "commerce",
    "tier1"
  ],
  "race": "generic",
  "description": "A simple iron table.",
  "apexDescription": "This iron table serves its purpose.",
  "avianDescription": "A solid iron table.",
  "floranDescription": "Table good enough for Floran to ssslice meatsss.",
  "glitchDescription": "Approving. A well-made iron table.",
  "humanDescription": "A nice iron table.",
  "hylotlDescription": "As far as basic iron tables go, this one\u0027s not bad.",
  "novakidDescription": "A good iron table."
}