{
  "itemKey": "tier1bed",
  "itemName": "Iron Bed",
  "iconFile": "tier1bed.png",
  "price": 75,
  "rarity": "Common",
  "category": "furniture",
  "maxStack": 0,
  "foodValue": 0.0,
  "rottingMultiplier": 0.0,
  "printable": false,
  "colonyTags": [
    "misc",
    "tier1"
  ],
  "race": "generic",
  "description": "A common iron bed.",
  "apexDescription": "A basic bed. Comfortable enough.",
  "avianDescription": "This is a comfortable enough place to rest my feathers.",
  "floranDescription": "Floran ressst in sssimple bed.",
  "glitchDescription": "Impressed. A simple but sturdy bed.",
  "humanDescription": "A decent bed. Should be able to get some rest here.",
  "hylotlDescription": "It\u0027s not the best build quality, but it\u0027ll do.",
  "novakidDescription": "A simple bed to rest my weary head."
}