{
  "itemKey": "tier4switch",
  "itemName": "Durasteel Console",
  "iconFile": "tier4switch.png",
  "price": 65,
  "rarity": "Common",
  "category": "wire",
  "maxStack": 0,
  "foodValue": 0.0,
  "rottingMultiplier": 0.0,
  "printable": false,
  "colonyTags": [
    "wired",
    "tier4"
  ],
  "race": "generic",
  "description": "A durasteel control console. Press all the buttons!",
  "apexDescription": "This console offers a large degree of control.",
  "avianDescription": "A useful console.",
  "floranDescription": "Floran push buttons. Make thingsss happen!",
  "glitchDescription": "Impressed. A single console can control so many different mechanisms at once.",
  "humanDescription": "A control console. It\u0027s just gotta be played with.",
  "hylotlDescription": "A control console.",
  "novakidDescription": "Some kinda control console, I\u0027ll only push a few buttons..."
}