{
  "itemKey": "tier4bed",
  "itemName": "Durasteel Bed",
  "iconFile": "tier4bed.png",
  "price": 180,
  "rarity": "Common",
  "category": "furniture",
  "maxStack": 0,
  "foodValue": 0.0,
  "rottingMultiplier": 0.0,
  "printable": false,
  "colonyTags": [
    "misc",
    "tier4"
  ],
  "race": "generic",
  "description": "A comfortable durasteel bed. Looks pretty sleek.",
  "apexDescription": "A nice, comfy bed.",
  "avianDescription": "This is very comfortable place to rest my feathers.",
  "floranDescription": "Floran ressst in great bed.",
  "glitchDescription": "Happy. I will sleep well in this bed.",
  "humanDescription": "A great bed. Should easily be able to get some rest here.",
  "hylotlDescription": "Decent build quality. It\u0027ll do.",
  "novakidDescription": "Looks like a pretty darn decent bed!"
}