{
  "itemKey": "titaniummachinepistol",
  "itemName": "Titanium Machine Pistol",
  "iconFile": "titaniummachinepistol.png",
  "price": 480,
  "rarity": "Uncommon",
  "category": "machinePistol",
  "maxStack": 1,
  "foodValue": 0.0,
  "rottingMultiplier": 0.0,
  "printable": true,
  "description": "A large handgun that packs a kick."
}