{
  "itemKey": "tombbrick2",
  "itemName": "Unmarked Tomb Brick",
  "iconFile": "tombbrick2.png",
  "price": 0,
  "rarity": "Common",
  "category": "block",
  "maxStack": 0,
  "foodValue": 0.0,
  "rottingMultiplier": 0.0,
  "printable": true,
  "description": "These bricks have worn smooth with age."
}