{
  "itemKey": "tombthing1",
  "itemName": "Undecorated Stone Tomb",
  "iconFile": "tombthing1.png",
  "price": 155,
  "rarity": "Common",
  "category": "storage",
  "maxStack": 0,
  "foodValue": 0.0,
  "rottingMultiplier": 0.0,
  "printable": true,
  "colonyTags": [
    "avian",
    "aviantomb"
  ],
  "race": "avian",
  "description": "A plain stone tomb caked in dust.",
  "apexDescription": "A tomb without decoration.",
  "avianDescription": "A tomb for those who could not afford a sarcophagus.",
  "floranDescription": "Floran believe dead should return to ssoil.",
  "glitchDescription": "Neutral. Instead of burying, the Glitch harvest the dead for spare parts.",
  "humanDescription": "A depressing place to spend eternity.",
  "hylotlDescription": "A body deserves better.",
  "novakidDescription": "A bed for the dead."
}