{
  "itemKey": "tombbrick5",
  "itemName": "Smooth Tomb Brick",
  "iconFile": "tombbrick5.png",
  "price": 0,
  "rarity": "Common",
  "category": "block",
  "maxStack": 0,
  "foodValue": 0.0,
  "rottingMultiplier": 0.0,
  "printable": true,
  "description": "Old bricks, polished to perfection."
}