{
  "itemKey": "tombthing4",
  "itemName": "Lavish Avian Tomb",
  "iconFile": "tombthing4.png",
  "price": 175,
  "rarity": "Common",
  "category": "storage",
  "maxStack": 0,
  "foodValue": 0.0,
  "rottingMultiplier": 0.0,
  "printable": true,
  "colonyTags": [
    "avian",
    "aviantomb"
  ],
  "race": "avian",
  "description": "A lavish Avian tomb.",
  "apexDescription": "A fancy tomb. The engraving is well done.",
  "avianDescription": "A tomb for those who could afford a sarcophagus but opted to avoid preservation.",
  "floranDescription": "Birdman decorate tomb like birdman.",
  "glitchDescription": "Observant. The engraving on this tomb is well practised.",
  "humanDescription": "Can you imagine how the lid looks from the inside?",
  "hylotlDescription": "An honoured body.",
  "novakidDescription": "This is one fancy restin\u0027 place."
}