{
  "itemKey": "tombstone7",
  "itemName": "Grounded\u0027s Tombstone",
  "iconFile": "tombstone7.png",
  "price": 50,
  "rarity": "Common",
  "category": "decorative",
  "maxStack": 0,
  "foodValue": 0.0,
  "rottingMultiplier": 0.0,
  "printable": true,
  "colonyTags": [
    "avian",
    "aviantomb"
  ],
  "race": "avian",
  "description": "The skull on this tombstone shows that it belongs to one of the grounded.",
  "apexDescription": "A faded tombstone. Very old.",
  "avianDescription": "A standard tombstone. These are old and numerous.",
  "floranDescription": "Floran mark dead with growth of flower.",
  "glitchDescription": "Observant. This tombstone is starting to crumble.",
  "humanDescription": "A very old tombstone. The words are largely faded.",
  "hylotlDescription": "The dead deserve more honour than this.",
  "novakidDescription": "This ol\u0027 tombstone marks someone\u0027s grave."
}