{
  "itemKey": "toxictable",
  "itemName": "Toxic Table",
  "iconFile": "toxictable.png",
  "price": 105,
  "rarity": "Common",
  "category": "furniture",
  "maxStack": 0,
  "foodValue": 0.0,
  "rottingMultiplier": 0.0,
  "printable": false,
  "colonyTags": [
    "toxic",
    "nature",
    "commerce"
  ],
  "race": "generic",
  "description": "A thorny table. Careful where you put your feet.",
  "apexDescription": "This table is soft, squidgy and somewhat disconcerting.",
  "avianDescription": "It\u0027s hard to get comfortable next to this table.",
  "floranDescription": "Thorny table ssstab Floran. Floran stab back!",
  "glitchDescription": "Cautious. The thorns are exceptionally sharp.",
  "humanDescription": "This table feels like it would collapse under the weight of a meal.",
  "hylotlDescription": "This reminds me of a beautiful lily pad.",
  "novakidDescription": "I don\u0027 mind organic tables. But these sharp thorns sure ain\u0027t safe."
}