{
  "itemKey": "toxictopjam",
  "itemName": "Toxictop Jam",
  "iconFile": "toxictopjam.png",
  "price": 365,
  "rarity": "Common",
  "category": "preparedFood",
  "maxStack": 1,
  "foodValue": 35.0,
  "rottingMultiplier": 1.0,
  "printable": true,
  "description": "Jam made from toxictop fruit. But is it actually toxic to eat? Only one way to find out!"
}