{
  "itemKey": "toxicwastebarrel",
  "itemName": "Toxic Waste Barrel",
  "iconFile": "toxicwastebarrel.png",
  "price": 55,
  "rarity": "Common",
  "category": "breakable",
  "maxStack": 0,
  "foodValue": 0.0,
  "rottingMultiplier": 0.0,
  "printable": true,
  "colonyTags": [
    "glitch",
    "glitchsewer",
    "storage"
  ],
  "race": "generic",
  "description": "A toxic waste barrel. Don\u0027t spill any!",
  "apexDescription": "A barrel filled with waste.",
  "avianDescription": "A foul-smelling barrel.",
  "floranDescription": "Sssmell like Floran bathwater.",
  "glitchDescription": "Alarmed. This concoction may be dangerous.",
  "humanDescription": "If I fall in this barrel, will I get superpowers?",
  "hylotlDescription": "Many of these barrels get dumped in the ocean by other, careless species.",
  "novakidDescription": "This is spillin\u0027 all over the place! Smells foul as a mule."
}