{
  "itemKey": "toxicoshroom1",
  "itemName": "Toxic Glowing Oshroom",
  "iconFile": "toxicoshroom1.png",
  "price": 0,
  "rarity": "Common",
  "category": "light",
  "maxStack": 0,
  "foodValue": 0.0,
  "rottingMultiplier": 0.0,
  "printable": false,
  "colonyTags": [
    "ocean"
  ],
  "race": "generic",
  "description": "A toxic glowing oshroom.",
  "apexDescription": "This is a gently lit oshroom.",
  "avianDescription": "This little oshroom doubles up as a little light.",
  "floranDescription": "Light looksss like a ssstrange bubble.",
  "glitchDescription": "Curious. A type of glowing fungus.",
  "humanDescription": "This glowing plant is strangely pretty.",
  "hylotlDescription": "This oshroom casts a beautiful light like a gentle blanket around it.",
  "novakidDescription": "An glowin\u0027 plant. Its light is welcome."
}