{
  "itemKey": "traditionalchest",
  "itemName": "Traditional Shirt",
  "iconFile": "traditionalchest.png",
  "price": 75,
  "rarity": "Common",
  "category": "chestwear",
  "maxStack": 1,
  "foodValue": 0.0,
  "rottingMultiplier": 0.0,
  "printable": true,
  "description": "A common style of shirt which offers comfort and simplicity."
}