{
  "itemKey": "trapchest",
  "itemName": "Trap Chest",
  "iconFile": "trapchest.png",
  "price": 135,
  "rarity": "Common",
  "category": "wire",
  "maxStack": 0,
  "foodValue": 0.0,
  "rottingMultiplier": 0.0,
  "printable": true,
  "colonyTags": [
    "hoard"
  ],
  "race": "glitch",
  "description": "This chest is rigged with a sensor that sends a signal when its opened.",
  "apexDescription": "A classic treasure chest. Or is it...?",
  "avianDescription": "A chest filled with treasure! Or is it...?",
  "floranDescription": "Chessst to keep trinketsss or treasures in.",
  "glitchDescription": "Excitable. A treasure chest! What could be inside...?",
  "humanDescription": "It\u0027s a treasure chest. But does it contain a treasure...?",
  "hylotlDescription": "A chest created from wood and metal. It looks slightly weathered.",
  "novakidDescription": "A treasure chest! It must be my lucky day! Or is it...?"
}