{
  "itemKey": "trashbag",
  "itemName": "Trash Bag",
  "iconFile": "trashbag.png",
  "price": 50,
  "rarity": "Common",
  "category": "storage",
  "maxStack": 0,
  "foodValue": 0.0,
  "rottingMultiplier": 0.0,
  "printable": true,
  "colonyTags": [
    "glitch",
    "glitchsewer",
    "storage"
  ],
  "race": "glitch",
  "description": "A trash bag. What a load of rubbish.",
  "apexDescription": "A bag of trash.",
  "avianDescription": "A bag of unwanted items.",
  "floranDescription": "Gaaaarbage day!",
  "glitchDescription": "Observant. A bag of trash.",
  "humanDescription": "Just another bag of trash.",
  "hylotlDescription": "A bag of waste carelessly left here.",
  "novakidDescription": "A bag of garbage, nothin\u0027 of use here."
}