{
  "itemKey": "treasurehoard",
  "itemName": "Treasure Hoard",
  "iconFile": "treasurehoard.png",
  "price": 0,
  "rarity": "Common",
  "category": "block",
  "maxStack": 0,
  "foodValue": 0.0,
  "rottingMultiplier": 0.0,
  "printable": true,
  "description": "A shimmering hoard of valuable treasure."
}