{
  "itemKey": "treeprop2",
  "itemName": "Tree Prop",
  "iconFile": "treeprop2.png",
  "price": 60,
  "rarity": "Common",
  "category": "decorative",
  "maxStack": 0,
  "foodValue": 0.0,
  "rottingMultiplier": 0.0,
  "printable": true,
  "colonyTags": [],
  "race": "hylotl",
  "description": "A nice tree."
}