{
  "itemKey": "trexfossil2",
  "itemName": "T. rex Torso",
  "iconFile": "trexfossil2.png",
  "price": 0,
  "rarity": "Rare",
  "category": "largeFossil",
  "maxStack": 0,
  "foodValue": 0.0,
  "rottingMultiplier": 0.0,
  "printable": true,
  "race": "generic",
  "description": "A fossilised T. rex torso."
}