{
  "itemKey": "trexfossil1",
  "itemName": "T. rex Skull",
  "iconFile": "trexfossil1.png",
  "price": 200,
  "rarity": "Rare",
  "category": "largeFossil",
  "maxStack": 0,
  "foodValue": 0.0,
  "rottingMultiplier": 0.0,
  "printable": true,
  "race": "generic",
  "description": "A fossilised T. rex skull."
}