{
  "itemKey": "tribalcloset1",
  "itemName": "Avian Closet",
  "iconFile": "tribalcloset1.png",
  "price": 145,
  "rarity": "Common",
  "category": "storage",
  "maxStack": 0,
  "foodValue": 0.0,
  "rottingMultiplier": 0.0,
  "printable": true,
  "colonyTags": [
    "avian",
    "avianvillage",
    "storage"
  ],
  "race": "avian",
  "description": "The crystal on top of this closet appears to be broken.",
  "apexDescription": "A crystal sits over the closet, but for what purpose?",
  "avianDescription": "The crystal on this closet can be used as a lock. It appears to be cracked, however.",
  "floranDescription": "Anything for Floran in clossset?",
  "glitchDescription": "Intrigued. The crystal appears to have stopped functioning due to a small hairline fracture.",
  "humanDescription": "I wonder if there\u0027s an Avian Narnia...",
  "hylotlDescription": "The crystal over this closet is damaged and non-functional.",
  "novakidDescription": "A closet with a crystal on top. The crystal looks broken."
}