{
  "itemKey": "tribalbed2",
  "itemName": "Avian Bed",
  "iconFile": "tribalbed2.png",
  "price": 125,
  "rarity": "Common",
  "category": "furniture",
  "maxStack": 0,
  "foodValue": 0.0,
  "rottingMultiplier": 0.0,
  "printable": true,
  "colonyTags": [
    "avian",
    "avianvillage"
  ],
  "race": "avian",
  "description": "A beautifully carved Avian bed.",
  "apexDescription": "A colourful set of warm sheets on a comfortable-looking bed.",
  "avianDescription": "Even with their eyes closed the grounded enjoy bright colours around them.",
  "floranDescription": "Sssoft bed. Floran could ressst here.",
  "glitchDescription": "Sentimental. This is not unlike the bed I used to rest in.",
  "humanDescription": "This bed looks wonderfully comfortable.",
  "hylotlDescription": "A fine set of warm covers.",
  "novakidDescription": "A mighty fine lookin\u0027 bed, I must say."
}