{
  "itemKey": "trophybronze",
  "itemName": "Warrior\u0027s Trophy",
  "iconFile": "trophybronze.png",
  "price": 300,
  "rarity": "Uncommon",
  "category": "decorative",
  "maxStack": 0,
  "foodValue": 0.0,
  "rottingMultiplier": 0.0,
  "printable": false,
  "colonyTags": [
    "pretty",
    "valuable"
  ],
  "description": "The plaque reads \"All that is gold does not glitter. Awarded for a heroic victory.\".",
  "floranDescription": "This trophy is ssmall but a nice token.",
  "glitchDescription": "Pleased. This small trophy is pleasant to look at.",
  "novakidDescription": "A lil trophy, earned by doin\u0027 somethin\u0027 impressive."
}