{
  "itemKey": "trumpet",
  "itemName": "Trumpet",
  "iconFile": "trumpet.png",
  "price": 3000,
  "rarity": "Common",
  "category": "musicalInstrument",
  "maxStack": 1,
  "foodValue": 0.0,
  "rottingMultiplier": 0.0,
  "printable": true,
  "description": "A trumpet. Try not to blow your own horn."
}