{
  "itemKey": "tungstenchair",
  "itemName": "Metal Folding Chair",
  "iconFile": "tungstenchair.png",
  "price": 75,
  "rarity": "Common",
  "category": "furniture",
  "maxStack": 0,
  "foodValue": 0.0,
  "rottingMultiplier": 0.0,
  "printable": true,
  "colonyTags": [
    "human",
    "humanprison"
  ],
  "race": "generic",
  "description": "An uncomfortable-looking chair.",
  "apexDescription": "This chair folds up.",
  "avianDescription": "The chair folds to save space. Innovative.",
  "floranDescription": "Chair cold and uncomfortable.",
  "glitchDescription": "Disapproving. This is made from poor quality metal.",
  "humanDescription": "One of those awful folding chairs.",
  "hylotlDescription": "This looks terribly uncomfortable.",
  "novakidDescription": "This looks mighty uncomfortable."
}