{
  "itemKey": "tungstenore",
  "itemName": "Tungsten Ore",
  "iconFile": "tungstenore.png",
  "price": 30,
  "rarity": "Common",
  "category": "craftingMaterial",
  "maxStack": 0,
  "foodValue": 0.0,
  "rottingMultiplier": 0.0,
  "printable": true,
  "description": "It\u0027s tungsten. It can be used for smelting."
}