{
  "itemKey": "tungstenmagnum",
  "itemName": "Tungsten Magnum",
  "iconFile": "tungstenmagnum.png",
  "price": 640,
  "rarity": "Common",
  "category": "pistol",
  "maxStack": 1,
  "foodValue": 0.0,
  "rottingMultiplier": 0.0,
  "printable": true,
  "description": "A large handgun that packs a punch."
}