{
  "itemKey": "tungstenplatform",
  "itemName": "Tungsten Platform",
  "iconFile": "tungstenplatform.png",
  "price": 0,
  "rarity": "Common",
  "category": "platform",
  "maxStack": 0,
  "foodValue": 0.0,
  "rottingMultiplier": 0.0,
  "printable": true,
  "description": "Strong platforms made from tungsten."
}