{
  "itemKey": "uncommonshotgun",
  "itemName": "Uncommon Shotgun",
  "price": 990,
  "rarity": "Uncommon",
  "category": "shotgun",
  "maxStack": 1,
  "foodValue": 0.0,
  "rottingMultiplier": 0.0,
  "printable": true,
  "description": "Fires a spread that\u0027s lethal at close range."
}