{
  "itemKey": "underwaterlight",
  "itemName": "Waterproof Light",
  "iconFile": "underwaterlight.png",
  "price": 75,
  "rarity": "Common",
  "category": "decorative",
  "maxStack": 0,
  "foodValue": 0.0,
  "rottingMultiplier": 0.0,
  "printable": true,
  "colonyTags": [
    "hylotl",
    "hylotloceancity",
    "light"
  ],
  "race": "hylotl",
  "description": "A light protected by a glass cage.",
  "apexDescription": "A normal lightbulb, protected so it can function underwater.",
  "avianDescription": "This light appears to be waterproof so it can work in open water.",
  "floranDescription": "Lightbulb.",
  "glitchDescription": "Unremarkable. A waterproof light.",
  "humanDescription": "It\u0027s a light designed to function when exposed to water.",
  "hylotlDescription": "It\u0027s a simple water-resistant lightbulb.",
  "novakidDescription": "A lightbulb under glass."
}