{
  "itemKey": "underwaterlightsmall",
  "itemName": "Small Waterproof Light",
  "iconFile": "underwaterlightsmall.png",
  "price": 45,
  "rarity": "Common",
  "category": "light",
  "maxStack": 0,
  "foodValue": 0.0,
  "rottingMultiplier": 0.0,
  "printable": true,
  "colonyTags": [
    "hylotl",
    "hylotloceancity",
    "light"
  ],
  "race": "hylotl",
  "description": "A tiny wall light.",
  "apexDescription": "It\u0027s a wall light.",
  "avianDescription": "A wall light.",
  "floranDescription": "Light.",
  "glitchDescription": "Indifferent. A light.",
  "humanDescription": "It\u0027s a light.",
  "hylotlDescription": "A light fixture.",
  "novakidDescription": "A tiny light."
}