{
  "itemKey": "uranusmodel",
  "itemName": "Uranus Model",
  "iconFile": "uranusmodel.png",
  "price": 60,
  "rarity": "Common",
  "category": "decorative",
  "maxStack": 0,
  "foodValue": 0.0,
  "rottingMultiplier": 0.0,
  "printable": false,
  "colonyTags": [
    "astronaut"
  ],
  "race": "generic",
  "description": "A detailed model of the Sol System\u0027s planet Uranus.",
  "apexDescription": "Uranus\u0027s axis is tilted an extreme of over ninety seven degrees.",
  "avianDescription": "Uranus is named after an earthen god of the sky. The legend pales compared to Avian sky gods.",
  "floranDescription": "Uranus is the seventh planet in the Sol Sssystem. It has faint ringsss.",
  "glitchDescription": "Fascinated. Uranus is the coldest planet in the Sol System.",
  "humanDescription": "Uranus might be named after a god...but it sure sounds funny.",
  "hylotlDescription": "Uranus is curious for it\u0027s lop-sided axis, making it unique in the Sol System.",
  "novakidDescription": "Uranus is an ice giant which are well known for being good at masking the engine emissions of hiding ships."
}