{
  "itemKey": "vaultkey",
  "itemName": "Vault Key",
  "iconFile": "vaultkey.png",
  "price": 0,
  "rarity": "Legendary",
  "category": "quest",
  "maxStack": 0,
  "foodValue": 0.0,
  "rottingMultiplier": 0.0,
  "printable": true,
  "description": "A shining key that can open a door to long forgotten places."
}