{
  "itemKey": "venusmodel",
  "itemName": "Venus Model",
  "iconFile": "venusmodel.png",
  "price": 45,
  "rarity": "Common",
  "category": "decorative",
  "maxStack": 0,
  "foodValue": 0.0,
  "rottingMultiplier": 0.0,
  "printable": false,
  "colonyTags": [
    "astronaut"
  ],
  "race": "generic",
  "description": "A detailed model of the Sol System\u0027s planet Venus.",
  "apexDescription": "The planet Venus, covered in sulphur dioxide clouds and by far the hottest planet in the Sol System.",
  "avianDescription": "Venus. Named after an ancient Earth goddess of love and beauty.",
  "floranDescription": "The planet Venusss of the Sol System. It\u0027s the second of eight.",
  "glitchDescription": "Fascinated. The planet Venus has natural greenhouse gases that that make the surface temperatures very high.",
  "humanDescription": "Venus is the second planet in the Sol System. There was talk of terraforming it before Earth was destroyed.",
  "hylotlDescription": "Venus, neighbour to Earth and almost a big but lifeless due to extreme conditions.",
  "novakidDescription": "Venus. You could see it from Earth as it travelled the stars. I\u0027ll miss that..."
}