{
  "itemKey": "vibrantplant",
  "itemName": "Vibrant Plant",
  "iconFile": "vibrantplant.png",
  "price": 60,
  "rarity": "Uncommon",
  "category": "decorative",
  "maxStack": 0,
  "foodValue": 0.0,
  "rottingMultiplier": 0.0,
  "printable": true,
  "colonyTags": [
    "nature",
    "pretty"
  ],
  "race": "generic",
  "description": "A particularly colourful potted plant.",
  "apexDescription": "I think this plant lacks subtlety.",
  "avianDescription": "I don\u0027t know if all these colours work together...",
  "floranDescription": "Floran likesss colourful plantsss.",
  "glitchDescription": "Surprised. Did someone grow this plant to be this vibrant?",
  "humanDescription": "This plant is very... Colourful. It almost looks fake.",
  "hylotlDescription": "I feel that this is an artificially grown plant.",
  "novakidDescription": "This plant has the colours of many passin\u0027 seasons."
}