{
  "itemKey": "vikinghead",
  "itemName": "Viking Helm",
  "iconFile": "vikinghead.png",
  "price": 2500,
  "rarity": "Rare",
  "category": "headwear",
  "maxStack": 1,
  "foodValue": 0.0,
  "rottingMultiplier": 0.0,
  "printable": true,
  "description": "An incredibly historically inaccurate Viking helmet."
}