{
  "itemKey": "violiumshortsword",
  "itemName": "Violium Shortsword",
  "iconFile": "violiumshortsword.png",
  "price": 480,
  "rarity": "Rare",
  "category": "shortsword",
  "maxStack": 1,
  "foodValue": 0.0,
  "rottingMultiplier": 0.0,
  "printable": true,
  "description": "This violium hilt houses the projector for a wicked energy blade."
}