{
  "itemKey": "violin",
  "itemName": "Violin",
  "iconFile": "violin.png",
  "price": 3000,
  "rarity": "Common",
  "category": "musicalInstrument",
  "maxStack": 1,
  "foodValue": 0.0,
  "rottingMultiplier": 0.0,
  "printable": true,
  "description": "A violin. Don\u0027t bow out just yet."
}