{
  "itemKey": "voltipaf",
  "itemName": "Voltip Figurine",
  "iconFile": "voltipaf.png",
  "price": 5000,
  "rarity": "Legendary",
  "category": "actionFigure",
  "maxStack": 0,
  "foodValue": 0.0,
  "rottingMultiplier": 0.0,
  "printable": false,
  "colonyTags": [
    "pretty"
  ],
  "description": "The label reads, \"The result of a scientific experiment gone wrong.\""
}