{
  "itemKey": "voxel5k",
  "itemName": "5k Voxel",
  "iconFile": "voxel5k.png",
  "price": 5000,
  "rarity": "Common",
  "category": "currency",
  "maxStack": 0,
  "foodValue": 0.0,
  "rottingMultiplier": 0.0,
  "printable": true,
  "description": "5000 pixels compressed into a voxel. Decompress it to get those pixels back."
}