{
  "itemKey": "voyagerchest",
  "itemName": "Voyager\u0027s Chestguard",
  "iconFile": "voyagerchest.png",
  "price": 3200,
  "rarity": "Uncommon",
  "category": "chestwear",
  "maxStack": 1,
  "foodValue": 0.0,
  "rottingMultiplier": 0.0,
  "printable": true,
  "description": "The low cut and big shoulderpads suggest this armour was designed more for style than protection."
}