{
  "itemKey": "voyagerlegs",
  "itemName": "Voyager\u0027s Trousers",
  "iconFile": "voyagerlegs.png",
  "price": 1280,
  "rarity": "Uncommon",
  "category": "legwear",
  "maxStack": 1,
  "foodValue": 0.0,
  "rottingMultiplier": 0.0,
  "printable": true,
  "description": "These trousers are surprisingly durable, considering how comfortable they are."
}