{
  "itemKey": "wallbuttontrigger",
  "itemName": "Small Wall Button",
  "iconFile": "wallbuttontrigger.png",
  "price": 0,
  "rarity": "Common",
  "category": "genboss",
  "maxStack": 0,
  "foodValue": 0.0,
  "rottingMultiplier": 0.0,
  "printable": false,
  "colonyTags": [
    "wired"
  ],
  "race": "generic",
  "description": "Who knows what it might activate... just press it!"
}