{
  "itemKey": "wantedposter",
  "itemName": "Wanted Poster",
  "iconFile": "wantedposter.png",
  "price": 55,
  "rarity": "Common",
  "category": "decorative",
  "maxStack": 0,
  "foodValue": 0.0,
  "rottingMultiplier": 0.0,
  "printable": true,
  "colonyTags": [
    "novakid",
    "novakidvillage"
  ],
  "race": "novakid",
  "description": "A faded poster, offering a bounty from long ago.",
  "apexDescription": "I wonder if the subject of this bounty poster was a criminal, or perhaps a heroic rebel?",
  "avianDescription": "This bounty poster is very old. I wonder if the criminal on it was ever caught?",
  "floranDescription": "Floran likesss picture of impressive hunter.",
  "glitchDescription": "Curious. This old poster offered a bounty for catching a criminal - I wonder if they were ever caught?",
  "humanDescription": "I wonder if the criminal on this old poster was ever caught?",
  "hylotlDescription": "This poster is very old now. I wonder if the bounty offered upon it was ever claimed?",
  "novakidDescription": "A \"wanted\" poster? I wonder if they ever caught the perp."
}