{
  "itemKey": "wargroovebanner4",
  "itemName": "Floran Banner",
  "iconFile": "wargroovebanner4.png",
  "price": 50,
  "rarity": "Common",
  "category": "decorative",
  "maxStack": 0,
  "foodValue": 0.0,
  "rottingMultiplier": 0.0,
  "printable": true,
  "colonyTags": [
    "combat",
    "floran"
  ],
  "race": "generic",
  "description": "A tribal green banner from some faraway Floran nation.",
  "apexDescription": "This appears to be some sort of Floran faction banner.",
  "avianDescription": "Although this banner is well made, I believe a Floran my have made it.",
  "floranDescription": "Floran can recognissse Floran craftsmanship when Floran seesss it!",
  "glitchDescription": "Curious. I wonder what kingdom this banner hails from?",
  "humanDescription": "I wonder where this banner is from? I get the feeling a Floran made it.",
  "hylotlDescription": "Did a Floran make this? It looks crude and uninspired.",
  "novakidDescription": "Some sorta nation seems to be represented by this."
}