{
  "itemKey": "wartweedjam",
  "itemName": "Wartweed Jam",
  "iconFile": "wartweedjam.png",
  "price": 290,
  "rarity": "Common",
  "category": "preparedFood",
  "maxStack": 1,
  "foodValue": 25.0,
  "rottingMultiplier": 1.0,
  "printable": true,
  "description": "A coarse, seedy jam that leaves behind a dry taste in your mouth."
}