{
  "itemKey": "wateringcan",
  "itemName": "Watering Can",
  "iconFile": "wateringcan.png",
  "price": 0,
  "rarity": "Uncommon",
  "category": "tool",
  "maxStack": 175,
  "foodValue": 0.0,
  "rottingMultiplier": 0.0,
  "printable": true,
  "description": "Water your crops with this fashionable watering can."
}