{
  "itemKey": "wavedoor",
  "itemName": "Wave Door",
  "iconFile": "wavedoor.png",
  "price": 135,
  "rarity": "Common",
  "category": "door",
  "maxStack": 0,
  "foodValue": 0.0,
  "rottingMultiplier": 0.0,
  "printable": false,
  "colonyTags": [
    "door",
    "wave"
  ],
  "race": "generic",
  "description": "A very sturdy wave door.",
  "apexDescription": "This door is very secure.",
  "avianDescription": "A very sturdy door.",
  "floranDescription": "Floran hide behind door. Jump out. Ssstab!",
  "glitchDescription": "Approving. A useful door.",
  "humanDescription": "A sturdy wave door.",
  "hylotlDescription": "A robust wave door.",
  "novakidDescription": "A pretty solid lookin\u0027 door."
}