{
  "itemKey": "wavebird",
  "itemName": "Wavebird",
  "iconFile": "wavebird.png",
  "price": 50,
  "rarity": "Common",
  "category": "bug",
  "maxStack": 0,
  "foodValue": 0.0,
  "rottingMultiplier": 0.0,
  "printable": false,
  "colonyTags": [
    "nature"
  ],
  "race": "generic",
  "description": "A bug that can usually be found chasing the crest of a wave."
}