{
  "itemKey": "wedding1legs",
  "itemName": "Elegant Wedding Skirt",
  "iconFile": "wedding1legs.png",
  "price": 5000,
  "rarity": "Legendary",
  "category": "legwear",
  "maxStack": 1,
  "foodValue": 0.0,
  "rottingMultiplier": 0.0,
  "printable": true,
  "description": "An elegant skirt. It\u0027s intended for brides, but may be worn by anyone feeling fancy."
}