{
  "itemKey": "wedding1chest",
  "itemName": "Elegant Wedding Top",
  "iconFile": "wedding1chest.png",
  "price": 5000,
  "rarity": "Legendary",
  "category": "chestwear",
  "maxStack": 1,
  "foodValue": 0.0,
  "rottingMultiplier": 0.0,
  "printable": true,
  "description": "An elegant top. It\u0027s intended for brides, but can be worn by anyone feeling fancy."
}