{
  "itemKey": "wickerbasket2",
  "itemName": "Wide Wicker Basket",
  "iconFile": "wickerbasket2.png",
  "price": 25,
  "rarity": "Common",
  "category": "breakable",
  "maxStack": 0,
  "foodValue": 0.0,
  "rottingMultiplier": 0.0,
  "printable": true,
  "colonyTags": [
    "glitch",
    "glitchvillage",
    "storage"
  ],
  "race": "generic",
  "description": "A wicker basket. Maybe it\u0027s got cool stuff inside!",
  "apexDescription": "A wicker basket. Easily broken.",
  "avianDescription": "A woven basket. Perhaps there are goodies inside.",
  "floranDescription": "Sssmash basket!",
  "glitchDescription": "Enticed. A wicker basket. What\u0027s inside I wonder?",
  "humanDescription": "A very bashable wicker basket.",
  "hylotlDescription": "There could be something inside this basket.",
  "novakidDescription": "This looks kinda smashable!"
}