{
  "itemKey": "wildpotatoseed",
  "itemName": "Potato Seed",
  "iconFile": "wildpotatoseed.png",
  "price": 20,
  "rarity": "Common",
  "category": "seed",
  "maxStack": 0,
  "foodValue": 0.0,
  "rottingMultiplier": 0.0,
  "printable": false,
  "colonyTags": [
    "nature"
  ],
  "description": "Potatoes! Boil em\u0027, mash em\u0027, stick em in a stew.",
  "apexDescription": "Potatoes are completely unremarkable.",
  "avianDescription": "Mashed potatoes make for a comforting dish.",
  "floranDescription": "Hard, crunchy potatoesss fresh from the dirt.",
  "glitchDescription": "Admiration. Humans create many dishes from such a simple thing.",
  "humanDescription": "Ahhh, potatoes. Is there anything you can\u0027t do?",
  "hylotlDescription": "A common, tedious root vegetable.",
  "novakidDescription": "Perfect for roasting in a campfire on a cold night."
}