{
  "itemKey": "wildbananaseed",
  "itemName": "Banana Seed",
  "iconFile": "wildbananaseed.png",
  "price": 30,
  "rarity": "Common",
  "category": "seed",
  "maxStack": 0,
  "foodValue": 0.0,
  "rottingMultiplier": 0.0,
  "printable": false,
  "colonyTags": [
    "nature"
  ],
  "description": "Genetically enhanced bananas. Smaller trees with bigger fruit.",
  "apexDescription": "There\u0027s a stereotype that Apex love bananas, thanks to the Miniknog. They are delicious though.",
  "avianDescription": "These bananas taste unusual in a way I can\u0027t pin down.",
  "floranDescription": "Sssmells like a monkeyman.",
  "glitchDescription": "Cynical. The Apex love these, but The Glitch see nothing special.",
  "humanDescription": "It\u0027s like a banana, but even more banana-y.",
  "hylotlDescription": "A genetically modified banana, I can taste the artificial flavour.",
  "novakidDescription": "Genetically enhanced bananas are the best bananas."
}