{
  "itemKey": "wildbonebooseed",
  "itemName": "Boneboo Seed",
  "iconFile": "wildbonebooseed.png",
  "price": 40,
  "rarity": "Common",
  "category": "seed",
  "maxStack": 0,
  "foodValue": 0.0,
  "rottingMultiplier": 0.0,
  "printable": false,
  "colonyTags": [
    "nature"
  ],
  "description": "Boneboo, a good source of calcium.",
  "apexDescription": "A particularly unusual plant. Crunchy stalk, fleshy fruit.",
  "avianDescription": "Boneboos are not to Avian tastes.",
  "floranDescription": "Crunchy, chewy, fleshy foodsss.",
  "glitchDescription": "Disinterested. This plant apparently looks like organic internal anatomy. The Glitch have no such parts.",
  "humanDescription": "This plant might not be suitable for vegetarians.",
  "hylotlDescription": "Many vegetarian Hylotl meals are made with the boneboo plant.",
  "novakidDescription": "A fruit that tastes like meat. Confusing!"
}