{
  "itemKey": "wildpearlpeaseed",
  "itemName": "Pearlpea Seed",
  "iconFile": "wildpearlpeaseed.png",
  "price": 10,
  "rarity": "Common",
  "category": "seed",
  "maxStack": 0,
  "foodValue": 0.0,
  "rottingMultiplier": 0.0,
  "printable": false,
  "colonyTags": [
    "nature"
  ],
  "description": "Pearlpea, I\u0027ll need to bite down hard.",
  "apexDescription": "A crunchy pea leads to many broken teeth.",
  "avianDescription": "Pearlpeas are pleasant enough to peck at for a while.",
  "floranDescription": "Hard little ballsss. Floran once usssed as weapon.",
  "glitchDescription": "Pride. Glitch teeth make short work of pearlpeas.",
  "humanDescription": "Like a pea, with added toothache.",
  "hylotlDescription": "Delicious, crunchy peas. Fairly valuable underwater.",
  "novakidDescription": "Pearlpeas are perfect for loadin\u0027 into my pistol! Pew pew!"
}