{
  "itemKey": "wildwheatseed",
  "itemName": "Wheat Seed",
  "iconFile": "wildwheatseed.png",
  "price": 10,
  "rarity": "Common",
  "category": "seed",
  "maxStack": 0,
  "foodValue": 0.0,
  "rottingMultiplier": 0.0,
  "printable": false,
  "colonyTags": [
    "nature"
  ],
  "description": "Wheat, a staple crop with many uses.",
  "apexDescription": "Wheat is unpleasant when unprocressed, but can be used to make all manner of dishes.",
  "avianDescription": "Wheat is delicious on its own, or when used to make breadcrumbs.",
  "floranDescription": "Wheat has earsss. Floran pull off earsss for fun.",
  "glitchDescription": "Thoughtful. I wonder if all the possible uses for wheat have been found.",
  "humanDescription": "Wheat, perfect for baking some fresh bread.",
  "hylotlDescription": "On land, wheat has many uses. Underwater, almost none.",
  "novakidDescription": "I get a hankerin\u0027 for fresh bread whenever I see wheat."
}