{
  "itemKey": "wildfunguschest",
  "itemName": "Wild Fungus Rags",
  "iconFile": "wildfunguschest.png",
  "price": 2500,
  "rarity": "Rare",
  "category": "chestwear",
  "maxStack": 1,
  "foodValue": 0.0,
  "rottingMultiplier": 0.0,
  "printable": true,
  "description": "These rags will make you look like a fun guy!"
}