{
  "itemKey": "wiredtarget",
  "itemName": "Wired Target",
  "iconFile": "wiredtarget.png",
  "price": 0,
  "rarity": "Common",
  "category": "other",
  "maxStack": 0,
  "foodValue": 0.0,
  "rottingMultiplier": 0.0,
  "printable": false,
  "colonyTags": [
    "outpost"
  ],
  "race": "generic",
  "description": "This practice target outputs a wire signal until broken.",
  "apexDescription": "This practice target passes wire signal until broken.",
  "avianDescription": "Practice targets like this can be connected to wired objects.",
  "floranDescription": "Shiny target isss just begging to be broken.",
  "glitchDescription": "Interested. This appears to be a practice target, which could be connected to something.",
  "humanDescription": "This practice target can pass a wired signal until it\u0027s broken.",
  "hylotlDescription": "This practice target is hypnotising, breaking it may trigger something.",
  "novakidDescription": "Just what I need for shootin\u0027 practice. Wonder if breaking this target does somethin\u0027."
}