{
  "itemKey": "wizardlegs",
  "itemName": "Wizard Robe Bottoms",
  "iconFile": "wizardlegs.png",
  "price": 250,
  "rarity": "Uncommon",
  "category": "legwear",
  "maxStack": 1,
  "foodValue": 0.0,
  "rottingMultiplier": 0.0,
  "printable": true,
  "description": "It\u0027s like a bathrobe, but for very serious wizards. Do wizards take a lot of baths?"
}