{
  "itemKey": "woodenverticaldoor",
  "itemName": "Wooden Hatch",
  "iconFile": "woodenverticaldoor.png",
  "price": 15,
  "rarity": "Common",
  "category": "door",
  "maxStack": 0,
  "foodValue": 0.0,
  "rottingMultiplier": 0.0,
  "printable": false,
  "colonyTags": [
    "door"
  ],
  "race": "generic",
  "description": "A crude wooden hatch.",
  "apexDescription": "A basic wooden hatch.",
  "avianDescription": "A handmade wooden hatch.",
  "floranDescription": "It looksss like a door in the floor.",
  "glitchDescription": "Observant. This hatch appears to be handmade.",
  "humanDescription": "A hatch for when going horizontal just isn\u0027t enough.",
  "hylotlDescription": "A humble wooden hatch.",
  "novakidDescription": "A hatchway in the floor. It looks pretty darn crude."
}