{
  "itemKey": "woodenarmchair2",
  "itemName": "Soft Armchair",
  "iconFile": "woodenarmchair2.png",
  "price": 85,
  "rarity": "Common",
  "category": "furniture",
  "maxStack": 0,
  "foodValue": 0.0,
  "rottingMultiplier": 0.0,
  "printable": true,
  "colonyTags": [
    "misc"
  ],
  "race": "generic",
  "description": "A luxurious armchair.",
  "apexDescription": "An armchair covered in soft cushions.",
  "avianDescription": "It is possible to sink into this chair. Most relaxing.",
  "floranDescription": "Floran sssink into chair like quick ssand.",
  "glitchDescription": "Calm. This chair is a powerful relaxant.",
  "humanDescription": "The kind of chair you have for life.",
  "hylotlDescription": "An attractive blue hue.",
  "novakidDescription": "Soft, like sitting on a marshmallow."
}