{
  "itemKey": "woodenarmchair1",
  "itemName": "Wooden Armchair",
  "iconFile": "woodenarmchair1.png",
  "price": 85,
  "rarity": "Common",
  "category": "furniture",
  "maxStack": 0,
  "foodValue": 0.0,
  "rottingMultiplier": 0.0,
  "printable": true,
  "colonyTags": [
    "avian",
    "avianvillage"
  ],
  "race": "generic",
  "description": "A comfy wooden armchair.",
  "apexDescription": "This armchair looks nice and comfy.",
  "avianDescription": "Colourful and comfortable.",
  "floranDescription": "Sssoft chair with sssmooth wooden arms.",
  "glitchDescription": "Content. I could happily while away the hours in this chair.",
  "humanDescription": "A simple wooden armchair.",
  "hylotlDescription": "Humble and comfortable.",
  "novakidDescription": "An attractive lookin\u0027 armchair."
}