{
  "itemKey": "woodsupport",
  "itemName": "Wooden Support",
  "iconFile": "woodsupport.png",
  "price": 5,
  "rarity": "Common",
  "category": "decorative",
  "maxStack": 0,
  "foodValue": 0.0,
  "rottingMultiplier": 0.0,
  "printable": false,
  "colonyTags": [
    "misc"
  ],
  "race": "generic",
  "description": "A worn wooden support.",
  "apexDescription": "A wooden support. Looks worse for wear.",
  "avianDescription": "A wooden support.",
  "floranDescription": "Wood made into sssupport.",
  "glitchDescription": "Disturbed. I believe this wood has been half eaten by woodworm.",
  "humanDescription": "A wooden support in poor condition.",
  "hylotlDescription": "This support does not look to be structurally sound.",
  "novakidDescription": "A rotten old wooden beam."
}