{
  "itemKey": "woodenendtable",
  "itemName": "Wooden End Table",
  "iconFile": "woodenendtable.png",
  "price": 85,
  "rarity": "Common",
  "category": "storage",
  "maxStack": 0,
  "foodValue": 0.0,
  "rottingMultiplier": 0.0,
  "printable": true,
  "colonyTags": [
    "storage"
  ],
  "race": "generic",
  "description": "A cute wooden end table.",
  "apexDescription": "A small end table.",
  "avianDescription": "A very small amount of storage.",
  "floranDescription": "Sssmall drawers.",
  "glitchDescription": "Curious. A piece of furniture that might sit next to a bed.",
  "humanDescription": "A wooden end table with a couple of drawers.",
  "hylotlDescription": "A table built to sit beside a sleeping area, perhaps?",
  "novakidDescription": "A tiny cabinet."
}