{
  "itemKey": "woodenplatform",
  "itemName": "Ornate Platform",
  "iconFile": "woodenplatform.png",
  "price": 0,
  "rarity": "Common",
  "category": "platform",
  "maxStack": 0,
  "foodValue": 0.0,
  "rottingMultiplier": 0.0,
  "printable": true,
  "description": "Nicely finished ornate, wooden platforms."
}