{
  "itemKey": "woodenlamp1",
  "itemName": "Wooden Table Lamp",
  "iconFile": "woodenlamp1.png",
  "price": 25,
  "rarity": "Common",
  "category": "light",
  "maxStack": 0,
  "foodValue": 0.0,
  "rottingMultiplier": 0.0,
  "printable": true,
  "colonyTags": [
    "light"
  ],
  "race": "generic",
  "description": "A cute wooden lamp.",
  "apexDescription": "A small wooden lamp.",
  "avianDescription": "A tiny wooden light powered by electricity.",
  "floranDescription": "Sssweet lamp glowss warmly.",
  "glitchDescription": "Pleased. A simple table lamp.",
  "humanDescription": "A nice little lamp.",
  "hylotlDescription": "A charming lamp.",
  "novakidDescription": "This lamp is cute."
}