{
  "itemKey": "woodenutilitypole1",
  "itemName": "Wooden Utility Pole",
  "iconFile": "woodenutilitypole1.png",
  "price": 110,
  "rarity": "Common",
  "category": "decorative",
  "maxStack": 0,
  "foodValue": 0.0,
  "rottingMultiplier": 0.0,
  "printable": true,
  "colonyTags": [
    "scorched"
  ],
  "race": "generic",
  "description": "A wooden utility pole.",
  "apexDescription": "A wooden utility pole, it seems mostly intact.",
  "avianDescription": "A wooden pole, for what purpose does it serve?",
  "floranDescription": "Wooden pole, maybe good for climbing?",
  "glitchDescription": "Confident. A wooden utility pole.",
  "humanDescription": "A wooden utility pole, these used to be linked with wires to carry signals.",
  "hylotlDescription": "A wooden pole of some sort. It appears to have had a use once.",
  "novakidDescription": "Wonder what this could\u0027ve been used for?"
}