{
  "itemKey": "woollychest",
  "itemName": "Prehistoric Woolly Coat",
  "iconFile": "woollychest.png",
  "price": 2500,
  "rarity": "Rare",
  "category": "chestwear",
  "maxStack": 1,
  "foodValue": 0.0,
  "rottingMultiplier": 0.0,
  "printable": true,
  "description": "It\u0027s woolly in order to retain warmth, and yet it doesn\u0027t cover much skin. Curious!"
}