{
  "itemKey": "wormerang",
  "itemName": "Giant Worm",
  "iconFile": "wormerang.png",
  "price": 2500,
  "rarity": "Legendary",
  "category": "boomerang",
  "maxStack": 1,
  "foodValue": 0.0,
  "rottingMultiplier": 0.0,
  "printable": true,
  "description": "A terrifying giant worm, throw it at someone!"
}