{
  "itemKey": "wreckconsole1",
  "itemName": "Wrecked Console",
  "iconFile": "wreckconsole1.png",
  "price": 70,
  "rarity": "Common",
  "category": "decorative",
  "maxStack": 0,
  "foodValue": 0.0,
  "rottingMultiplier": 0.0,
  "printable": true,
  "colonyTags": [
    "wreck",
    "mechanical"
  ],
  "race": "generic",
  "description": "No chance of this thing starting up.",
  "apexDescription": "A useless wrecked console.",
  "avianDescription": "A console. It doesn\u0027t work.",
  "floranDescription": "This consssole is broken.",
  "glitchDescription": "Upset. This console is broken and useless.",
  "humanDescription": "This console doesn\u0027t work. Half the buttons are missing.",
  "hylotlDescription": "This console is broken beyond repair.",
  "novakidDescription": "A wrecked console. I wonder if this thing ever worked."
}