{
  "itemKey": "wreckpanel2",
  "itemName": "Small Wrecked Panel",
  "iconFile": "wreckpanel2.png",
  "price": 30,
  "rarity": "Common",
  "category": "decorative",
  "maxStack": 0,
  "foodValue": 0.0,
  "rottingMultiplier": 0.0,
  "printable": true,
  "colonyTags": [
    "wreck",
    "mechanical"
  ],
  "race": "generic",
  "description": "An old input panel, probably used to be used for security.",
  "apexDescription": "This input panel doesn\u0027t work.",
  "avianDescription": "It\u0027s an input panel, but it\u0027s completely dead.",
  "floranDescription": "This panel isss very broken.",
  "glitchDescription": "Vexed. This input panel is completely dead.",
  "humanDescription": "A broken and dirty input panel. I don\u0027t think this is going to work.",
  "hylotlDescription": "This input panel is past saving.",
  "novakidDescription": "This ol\u0027 thing is beyond useless now."
}