{
  "itemKey": "wrecklocker",
  "itemName": "Wrecked Locker",
  "iconFile": "wrecklocker.png",
  "price": 85,
  "rarity": "Common",
  "category": "storage",
  "maxStack": 0,
  "foodValue": 0.0,
  "rottingMultiplier": 0.0,
  "printable": true,
  "colonyTags": [
    "wreck",
    "storage"
  ],
  "race": "generic",
  "description": "An old locker. Hey! There\u0027s a photo taped to the inside...",
  "apexDescription": "A locker. I wonder if it\u0027s empty.",
  "avianDescription": "Not a very secure storage unit now.",
  "floranDescription": "This locker ssmells funny.",
  "glitchDescription": "Inquisitive. Could this locker still have something inside?",
  "humanDescription": "An old and rusted locker.",
  "hylotlDescription": "I wouldn\u0027t want to store valuables in here.",
  "novakidDescription": "I wouldn\u0027t count on anything in there staying there."
}