{
  "itemKey": "wreckchair",
  "itemName": "Wrecked Chair",
  "iconFile": "wreckchair.png",
  "price": 75,
  "rarity": "Common",
  "category": "furniture",
  "maxStack": 0,
  "foodValue": 0.0,
  "rottingMultiplier": 0.0,
  "printable": true,
  "colonyTags": [
    "wreck"
  ],
  "race": "generic",
  "description": "A filthy chair. Insects skitter in and out of holes in the fabric.",
  "apexDescription": "Insects have made their home inside this chair.",
  "avianDescription": "The chair is caked in filth.",
  "floranDescription": "Full of sskittering insects.",
  "glitchDescription": "Appalled. This chair is infested.",
  "humanDescription": "Covered in dirt and full of bugs.",
  "hylotlDescription": "A disgustingly dirty old chair.",
  "novakidDescription": "This chair is full o\u0027 bugs!"
}