{
  "itemKey": "wreckbed",
  "itemName": "Wrecked Bed",
  "iconFile": "wreckbed.png",
  "price": 125,
  "rarity": "Common",
  "category": "furniture",
  "maxStack": 0,
  "foodValue": 0.0,
  "rottingMultiplier": 0.0,
  "printable": true,
  "colonyTags": [
    "wreck"
  ],
  "race": "generic",
  "description": "Filth and rust have eaten away at this bed. Thankfully I\u0027m not at all tired.",
  "apexDescription": "A terrible place to sleep.",
  "avianDescription": "Not a very inviting place to sleep.",
  "floranDescription": "A russsty bed.",
  "glitchDescription": "Disgusted. Rust!",
  "humanDescription": "I can\u0027t imagine this ever looking inviting.",
  "hylotlDescription": "The bed is rusted beyond repair. Time takes us all eventually.",
  "novakidDescription": "You\u0027d have to be pretty darn tired to want to sleep here."
}