{
  "itemKey": "wrecktv",
  "itemName": "Wrecked Screen",
  "iconFile": "wrecktv.png",
  "price": 100,
  "rarity": "Common",
  "category": "decorative",
  "maxStack": 0,
  "foodValue": 0.0,
  "rottingMultiplier": 0.0,
  "printable": true,
  "colonyTags": [
    "wreck",
    "electronic"
  ],
  "race": "generic",
  "description": "The screen sends out an ominous flickering light.",
  "apexDescription": "It seems there\u0027s no signal.",
  "avianDescription": "Just static.",
  "floranDescription": "Pretty dancing pattern machine!",
  "glitchDescription": "Sad. No signal, just static.",
  "humanDescription": "Static. No signal I suppose.",
  "hylotlDescription": "This monitor lacks an input.",
  "novakidDescription": "Nope, nothin\u0027 on."
}