{
  "itemKey": "yellowflashlight",
  "itemName": "Flashlight",
  "iconFile": "yellowflashlight.png",
  "price": 100,
  "rarity": "Uncommon",
  "category": "Tool",
  "maxStack": 1,
  "foodValue": 0.0,
  "rottingMultiplier": 0.0,
  "printable": true,
  "description": "A yellow flashlight! Don\u0027t be afraid."
}