{
  "itemKey": "yokataf",
  "itemName": "Yokat Figurine",
  "iconFile": "yokataf.png",
  "price": 5000,
  "rarity": "Legendary",
  "category": "actionFigure",
  "maxStack": 0,
  "foodValue": 0.0,
  "rottingMultiplier": 0.0,
  "printable": false,
  "colonyTags": [
    "pretty"
  ],
  "description": "The label reads, \"Greedy and sly in nature. If disturbed whilst sneaking it will give you the evil eye.\""
}